<?xml version="1.0" encoding="utf-8"?>
<COLLADA xmlns="http://www.collada.org/2005/11/COLLADASchema" version="1.4.1">
  <asset>
    <created>2017-11-05T12:01:17Z</created>
    <modified>2017-11-05T12:01:17Z</modified>
  </asset>
  <library_images>
    <image id="Image">
      <init_from>bg_paint_test.png</init_from>
    </image>
    <image id="Image1">
      <init_from>intro_gaku01.png</init_from>
    </image>
    <image id="Image2">
      <init_from>wall_grid.png</init_from>
    </image>
    <image id="Image3">
      <init_from>intro_door_waku1.png</init_from>
    </image>
  </library_images>
  <library_materials>
    <material id="VisualMaterial" name="Mdl_0_Mtl_Comb3">
      <instance_effect url="#Effect"/>
      <extra>
        <technique profile="FCOLLADA">
          <user_properties>Mdl_0_Mtl_Comb3</user_properties>
        </technique>
      </extra>
    </material>
    <material id="VisualMaterial1" name="Mdl_0_Mtl_Comb4">
      <instance_effect url="#Effect1"/>
      <extra>
        <technique profile="FCOLLADA">
          <user_properties>Mdl_0_Mtl_Comb4</user_properties>
        </technique>
      </extra>
    </material>
    <material id="VisualMaterial2" name="Mdl_0_Mtl_Comb6">
      <instance_effect url="#Effect2"/>
      <extra>
        <technique profile="FCOLLADA">
          <user_properties>Mdl_0_Mtl_Comb6</user_properties>
        </technique>
      </extra>
    </material>
    <material id="VisualMaterial3" name="Mdl_0_Mtl_Comb2">
      <instance_effect url="#Effect3"/>
      <extra>
        <technique profile="FCOLLADA">
          <user_properties>Mdl_0_Mtl_Comb2</user_properties>
        </technique>
      </extra>
    </material>
  </library_materials>
  <library_effects>
    <effect id="Effect" name="bg_paint_test_png">
      <profile_COMMON>
        <newparam sid="Image-surface">
          <surface type="2D">
            <init_from>Image</init_from>
            <format>A8R8G8B8</format>
          </surface>
        </newparam>
        <newparam sid="Image-sampler">
          <sampler2D>
            <source>Image-surface</source>
            <wrap_s>WRAP</wrap_s>
            <wrap_t>WRAP</wrap_t>
            <minfilter>NONE</minfilter>
            <magfilter>NONE</magfilter>
            <mipfilter>NONE</mipfilter>
          </sampler2D>
        </newparam>
        <technique sid="common">
          <phong>
            <emission>
              <color>0 0 0 1</color>
            </emission>
            <ambient>
              <color>0 0 0 1</color>
            </ambient>
            <diffuse>
              <texture texture="Image-sampler" texcoord=""/>
            </diffuse>
            <specular>
              <color>1 1 1 1</color>
            </specular>
            <shininess>
              <float>0</float>
            </shininess>
            <transparent opaque="A_ONE">
              <color>0 0 0 1</color>
            </transparent>
            <transparency>
              <float>1</float>
            </transparency>
            <index_of_refraction>
              <float>1.55</float>
            </index_of_refraction>
          </phong>
          <extra>
            <technique profile="FCOLLADA">
              <spec_level>
                <float>0</float>
              </spec_level>
            </technique>
          </extra>
        </technique>
      </profile_COMMON>
      <extra>
        <technique profile="FCOLLADA">
          <user_properties>bg_paint_test.png</user_properties>
        </technique>
      </extra>
    </effect>
    <effect id="Effect1" name="intro_gaku01_png">
      <profile_COMMON>
        <newparam sid="Image1-surface">
          <surface type="2D">
            <init_from>Image1</init_from>
            <format>A8R8G8B8</format>
          </surface>
        </newparam>
        <newparam sid="Image1-sampler">
          <sampler2D>
            <source>Image1-surface</source>
            <wrap_s>WRAP</wrap_s>
            <wrap_t>WRAP</wrap_t>
            <minfilter>NONE</minfilter>
            <magfilter>NONE</magfilter>
            <mipfilter>NONE</mipfilter>
          </sampler2D>
        </newparam>
        <technique sid="common">
          <phong>
            <emission>
              <color>0 0 0 1</color>
            </emission>
            <ambient>
              <color>0 0 0 1</color>
            </ambient>
            <diffuse>
              <texture texture="Image1-sampler" texcoord=""/>
            </diffuse>
            <specular>
              <color>1 1 1 1</color>
            </specular>
            <shininess>
              <float>0</float>
            </shininess>
            <transparent opaque="A_ONE">
              <color>0 0 0 1</color>
            </transparent>
            <transparency>
              <float>1</float>
            </transparency>
            <index_of_refraction>
              <float>1.55</float>
            </index_of_refraction>
          </phong>
          <extra>
            <technique profile="FCOLLADA">
              <spec_level>
                <float>0</float>
              </spec_level>
            </technique>
          </extra>
        </technique>
      </profile_COMMON>
      <extra>
        <technique profile="FCOLLADA">
          <user_properties>intro_gaku01.png</user_properties>
        </technique>
      </extra>
    </effect>
    <effect id="Effect2" name="wall_grid_png">
      <profile_COMMON>
        <newparam sid="Image2-surface">
          <surface type="2D">
            <init_from>Image2</init_from>
            <format>A8R8G8B8</format>
          </surface>
        </newparam>
        <newparam sid="Image2-sampler">
          <sampler2D>
            <source>Image2-surface</source>
            <wrap_s>WRAP</wrap_s>
            <wrap_t>WRAP</wrap_t>
            <minfilter>NONE</minfilter>
            <magfilter>NONE</magfilter>
            <mipfilter>NONE</mipfilter>
          </sampler2D>
        </newparam>
        <technique sid="common">
          <phong>
            <emission>
              <color>0 0 0 1</color>
            </emission>
            <ambient>
              <color>0 0 0 1</color>
            </ambient>
            <diffuse>
              <texture texture="Image2-sampler" texcoord=""/>
            </diffuse>
            <specular>
              <color>1 1 1 1</color>
            </specular>
            <shininess>
              <float>0</float>
            </shininess>
            <transparent opaque="A_ONE">
              <color>0 0 0 1</color>
            </transparent>
            <transparency>
              <float>1</float>
            </transparency>
            <index_of_refraction>
              <float>1.55</float>
            </index_of_refraction>
          </phong>
          <extra>
            <technique profile="FCOLLADA">
              <spec_level>
                <float>0</float>
              </spec_level>
            </technique>
          </extra>
        </technique>
      </profile_COMMON>
      <extra>
        <technique profile="FCOLLADA">
          <user_properties>wall_grid.png</user_properties>
        </technique>
      </extra>
    </effect>
    <effect id="Effect3" name="intro_door_waku1_png">
      <profile_COMMON>
        <newparam sid="Image3-surface">
          <surface type="2D">
            <init_from>Image3</init_from>
            <format>A8R8G8B8</format>
          </surface>
        </newparam>
        <newparam sid="Image3-sampler">
          <sampler2D>
            <source>Image3-surface</source>
            <wrap_s>WRAP</wrap_s>
            <wrap_t>WRAP</wrap_t>
            <minfilter>NONE</minfilter>
            <magfilter>NONE</magfilter>
            <mipfilter>NONE</mipfilter>
          </sampler2D>
        </newparam>
        <technique sid="common">
          <phong>
            <emission>
              <color>0 0 0 1</color>
            </emission>
            <ambient>
              <color>0 0 0 1</color>
            </ambient>
            <diffuse>
              <texture texture="Image3-sampler" texcoord=""/>
            </diffuse>
            <specular>
              <color>1 1 1 1</color>
            </specular>
            <shininess>
              <float>0</float>
            </shininess>
            <transparent opaque="A_ONE">
              <color>0 0 0 1</color>
            </transparent>
            <transparency>
              <float>1</float>
            </transparency>
            <index_of_refraction>
              <float>1.55</float>
            </index_of_refraction>
          </phong>
          <extra>
            <technique profile="FCOLLADA">
              <spec_level>
                <float>0</float>
              </spec_level>
            </technique>
          </extra>
        </technique>
      </profile_COMMON>
      <extra>
        <technique profile="FCOLLADA">
          <user_properties>intro_door_waku1.png</user_properties>
        </technique>
      </extra>
    </effect>
  </library_effects>
  <library_geometries>
    <geometry id="Geometry" name="painting1_0_0">
      <mesh>
        <source id="GeometrySource" name="painting1_0_0Pos">
          <float_array id="GeometrySource-array" count="12">162 117.713 39.3478 -162 185.113 39.3478 -162 117.713 39.3478 162 185.113 39.3478</float_array>
          <technique_common>
            <accessor source="#GeometrySource-array" count="4" stride="3">
              <param name="X" type="float"/>
              <param name="Y" type="float"/>
              <param name="Z" type="float"/>
            </accessor>
          </technique_common>
        </source>
        <source id="GeometrySource1" name="painting1_0_0Nrm">
          <float_array id="GeometrySource1-array" count="12">0 0 1 0 0 1 0 0 1 0 0 1</float_array>
          <technique_common>
            <accessor source="#GeometrySource1-array" count="4" stride="3">
              <param name="X" type="float"/>
              <param name="Y" type="float"/>
              <param name="Z" type="float"/>
            </accessor>
          </technique_common>
        </source>
        <source id="GeometrySource2" name="painting1_0_0UV">
          <float_array id="GeometrySource2-array" count="8">1 0 0 0.824195 0 0 1 0.824195</float_array>
          <technique_common>
            <accessor source="#GeometrySource2-array" count="4" stride="2">
              <param name="S" type="float"/>
              <param name="T" type="float"/>
            </accessor>
          </technique_common>
        </source>
        <vertices id="Geometry-vertices">
          <input semantic="POSITION" source="#GeometrySource"/>
          <input semantic="NORMAL" source="#GeometrySource1"/>
          <input semantic="TEXCOORD" source="#GeometrySource2"/>
        </vertices>
        <triangles material="VisualMaterial0" count="2">
          <input semantic="VERTEX" source="#Geometry-vertices" offset="0"/>
          <p>0 1 2 0 3 1</p>
        </triangles>
      </mesh>
    </geometry>
    <geometry id="Geometry1" name="painting2_1_0">
      <mesh>
        <source id="GeometrySource3" name="painting2_1_0Pos">
          <float_array id="GeometrySource3-array" count="192">0 198.704 40.0332 -20.1614 198.704 40.0332 -20.1614 184.123 40.0332 0 184.123 40.0332 20.1614 198.704 40.0332 20.1614 184.123 40.0332 -20.1614 184.123 40.0332 -160.592 184.123 40.0332 -20.1614 184.123 39.3469 0 184.123 39.3469 0 184.123 40.0332 -160.592 184.123 39.3469 20.1614 184.123 39.3469 20.1614 184.123 40.0332 160.592 184.123 39.3469 160.592 184.123 40.0332 160.592 118.703 40.0332 160.592 104.122 40.0332 175.376 104.122 40.0332 175.376 118.703 40.0332 -160.592 118.703 40.0332 -175.376 118.703 40.0332 -175.376 104.122 40.0332 -160.592 104.122 40.0332 160.592 184.123 40.0332 175.376 184.123 40.0332 175.376 198.704 40.0332 160.592 198.704 40.0332 -160.592 184.123 40.0332 -160.592 198.704 40.0332 -175.376 198.704 40.0332 -175.376 184.123 40.0332 -20.1614 184.123 40.0332 -160.592 198.704 40.0332 -160.592 184.123 40.0332 -20.1614 198.704 40.0332 -160.592 184.123 40.0332 -175.376 118.703 40.0332 -160.592 118.703 40.0332 -175.376 184.123 40.0332 160.592 118.703 40.0332 175.376 184.123 40.0332 160.592 184.123 40.0332 175.376 118.703 40.0332 160.592 104.122 40.0332 -160.592 118.703 40.0332 -160.592 104.122 40.0332 160.592 118.703 40.0332 20.1614 184.123 40.0332 160.592 198.704 40.0332 20.1614 198.704 40.0332 160.592 184.123 40.0332 160.592 118.703 40.0332 -160.592 118.703 39.3469 -160.592 118.703 40.0332 160.592 118.703 39.3469 -160.592 118.703 40.0332 -160.592 184.123 39.3469 -160.592 184.123 40.0332 -160.592 118.703 39.3469 160.592 184.123 40.0332 160.592 118.703 39.3469 160.592 118.703 40.0332 160.592 184.123 39.3469</float_array>
          <technique_common>
            <accessor source="#GeometrySource3-array" count="64" stride="3">
              <param name="X" type="float"/>
              <param name="Y" type="float"/>
              <param name="Z" type="float"/>
            </accessor>
          </technique_common>
        </source>
        <source id="GeometrySource4" name="painting2_1_0Nrm">
          <float_array id="GeometrySource4-array" count="192">0 0 1 0 0 1 0 0 1 0 0 1 0 0 1 0 0 1 0 -1 0 0 -1 0 0 -1 0 0 -1 0 0 -1 0 0 -1 0 0 -1 0 0 -1 0 0 -1 0 0 -1 0 0 0 1 0 0 1 0 0 1 0 0 1 0 0 1 0 0 1 0 0 1 0 0 1 0 0 1 0 0 1 0 0 1 0 0 1 0 0 1 0 0 1 0 0 1 0 0 1 0 0 1 0 0 1 0 0 1 0 0 1 0 0 1 0 0 1 0 0 1 0 0 1 0 0 1 0 0 1 0 0 1 0 0 1 0 0 1 0 0 1 0 0 1 0 0 1 0 0 1 0 0 1 0 0 1 0 0 1 0 1 0 0 1 0 0 1 0 0 1 0 1 0 0 1 0 0 1 0 0 1 0 0 -1 0 0 -1 0 0 -1 0 0 -1 0 0</float_array>
          <technique_common>
            <accessor source="#GeometrySource4-array" count="64" stride="3">
              <param name="X" type="float"/>
              <param name="Y" type="float"/>
              <param name="Z" type="float"/>
            </accessor>
          </technique_common>
        </source>
        <source id="GeometrySource5" name="painting2_1_0UV">
          <float_array id="GeometrySource5-array" count="128">-1.03125 0.742188 -1.96875 0.742188 -1.96875 0.507813 -1.03125 0.507813 -1.96875 0.742188 -1.96875 0.507813 0 0.757813 0 0.757813 0 0.757813 0 0.757813 0 0.757813 0 0.757813 0 0.757813 0 0.757813 0 0.757813 0 0.757813 0.03125 0.257813 0.03125 0.492188 0.96875 0.492188 0.96875 0.257813 0.03125 0.257813 0.96875 0.257813 0.96875 0.492188 0.03125 0.492188 0.03125 0.257813 0.96875 0.257813 0.96875 0.492188 0.03125 0.492188 0.03125 0.257813 0.03125 0.492188 0.96875 0.492188 0.96875 0.257813 0 0.757813 -8 0.992188 -8 0.757813 0 0.992188 0 0.757813 -4 0.992188 -4 0.757813 0 0.992188 -4 0.757813 0 0.992188 0 0.757813 -4 0.992188 0 0.992188 -17 0.757813 -17 0.992188 0 0.757813 0 0.757813 -8 0.992188 0 0.992188 -8 0.757813 0 0.757813 0 0.757813 0 0.757813 0 0.757813 0 0.757813 0 0.757813 0 0.757813 0 0.757813 0 0.757813 0 0.757813 0 0.757813 0 0.757813</float_array>
          <technique_common>
            <accessor source="#GeometrySource5-array" count="64" stride="2">
              <param name="S" type="float"/>
              <param name="T" type="float"/>
            </accessor>
          </technique_common>
        </source>
        <source id="GeometrySource6" name="painting2_1_0Clr">
          <float_array id="GeometrySource6-array" count="256">1 1 1 1 1 1 1 1 1 1 1 0.101961 1 1 1 0.101961 1 1 1 1 1 1 1 0.101961 1 1 1 0.101961 1 1 1 0.101961 1 1 1 1 1 1 1 1 1 1 1 0.101961 1 1 1 1 1 1 1 1 1 1 1 0.101961 1 1 1 1 1 1 1 0.101961 1 1 1 1 1 1 1 1 1 1 1 1 1 1 1 1 1 1 1 1 1 1 1 1 1 1 1 1 1 1 1 1 1 1 1 0.101961 1 1 1 1 1 1 1 1 1 1 1 1 1 1 1 0.101961 1 1 1 1 1 1 1 1 1 1 1 1 1 1 1 0.101961 1 1 1 1 1 1 1 0.101961 1 1 1 1 1 1 1 0.101961 1 1 1 1 1 1 1 1 1 1 1 1 1 1 1 1 1 1 1 1 1 1 1 0.101961 1 1 1 1 1 1 1 1 1 1 1 1 1 1 1 1 1 1 1 1 1 1 1 0.101961 1 1 1 1 1 1 1 1 1 1 1 0.101961 1 1 1 1 1 1 1 1 1 1 1 1 1 1 1 1 1 1 1 1 1 1 1 1 1 1 1 0.101961 1 1 1 1 1 1 1 0.101961 1 1 1 1 1 1 1 1 1 1 1 1</float_array>
          <technique_common>
            <accessor source="#GeometrySource6-array" count="64" stride="4">
              <param name="R" type="float"/>
              <param name="G" type="float"/>
              <param name="B" type="float"/>
              <param name="A" type="float"/>
            </accessor>
          </technique_common>
        </source>
        <vertices id="Geometry1-vertices">
          <input semantic="POSITION" source="#GeometrySource3"/>
          <input semantic="NORMAL" source="#GeometrySource4"/>
          <input semantic="TEXCOORD" source="#GeometrySource5"/>
          <input semantic="COLOR" source="#GeometrySource6"/>
        </vertices>
        <triangles material="VisualMaterial10" count="36">
          <input semantic="VERTEX" source="#Geometry1-vertices" offset="0"/>
          <p>0 1 2 0 2 3 0 3 4 3 5 4 6 7 8 6 8 9 6 9 10 7 11 8 9 12 10 12 13 10 12 14 13 14 15 13 16 17 18 16 18 19 20 21 22 20 22 23 24 25 26 24 26 27 28 29 30 28 30 31 32 33 34 32 35 33 36 37 38 36 39 37 40 41 42 40 43 41 44 45 46 44 47 45 48 49 50 48 51 49 52 53 54 52 55 53 56 57 58 56 59 57 60 61 62 60 63 61</p>
        </triangles>
      </mesh>
    </geometry>
    <geometry id="Geometry2" name="wall_01_2_0">
      <mesh>
        <source id="GeometrySource7" name="wall_01_2_0Pos">
          <float_array id="GeometrySource7-array" count="144">162 108 36 -162 90 36 162 90 36 -162 108 36 180 90 36 -162 180 36 180 108 36 162 180 36 -162 36 36 -180 90 36 -180 36 36 180 36 36 -162 198 36 -180 180 36 -180 198 36 180 180 36 162 36 36 -180 108 36 -162 270 36 162 198 36 162 270 36 -180 270 36 180 270 36 180 198 36 198 90 18.0001 198 36 18.0001 198 90 -17.9999 198 108 -17.9999 198 108 18.0001 198 36 -17.9999 198 180 -17.9999 198 180 18.0001 198 198 -17.9999 198 198 18.0001 198 270 -17.9999 198 270 18.0001 -198 90 -18 -198 36 -18 -198 90 18 -198 108 18 -198 108 -18 -198 36 18 -198 180 18 -198 180 -18 -198 198 18 -198 198 -18 -198 270 18 -198 270 -18</float_array>
          <technique_common>
            <accessor source="#GeometrySource7-array" count="48" stride="3">
              <param name="X" type="float"/>
              <param name="Y" type="float"/>
              <param name="Z" type="float"/>
            </accessor>
          </technique_common>
        </source>
        <source id="GeometrySource8" name="wall_01_2_0Nrm">
          <float_array id="GeometrySource8-array" count="144">0 0 1 0 0 1 0 0 1 0 0 1 0 0 1 0 0 1 0 0 1 0 0 1 0 0 1 0 0 1 0 0 1 0 0 1 0 0 1 0 0 1 0 0 1 0 0 1 0 0 1 0 0 1 0 0 1 0 0 1 0 0 1 0 0 1 0 0 1 0 0 1 1 0 0 1 0 0 1 0 0 1 0 0 1 0 0 1 0 0 1 0 0 1 0 0 1 0 0 1 0 0 1 0 0 1 0 0 -1 0 0 -1 0 0 -1 0 0 -1 0 0 -1 0 0 -1 0 0 -1 0 0 -1 0 0 -1 0 0 -1 0 0 -1 0 0 -1 0 0</float_array>
          <technique_common>
            <accessor source="#GeometrySource8-array" count="48" stride="3">
              <param name="X" type="float"/>
              <param name="Y" type="float"/>
              <param name="Z" type="float"/>
            </accessor>
          </technique_common>
        </source>
        <source id="GeometrySource9" name="wall_01_2_0UV">
          <float_array id="GeometrySource9-array" count="96">0.909091 0.4 0.090909 0.333333 0.909091 0.333333 0.090909 0.4 0.954545 0.333333 0.090909 0.666667 0.954546 0.4 0.909091 0.666667 0.090909 0.133333 0.045454 0.333333 0.045454 0.133333 0.954545 0.133333 0.090909 0.733334 0.045454 0.666667 0.045454 0.733333 0.954545 0.666667 0.909091 0.133333 0.045454 0.4 0.090909 1 0.909091 0.733333 0.909091 1 0.045454 1 0.954545 1 0.954545 0.733333 0.463089 0.333333 0.463088 0.133333 0.536911 0.333333 0.536912 0.400001 0.463089 0.4 0.536912 0.133333 0.536912 0.666667 0.463089 0.666667 0.536912 0.733334 0.463089 0.733333 0.536912 1 0.463089 1 0.536911 0.333333 0.536912 0.133333 0.463089 0.333333 0.463089 0.4 0.536912 0.400001 0.463088 0.133333 0.463089 0.666667 0.536912 0.666667 0.463089 0.733333 0.536912 0.733334 0.463089 1 0.536912 1</float_array>
          <technique_common>
            <accessor source="#GeometrySource9-array" count="48" stride="2">
              <param name="S" type="float"/>
              <param name="T" type="float"/>
            </accessor>
          </technique_common>
        </source>
        <source id="GeometrySource10" name="wall_01_2_0Clr">
          <float_array id="GeometrySource10-array" count="192">0.341177 0.341177 0.341177 1 1 1 1 1 1 1 1 1 0.341177 0.341177 0.341177 1 0.780392 0.780392 0.780392 1 0.341177 0.341177 0.341177 1 0.780392 0.780392 0.780392 1 0.341177 0.341177 0.341177 1 0.890196 0.890196 0.890196 1 0.780392 0.780392 0.780392 1 0.780392 0.780392 0.780392 1 0.780392 0.780392 0.780392 1 1 1 1 1 0.780392 0.780392 0.780392 1 0.780392 0.780392 0.780392 1 0.780392 0.780392 0.780392 1 0.890196 0.890196 0.890196 1 0.780392 0.780392 0.780392 1 1 1 1 1 1 1 1 1 1 1 1 1 0.780392 0.780392 0.780392 1 0.780392 0.780392 0.780392 1 0.780392 0.780392 0.780392 1 0.780392 0.780392 0.780392 1 0.780392 0.780392 0.780392 1 0.560784 0.560784 0.560784 1 0.560784 0.560784 0.560784 1 0.780392 0.780392 0.780392 1 0.560784 0.560784 0.560784 1 0.560784 0.560784 0.560784 1 0.780392 0.780392 0.780392 1 0.560784 0.560784 0.560784 1 0.780392 0.780392 0.780392 1 0.560784 0.560784 0.560784 1 0.780392 0.780392 0.780392 1 0.560784 0.560784 0.560784 1 0.560784 0.560784 0.560784 1 0.780392 0.780392 0.780392 1 0.780392 0.780392 0.780392 1 0.560784 0.560784 0.560784 1 0.780392 0.780392 0.780392 1 0.780392 0.780392 0.780392 1 0.560784 0.560784 0.560784 1 0.780392 0.780392 0.780392 1 0.560784 0.560784 0.560784 1 0.780392 0.780392 0.780392 1 0.560784 0.560784 0.560784 1</float_array>
          <technique_common>
            <accessor source="#GeometrySource10-array" count="48" stride="4">
              <param name="R" type="float"/>
              <param name="G" type="float"/>
              <param name="B" type="float"/>
              <param name="A" type="float"/>
            </accessor>
          </technique_common>
        </source>
        <vertices id="Geometry2-vertices">
          <input semantic="POSITION" source="#GeometrySource7"/>
          <input semantic="NORMAL" source="#GeometrySource8"/>
          <input semantic="TEXCOORD" source="#GeometrySource9"/>
          <input semantic="COLOR" source="#GeometrySource10"/>
        </vertices>
        <triangles material="VisualMaterial20" count="50">
          <input semantic="VERTEX" source="#Geometry2-vertices" offset="0"/>
          <p>0 1 2 0 3 1 0 2 4 0 5 3 0 4 6 0 7 5 0 6 7 1 8 2 1 3 9 1 9 10 1 10 8 4 2 11 5 7 12 5 13 3 5 12 14 5 14 13 6 15 7 8 16 2 2 16 11 9 3 17 17 3 13 12 18 14 7 15 19 12 7 19 12 19 20 12 20 18 14 18 21 20 19 22 19 23 22 15 23 19 24 25 26 24 26 27 24 27 28 25 29 26 27 30 28 30 31 28 30 32 31 32 33 31 32 34 33 34 35 33 36 37 38 36 38 39 36 39 40 37 41 38 39 42 40 42 43 40 42 44 43 44 45 43 44 46 45 46 47 45</p>
        </triangles>
      </mesh>
    </geometry>
    <geometry id="Geometry3" name="wall_01_1_4_0">
      <mesh>
        <source id="GeometrySource11" name="wall_01_1_4_0Pos">
          <float_array id="GeometrySource11-array" count="96">18.0013 108 482.972 18.0012 36 514.023 18.0012 108 514.023 18.0013 36 482.972 18.0013 161.85 482.972 18.0018 108 345.027 18.0018 161.85 345.027 18.0012 161.85 514.023 18.0018 36 345.027 18.0013 270 482.972 18.0019 161.85 313.977 18.0018 270 345.027 18.0012 270 514.023 18.0019 108 313.977 18.0019 36 313.977 18.0019 270 313.977 36.0011 161.85 534.028 72.0011 270 534.028 36.0011 270 534.028 72.0011 161.85 534.028 72.0011 108 534.028 36.0011 108 534.028 72.0011 36 534.028 36.0011 36 534.028 72.002 161.85 293.972 36.002 270 293.972 72.002 270 293.972 36.002 161.85 293.972 36.002 108 293.972 72.002 108 293.972 36.002 36 293.972 72.002 36 293.972</float_array>
          <technique_common>
            <accessor source="#GeometrySource11-array" count="32" stride="3">
              <param name="X" type="float"/>
              <param name="Y" type="float"/>
              <param name="Z" type="float"/>
            </accessor>
          </technique_common>
        </source>
        <source id="GeometrySource12" name="wall_01_1_4_0Nrm">
          <float_array id="GeometrySource12-array" count="96">-1 0 -0.000003 -1 0 -0.000003 -1 0 -0.000003 -1 0 -0.000003 -1 0 -0.000003 -1 0 -0.000003 -1 0 -0.000003 -1 0 -0.000003 -1 0 -0.000003 -1 0 -0.000003 -1 0 -0.000003 -1 0 -0.000003 -1 0 -0.000003 -1 0 -0.000003 -1 0 -0.000003 -1 0 -0.000003 -0.000003 0 1 -0.000003 0 1 -0.000003 0 1 -0.000003 0 1 -0.000003 0 1 -0.000003 0 1 -0.000003 0 1 -0.000003 0 1 0.000003 0 -1 0.000003 0 -1 0.000003 0 -1 0.000003 0 -1 0.000003 0 -1 0.000003 0 -1 0.000003 0 -1 0.000003 0 -1</float_array>
          <technique_common>
            <accessor source="#GeometrySource12-array" count="32" stride="3">
              <param name="X" type="float"/>
              <param name="Y" type="float"/>
              <param name="Z" type="float"/>
            </accessor>
          </technique_common>
        </source>
        <source id="GeometrySource13" name="wall_01_1_4_0UV">
          <float_array id="GeometrySource13-array" count="64">0.437016 0.40032 0.361578 0.134034 0.361578 0.400248 0.436718 0.134034 0.437291 0.59961 0.787077 0.40032 0.786802 0.59961 0.361578 0.59961 0.787376 0.134034 0.43698 1 0.862515 0.59961 0.787114 1 0.361578 1 0.862515 0.400248 0.862515 0.134034 0.862515 1 0.452174 0.599444 0.547827 1 0.452174 1 0.547826 0.599444 0.547827 0.4 0.452174 0.4 0.547826 0.133333 0.452174 0.133333 0.547826 0.599444 0.452174 1 0.547827 1 0.452174 0.599444 0.452174 0.4 0.547827 0.4 0.452174 0.133333 0.547826 0.133333</float_array>
          <technique_common>
            <accessor source="#GeometrySource13-array" count="32" stride="2">
              <param name="S" type="float"/>
              <param name="T" type="float"/>
            </accessor>
          </technique_common>
        </source>
        <source id="GeometrySource14" name="wall_01_1_4_0Clr">
          <float_array id="GeometrySource14-array" count="128">0.780392 0.780392 0.780392 1 0.670588 0.670588 0.670588 1 0.670588 0.670588 0.670588 1 0.670588 0.670588 0.670588 1 1 1 1 1 0.780392 0.780392 0.780392 1 1 1 1 1 0.733333 0.733333 0.733333 1 0.670588 0.670588 0.670588 1 1 1 1 1 0.733333 0.733333 0.733333 1 1 1 1 1 0.780392 0.780392 0.780392 1 0.670588 0.670588 0.670588 1 0.670588 0.670588 0.670588 1 0.780392 0.780392 0.780392 1 0.780392 0.780392 0.780392 1 0.560784 0.560784 0.560784 1 0.780392 0.780392 0.780392 1 0.560784 0.560784 0.560784 1 0.560784 0.560784 0.560784 1 0.780392 0.780392 0.780392 1 0.560784 0.560784 0.560784 1 0.780392 0.780392 0.780392 1 0.560784 0.560784 0.560784 1 0.780392 0.780392 0.780392 1 0.560784 0.560784 0.560784 1 0.780392 0.780392 0.780392 1 0.780392 0.780392 0.780392 1 0.560784 0.560784 0.560784 1 0.780392 0.780392 0.780392 1 0.560784 0.560784 0.560784 1</float_array>
          <technique_common>
            <accessor source="#GeometrySource14-array" count="32" stride="4">
              <param name="R" type="float"/>
              <param name="G" type="float"/>
              <param name="B" type="float"/>
              <param name="A" type="float"/>
            </accessor>
          </technique_common>
        </source>
        <vertices id="Geometry3-vertices">
          <input semantic="POSITION" source="#GeometrySource11"/>
          <input semantic="NORMAL" source="#GeometrySource12"/>
          <input semantic="TEXCOORD" source="#GeometrySource13"/>
          <input semantic="COLOR" source="#GeometrySource14"/>
        </vertices>
        <triangles material="VisualMaterial20" count="30">
          <input semantic="VERTEX" source="#Geometry3-vertices" offset="0"/>
          <p>0 1 2 0 3 1 0 2 4 0 5 3 0 4 6 0 6 5 2 7 4 3 5 8 6 4 9 6 10 5 6 11 10 6 9 11 7 12 4 4 12 9 13 5 10 8 5 13 8 13 14 11 15 10 16 17 18 16 19 17 16 20 19 16 21 20 21 22 20 21 23 22 24 25 26 24 27 25 24 28 27 24 29 28 29 30 28 29 31 30</p>
        </triangles>
      </mesh>
    </geometry>
    <geometry id="Geometry4" name="wall_01_3_0">
      <mesh>
        <source id="GeometrySource15" name="wall_01_3_0Pos">
          <float_array id="GeometrySource15-array" count="312">-180 0.000045 36 -198 36 36 -198 0.000045 36 -180 36 36 -162 36 36 -162 0.000045 36 162 36 36 162 0.000045 36 180 0.000045 36 180 36 36 198 0.000045 36 198 36 36 -198 0.000045 -18 -198 36 -36 -198 0.000045 -36 -198 36 -18 -198 36 18 -198 0.000045 18 180 198 36 198 270 36 180 270 36 198 198 36 198 180 36 180 180 36 198 108 36 180 108 36 198 90 36 180 90 36 198 36 36 180 36 36 -198 90 36 -198 36 36 -180 36 36 -180 90 36 -198 108 36 -180 108 36 -198 180 36 -180 180 36 -198 198 36 -180 198 36 -198 270 36 -180 270 36 198 90 36 198 36 36 198 36 18.0001 198 90 18.0001 198 108 36 198 108 18.0001 198 180 36 198 180 18.0001 198 198 36 198 198 18.0001 198 270 36 198 270 18.0001 -198 90 -36 -198 36 -36 -198 36 -18 -198 90 -18 -198 108 -36 -198 108 -18 -198 180 -36 -198 180 -18 -198 198 -36 -198 198 -18 -198 270 -36 -198 270 -18 198 36 -17.9999 198 36 18.0001 198 0.000045 18.0001 198 0.000045 -17.9999 198 36 -35.9999 198 0.000045 -35.9999 -198 90 18 -198 36 18 -198 90 36 -198 108 36 -198 108 18 -198 36 36 -198 180 36 -198 180 18 -198 198 36 -198 198 18 -198 270 36 -198 270 18 198 90 -17.9999 198 36 -17.9999 198 90 -35.9999 198 108 -35.9999 198 108 -17.9999 198 36 -35.9999 198 180 -35.9999 198 180 -17.9999 198 198 -35.9999 198 198 -17.9999 198 270 -35.9999 198 270 -17.9999 198 0.000045 18.0001 198 36 36 198 0.000045 36 198 36 18.0001 -198 0.000045 18 -198 36 36 -198 36 18 -198 0.000045 36</float_array>
          <technique_common>
            <accessor source="#GeometrySource15-array" count="104" stride="3">
              <param name="X" type="float"/>
              <param name="Y" type="float"/>
              <param name="Z" type="float"/>
            </accessor>
          </technique_common>
        </source>
        <source id="GeometrySource16" name="wall_01_3_0Nrm">
          <float_array id="GeometrySource16-array" count="312">0 0 1 0 0 1 0 0 1 0 0 1 0 0 1 0 0 1 0 0 1 0 0 1 0 0 1 0 0 1 0 0 1 0 0 1 -1 0 0 -1 0 0 -1 0 0 -1 0 0 -1 0 0 -1 0 0 0 0 1 0 0 1 0 0 1 0 0 1 0 0 1 0 0 1 0 0 1 0 0 1 0 0 1 0 0 1 0 0 1 0 0 1 0 0 1 0 0 1 0 0 1 0 0 1 0 0 1 0 0 1 0 0 1 0 0 1 0 0 1 0 0 1 0 0 1 0 0 1 1 0 0 1 0 0 1 0 0 1 0 0 1 0 0 1 0 0 1 0 0 1 0 0 1 0 0 1 0 0 1 0 0 1 0 0 -1 0 0 -1 0 0 -1 0 0 -1 0 0 -1 0 0 -1 0 0 -1 0 0 -1 0 0 -1 0 0 -1 0 0 -1 0 0 -1 0 0 1 0 0 1 0 0 1 0 0 1 0 0 1 0 0 1 0 0 -1 0 0 -1 0 0 -1 0 0 -1 0 0 -1 0 0 -1 0 0 -1 0 0 -1 0 0 -1 0 0 -1 0 0 -1 0 0 -1 0 0 1 0 0 1 0 0 1 0 0 1 0 0 1 0 0 1 0 0 1 0 0 1 0 0 1 0 0 1 0 0 1 0 0 1 0 0 1 0 0 1 0 0 1 0 0 1 0 0 -1 0 0 -1 0 0 -1 0 0 -1 0 0</float_array>
          <technique_common>
            <accessor source="#GeometrySource16-array" count="104" stride="3">
              <param name="X" type="float"/>
              <param name="Y" type="float"/>
              <param name="Z" type="float"/>
            </accessor>
          </technique_common>
        </source>
        <source id="GeometrySource17" name="wall_01_3_0UV">
          <float_array id="GeometrySource17-array" count="208">-0.921875 0.09375 -0.9375 0.484375 -0.9375 0.09375 -0.921875 0.484375 -0.90625 0.484375 -0.90625 0.09375 -0.84375 0.484375 -0.84375 0.09375 -0.828125 0.09375 -0.828125 0.484375 -0.8125 0.09375 -0.8125 0.484375 -0.96875 0.09375 -0.984375 0.484375 -0.984375 0.09375 -0.96875 0.484375 -0.953125 0.484375 -0.953125 0.09375 -1.98438 0.703125 -1.76563 0.734375 -1.98438 0.734375 -1.76563 0.703125 -1.76563 0.671875 -1.98438 0.671875 -1.76563 0.578125 -1.98438 0.578125 -1.76563 0.546875 -1.98438 0.546875 -1.76563 0.515625 -1.98438 0.515625 -1.76563 0.546875 -1.76563 0.515625 -1.98438 0.515625 -1.98438 0.546875 -1.76563 0.578125 -1.98438 0.578125 -1.76563 0.671875 -1.98438 0.671875 -1.76563 0.703125 -1.98438 0.703125 -1.76563 0.734375 -1.98438 0.734375 -0.765625 0.546875 -0.765625 0.515625 -0.984375 0.515625 -0.984375 0.546875 -0.765625 0.578125 -0.984375 0.578125 -0.765625 0.671875 -0.984375 0.671875 -0.765625 0.703125 -0.984375 0.703125 -0.765625 0.734375 -0.984375 0.734375 -1.76563 0.546875 -1.76563 0.515625 -1.98438 0.515625 -1.98438 0.546875 -1.76563 0.578125 -1.98438 0.578125 -1.76563 0.671875 -1.98438 0.671875 -1.76563 0.703125 -1.98438 0.703125 -1.76563 0.734375 -1.98438 0.734375 -0.78125 0.484375 -0.796875 0.484375 -0.796875 0.09375 -0.78125 0.09375 -0.765625 0.484375 -0.765625 0.09375 -0.984375 0.546875 -0.984375 0.515625 -0.765625 0.546875 -0.765625 0.578125 -0.984375 0.578125 -0.765625 0.515625 -0.765625 0.671875 -0.984375 0.671875 -0.765625 0.703125 -0.984375 0.703125 -0.765625 0.734375 -0.984375 0.734375 -1.98438 0.546875 -1.98438 0.515625 -1.76563 0.546875 -1.76563 0.578125 -1.98438 0.578125 -1.76563 0.515625 -1.76563 0.671875 -1.98438 0.671875 -1.76563 0.703125 -1.98438 0.703125 -1.76563 0.734375 -1.98438 0.734375 -0.953125 0.09375 -0.9375 0.484375 -0.9375 0.09375 -0.953125 0.484375 -0.796875 0.09375 -0.8125 0.484375 -0.796875 0.484375 -0.8125 0.09375</float_array>
          <technique_common>
            <accessor source="#GeometrySource17-array" count="104" stride="2">
              <param name="S" type="float"/>
              <param name="T" type="float"/>
            </accessor>
          </technique_common>
        </source>
        <source id="GeometrySource18" name="wall_01_3_0Clr">
          <float_array id="GeometrySource18-array" count="416">1 1 1 1 1 1 1 1 1 1 1 1 1 1 1 1 0.890196 0.890196 0.890196 1 1 1 1 1 0.890196 0.890196 0.890196 1 1 1 1 1 1 1 1 1 1 1 1 1 1 1 1 1 1 1 1 1 0.780392 0.780392 0.780392 1 0.780392 0.780392 0.780392 1 0.780392 0.780392 0.780392 1 0.780392 0.780392 0.780392 1 0.780392 0.780392 0.780392 1 0.780392 0.780392 0.780392 1 1 1 1 1 1 1 1 1 1 1 1 1 1 1 1 1 1 1 1 1 1 1 1 1 1 1 1 1 1 1 1 1 1 1 1 1 1 1 1 1 1 1 1 1 1 1 1 1 1 1 1 1 1 1 1 1 1 1 1 1 1 1 1 1 1 1 1 1 1 1 1 1 1 1 1 1 1 1 1 1 1 1 1 1 1 1 1 1 1 1 1 1 1 1 1 1 1 1 1 1 1 1 1 1 0.780392 0.780392 0.780392 1 0.780392 0.780392 0.780392 1 1 1 1 1 0.780392 0.780392 0.780392 1 1 1 1 1 0.780392 0.780392 0.780392 1 1 1 1 1 0.780392 0.780392 0.780392 1 1 1 1 1 0.780392 0.780392 0.780392 1 0.780392 0.780392 0.780392 1 0.780392 0.780392 0.780392 1 0.780392 0.780392 0.780392 1 0.780392 0.780392 0.780392 1 0.780392 0.780392 0.780392 1 0.780392 0.780392 0.780392 1 0.780392 0.780392 0.780392 1 0.780392 0.780392 0.780392 1 0.780392 0.780392 0.780392 1 0.780392 0.780392 0.780392 1 0.780392 0.780392 0.780392 1 0.780392 0.780392 0.780392 1 0.780392 0.780392 0.780392 1 0.780392 0.780392 0.780392 1 0.780392 0.780392 0.780392 1 0.780392 0.780392 0.780392 1 0.780392 0.780392 0.780392 1 0.780392 0.780392 0.780392 1 0.780392 0.780392 0.780392 1 0.780392 0.780392 0.780392 1 1 1 1 1 1 1 1 1 0.780392 0.780392 0.780392 1 1 1 1 1 1 1 1 1 0.780392 0.780392 0.780392 1 1 1 1 1 0.780392 0.780392 0.780392 1 1 1 1 1 0.780392 0.780392 0.780392 1 0.780392 0.780392 0.780392 1 0.780392 0.780392 0.780392 1 0.780392 0.780392 0.780392 1 0.780392 0.780392 0.780392 1 0.780392 0.780392 0.780392 1 0.780392 0.780392 0.780392 1 0.780392 0.780392 0.780392 1 0.780392 0.780392 0.780392 1 0.780392 0.780392 0.780392 1 0.780392 0.780392 0.780392 1 0.780392 0.780392 0.780392 1 0.780392 0.780392 0.780392 1 0.780392 0.780392 0.780392 1 1 1 1 1 1 1 1 1 0.780392 0.780392 0.780392 1 0.780392 0.780392 0.780392 1 1 1 1 1 0.780392 0.780392 0.780392 1 1 1 1 1</float_array>
          <technique_common>
            <accessor source="#GeometrySource18-array" count="104" stride="4">
              <param name="R" type="float"/>
              <param name="G" type="float"/>
              <param name="B" type="float"/>
              <param name="A" type="float"/>
            </accessor>
          </technique_common>
        </source>
        <vertices id="Geometry4-vertices">
          <input semantic="POSITION" source="#GeometrySource15"/>
          <input semantic="NORMAL" source="#GeometrySource16"/>
          <input semantic="TEXCOORD" source="#GeometrySource17"/>
          <input semantic="COLOR" source="#GeometrySource18"/>
        </vertices>
        <triangles material="VisualMaterial30" count="82">
          <input semantic="VERTEX" source="#Geometry4-vertices" offset="0"/>
          <p>0 1 2 0 3 1 0 4 3 0 5 4 5 6 4 5 7 6 7 8 6 8 9 6 8 10 9 10 11 9 12 13 14 12 15 13 12 16 15 12 17 16 18 19 20 18 21 19 18 22 21 18 23 22 23 24 22 23 25 24 25 26 24 25 27 26 27 28 26 27 29 28 30 31 32 30 32 33 30 33 34 33 35 34 35 36 34 35 37 36 37 38 36 37 39 38 39 40 38 39 41 40 42 43 44 42 44 45 42 45 46 45 47 46 47 48 46 47 49 48 49 50 48 49 51 50 51 52 50 51 53 52 54 55 56 54 56 57 54 57 58 57 59 58 59 60 58 59 61 60 61 62 60 61 63 62 63 64 62 63 65 64 66 67 68 66 68 69 66 69 70 69 71 70 72 73 74 72 74 75 72 75 76 73 77 74 75 78 76 78 79 76 78 80 79 80 81 79 80 82 81 82 83 81 84 85 86 84 86 87 84 87 88 85 89 86 87 90 88 90 91 88 90 92 91 92 93 91 92 94 93 94 95 93 96 97 98 96 99 97 100 101 102 100 103 101</p>
        </triangles>
      </mesh>
    </geometry>
    <geometry id="Geometry5" name="wall_01_1_5_0">
      <mesh>
        <source id="GeometrySource19" name="wall_01_1_5_0Pos">
          <float_array id="GeometrySource19-array" count="228">18.0019 0.000015 313.977 18.002 36 293.972 18.002 0.000015 293.972 18.0019 36 313.977 18.0018 36 345.027 18.0018 0.000015 345.027 18.0013 36 482.972 18.0013 0.000015 482.972 18.0012 0.000015 514.023 18.0012 36 514.023 18.0011 0.000015 534.028 18.0011 36 534.028 36.0011 0.000015 534.028 18.0011 36 534.028 18.0011 0.000015 534.028 36.0011 36 534.028 72.0011 36 534.028 72.0011 0 534.028 90.0011 36 534.028 90.0011 0 534.028 72.002 0 293.972 90.002 36 293.972 90.002 0 293.972 72.002 36 293.972 36.002 36 293.972 36.002 0.000015 293.972 18.002 36 293.972 18.002 0.000015 293.972 18.0012 161.85 514.023 18.0011 270 534.028 18.0012 270 514.023 18.0011 161.85 534.028 18.0011 108 534.028 18.0012 108 514.023 18.0011 36 534.028 18.0012 36 514.023 36.002 161.85 293.972 18.002 270 293.972 36.002 270 293.972 18.002 161.85 293.972 18.002 108 293.972 36.002 108 293.972 18.002 36 293.972 36.002 36 293.972 72.0011 161.85 534.028 90.0011 270 534.028 72.0011 270 534.028 90.0011 161.85 534.028 90.0011 108 534.028 72.0011 108 534.028 90.0011 36 534.028 72.0011 36 534.028 18.002 108 293.972 18.002 36 293.972 18.0019 36 313.977 18.0019 108 313.977 18.002 161.85 293.972 18.0019 161.85 313.977 18.002 270 293.972 18.0019 270 313.977 18.0011 108 534.028 18.0011 36 534.028 36.0011 36 534.028 36.0011 108 534.028 18.0011 161.85 534.028 36.0011 161.85 534.028 18.0011 270 534.028 36.0011 270 534.028 90.002 108 293.972 90.002 36 293.972 72.002 36 293.972 72.002 108 293.972 90.002 161.85 293.972 72.002 161.85 293.972 90.002 270 293.972 72.002 270 293.972</float_array>
          <technique_common>
            <accessor source="#GeometrySource19-array" count="76" stride="3">
              <param name="X" type="float"/>
              <param name="Y" type="float"/>
              <param name="Z" type="float"/>
            </accessor>
          </technique_common>
        </source>
        <source id="GeometrySource20" name="wall_01_1_5_0Nrm">
          <float_array id="GeometrySource20-array" count="228">-1 0 -0.000003 -1 0 -0.000003 -1 0 -0.000003 -1 0 -0.000003 -1 0 -0.000003 -1 0 -0.000003 -1 0 -0.000003 -1 0 -0.000003 -1 0 -0.000003 -1 0 -0.000003 -1 0 -0.000003 -1 0 -0.000003 -0.000003 0 1 -0.000003 0 1 -0.000003 0 1 -0.000003 0 1 -0.000003 0 1 -0.000003 0 1 -0.000003 0 1 -0.000003 0 1 0.000003 0 -1 0.000003 0 -1 0.000003 0 -1 0.000003 0 -1 0.000003 0 -1 0.000003 0 -1 0.000003 0 -1 0.000003 0 -1 -1 0 -0.000003 -1 0 -0.000003 -1 0 -0.000003 -1 0 -0.000003 -1 0 -0.000003 -1 0 -0.000003 -1 0 -0.000003 -1 0 -0.000003 0.000003 0 -1 0.000003 0 -1 0.000003 0 -1 0.000003 0 -1 0.000003 0 -1 0.000003 0 -1 0.000003 0 -1 0.000003 0 -1 -0.000003 0 1 -0.000003 0 1 -0.000003 0 1 -0.000003 0 1 -0.000003 0 1 -0.000003 0 1 -0.000003 0 1 -0.000003 0 1 -1 0 -0.000003 -1 0 -0.000003 -1 0 -0.000003 -1 0 -0.000003 -1 0 -0.000003 -1 0 -0.000003 -1 0 -0.000003 -1 0 -0.000003 -0.000003 0 1 -0.000003 0 1 -0.000003 0 1 -0.000003 0 1 -0.000003 0 1 -0.000003 0 1 -0.000003 0 1 -0.000003 0 1 0.000003 0 -1 0.000003 0 -1 0.000003 0 -1 0.000003 0 -1 0.000003 0 -1 0.000003 0 -1 0.000003 0 -1 0.000003 0 -1</float_array>
          <technique_common>
            <accessor source="#GeometrySource20-array" count="76" stride="3">
              <param name="X" type="float"/>
              <param name="Y" type="float"/>
              <param name="Z" type="float"/>
            </accessor>
          </technique_common>
        </source>
        <source id="GeometrySource21" name="wall_01_1_5_0UV">
          <float_array id="GeometrySource21-array" count="152">-3.92188 0.09375 -3.9375 0.484375 -3.9375 0.09375 -3.92188 0.484375 -3.90438 0.484375 -3.90438 0.09375 -3.84562 0.484375 -3.84562 0.09375 -3.82812 0.09375 -3.82812 0.484375 -3.8125 0.09375 -3.8125 0.484375 -3.79688 0.09375 -3.8125 0.484375 -3.8125 0.09375 -3.79688 0.484375 -3.78125 0.484375 -3.78125 0.09375 -3.76562 0.484375 -3.76562 0.09375 -3.96875 0.09375 -3.98438 0.484375 -3.98438 0.09375 -3.96875 0.484375 -3.95313 0.484375 -3.95313 0.09375 -3.9375 0.484375 -3.9375 0.09375 -0.984375 0.650926 -0.765625 0.734375 -0.984375 0.734375 -0.765625 0.650926 -0.765625 0.609375 -0.984375 0.609375 -0.765625 0.515625 -0.984375 0.515625 -0.984375 0.650926 -0.765625 0.734375 -0.984375 0.734375 -0.765625 0.650926 -0.765625 0.609375 -0.984375 0.609375 -0.765625 0.515625 -0.984375 0.515625 -0.984375 0.650926 -0.765625 0.734375 -0.984375 0.734375 -0.765625 0.650926 -0.765625 0.609375 -0.984375 0.609375 -0.765625 0.515625 -0.984375 0.515625 -0.765625 0.609375 -0.765625 0.515625 -0.984375 0.515625 -0.984375 0.609375 -0.765625 0.650926 -0.984375 0.650926 -0.765625 0.734375 -0.984375 0.734375 -0.765625 0.609375 -0.765625 0.515625 -0.984375 0.515625 -0.984375 0.609375 -0.765625 0.650926 -0.984375 0.650926 -0.765625 0.734375 -0.984375 0.734375 -0.765625 0.609375 -0.765625 0.515625 -0.984375 0.515625 -0.984375 0.609375 -0.765625 0.650926 -0.984375 0.650926 -0.765625 0.734375 -0.984375 0.734375</float_array>
          <technique_common>
            <accessor source="#GeometrySource21-array" count="76" stride="2">
              <param name="S" type="float"/>
              <param name="T" type="float"/>
            </accessor>
          </technique_common>
        </source>
        <source id="GeometrySource22" name="wall_01_1_5_0Clr">
          <float_array id="GeometrySource22-array" count="304">1 1 1 1 1 1 1 1 1 1 1 1 1 1 1 1 0.890196 0.890196 0.890196 1 1 1 1 1 0.890196 0.890196 0.890196 1 1 1 1 1 1 1 1 1 1 1 1 1 1 1 1 1 1 1 1 1 0.780392 0.780392 0.780392 1 1 1 1 1 1 1 1 1 0.780392 0.780392 0.780392 1 0.780392 0.780392 0.780392 1 0.780392 0.780392 0.780392 1 0.780392 0.780392 0.780392 1 0.890196 0.890196 0.890196 1 0.780392 0.780392 0.780392 1 0.780392 0.780392 0.780392 1 0.780392 0.780392 0.780392 1 0.780392 0.780392 0.780392 1 0.780392 0.780392 0.780392 1 0.780392 0.780392 0.780392 1 1 1 1 1 1 1 1 1 1 1 1 1 1 1 1 1 1 1 1 1 1 1 1 1 1 1 1 1 1 1 1 1 1 1 1 1 1 1 1 1 0.780392 0.780392 0.780392 1 1 1 1 1 0.780392 0.780392 0.780392 1 1 1 1 1 1 1 1 1 0.780392 0.780392 0.780392 1 1 1 1 1 0.780392 0.780392 0.780392 1 0.780392 0.780392 0.780392 1 0.780392 0.780392 0.780392 1 0.780392 0.780392 0.780392 1 0.780392 0.780392 0.780392 1 0.780392 0.780392 0.780392 1 0.780392 0.780392 0.780392 1 0.780392 0.780392 0.780392 1 0.780392 0.780392 0.780392 1 1 1 1 1 1 1 1 1 1 1 1 1 1 1 1 1 1 1 1 1 1 1 1 1 1 1 1 1 1 1 1 1 1 1 1 1 1 1 1 1 0.780392 0.780392 0.780392 1 0.780392 0.780392 0.780392 1 1 1 1 1 0.780392 0.780392 0.780392 1 1 1 1 1 0.780392 0.780392 0.780392 1 0.780392 0.780392 0.780392 1 0.780392 0.780392 0.780392 1 0.780392 0.780392 0.780392 1 0.780392 0.780392 0.780392 1 0.780392 0.780392 0.780392 1 0.780392 0.780392 0.780392 1 0.780392 0.780392 0.780392 1 0.780392 0.780392 0.780392 1</float_array>
          <technique_common>
            <accessor source="#GeometrySource22-array" count="76" stride="4">
              <param name="R" type="float"/>
              <param name="G" type="float"/>
              <param name="B" type="float"/>
              <param name="A" type="float"/>
            </accessor>
          </technique_common>
        </source>
        <vertices id="Geometry5-vertices">
          <input semantic="POSITION" source="#GeometrySource19"/>
          <input semantic="NORMAL" source="#GeometrySource20"/>
          <input semantic="TEXCOORD" source="#GeometrySource21"/>
          <input semantic="COLOR" source="#GeometrySource22"/>
        </vertices>
        <triangles material="VisualMaterial30" count="58">
          <input semantic="VERTEX" source="#Geometry5-vertices" offset="0"/>
          <p>0 1 2 0 3 1 0 4 3 0 5 4 5 6 4 5 7 6 7 8 6 8 9 6 8 10 9 10 11 9 12 13 14 12 15 13 12 16 15 12 17 16 17 18 16 17 19 18 20 21 22 20 23 21 20 24 23 20 25 24 25 26 24 25 27 26 28 29 30 28 31 29 28 32 31 28 33 32 33 34 32 33 35 34 36 37 38 36 39 37 36 40 39 36 41 40 41 42 40 41 43 42 44 45 46 44 47 45 44 48 47 44 49 48 49 50 48 49 51 50 52 53 54 52 54 55 52 55 56 55 57 56 57 58 56 57 59 58 60 61 62 60 62 63 60 63 64 63 65 64 65 66 64 65 67 66 68 69 70 68 70 71 68 71 72 71 73 72 73 74 72 73 75 74</p>
        </triangles>
      </mesh>
    </geometry>
  </library_geometries>
  <library_controllers>
    <controller id="Controller">
      <skin source="#Geometry">
        <bind_shape_matrix>1 0 0 0 0 1 0 0 0 0 1 0 0 0 0 1</bind_shape_matrix>
        <source id="Controller-joints">
          <Name_array id="Controller-joints-array" count="13">painting1 painting2 wall_01 scale move wall1 wall_01_1 objects scale_1 move_1 wall2 WALL_TOP intro_wall</Name_array>
          <technique_common>
            <accessor source="#Controller-joints-array" count="13" stride="1">
              <param name="JOINT" type="Name"/>
            </accessor>
          </technique_common>
        </source>
        <source id="Controller-bind_poses">
          <float_array id="Controller-bind_poses-array" count="208">1 0 0 0 0 1.45378 0 -220.121 0 0 1 -39.3478 0 0 0 1 1 0 0 0 0 1.45378 0 -220.121 0 0 1 -40.0332 0 0 0 1 1 0 0 0 0 1 0 0 0 0 1 9 0 0 0 1 1 0 0 0 0 1 0 0 0 0 1 0 0 0 0 1 1 0 0 0 0 1 0 0 0 0 1 0 0 0 0 1 1 0 0 0 0 1 0 0 0 0 1 0 0 0 0 1 -0.000003 0 1 -414 0 1 0 0 -1 0 -0.000003 63.0031 0 0 0 1 1 0 0 -0.001547 0 1 0 0 0 0 1 0.00019 0 0 0 1 -0.000003 0 1 -414 0 1 0 0 -1 0 -0.000003 54.0015 0 0 0 1 -0.000003 0 1 -414 0 1 0 0 -1 0 -0.000003 54.0015 0 0 0 1 1 0 0 0 0 1 0 0 0 0 1 0 0 0 0 1 1 0 0 0 0 1 0 0 0 0 1 0 0 0 0 1 1 0 0 0 0 1 0 0 0 0 1 0 0 0 0 1</float_array>
          <technique_common>
            <accessor source="#Controller-bind_poses-array" count="13" stride="16">
              <param name="TRANSFORM" type="float4x4"/>
            </accessor>
          </technique_common>
        </source>
        <source id="Controller-weights">
          <float_array id="Controller-weights-array" count="1">1</float_array>
          <technique_common>
            <accessor source="#Controller-weights-array" count="1" stride="1">
              <param name="WEIGHT" type="float"/>
            </accessor>
          </technique_common>
        </source>
        <joints>
          <input semantic="JOINT" source="#Controller-joints"/>
          <input semantic="INV_BIND_MATRIX" source="#Controller-bind_poses"/>
        </joints>
        <vertex_weights count="4">
          <input semantic="JOINT" source="#Controller-joints" offset="0"/>
          <input semantic="WEIGHT" source="#Controller-weights" offset="1"/>
          <vcount>1 1 1 1 </vcount>
          <v>0 0 0 0 0 0 0 0</v>
        </vertex_weights>
      </skin>
      <extra>
        <technique profile="FCOLLADA">
          <user_properties>SkinController</user_properties>
        </technique>
      </extra>
    </controller>
    <controller id="Controller1">
      <skin source="#Geometry1">
        <bind_shape_matrix>1 0 0 0 0 1 0 0 0 0 1 0 0 0 0 1</bind_shape_matrix>
        <source id="Controller1-joints">
          <Name_array id="Controller1-joints-array" count="13">painting1 painting2 wall_01 scale move wall1 wall_01_1 objects scale_1 move_1 wall2 WALL_TOP intro_wall</Name_array>
          <technique_common>
            <accessor source="#Controller1-joints-array" count="13" stride="1">
              <param name="JOINT" type="Name"/>
            </accessor>
          </technique_common>
        </source>
        <source id="Controller1-bind_poses">
          <float_array id="Controller1-bind_poses-array" count="208">1 0 0 0 0 1.45378 0 -220.121 0 0 1 -39.3478 0 0 0 1 1 0 0 0 0 1.45378 0 -220.121 0 0 1 -40.0332 0 0 0 1 1 0 0 0 0 1 0 0 0 0 1 9 0 0 0 1 1 0 0 0 0 1 0 0 0 0 1 0 0 0 0 1 1 0 0 0 0 1 0 0 0 0 1 0 0 0 0 1 1 0 0 0 0 1 0 0 0 0 1 0 0 0 0 1 -0.000003 0 1 -414 0 1 0 0 -1 0 -0.000003 63.0031 0 0 0 1 1 0 0 -0.001547 0 1 0 0 0 0 1 0.00019 0 0 0 1 -0.000003 0 1 -414 0 1 0 0 -1 0 -0.000003 54.0015 0 0 0 1 -0.000003 0 1 -414 0 1 0 0 -1 0 -0.000003 54.0015 0 0 0 1 1 0 0 0 0 1 0 0 0 0 1 0 0 0 0 1 1 0 0 0 0 1 0 0 0 0 1 0 0 0 0 1 1 0 0 0 0 1 0 0 0 0 1 0 0 0 0 1</float_array>
          <technique_common>
            <accessor source="#Controller1-bind_poses-array" count="13" stride="16">
              <param name="TRANSFORM" type="float4x4"/>
            </accessor>
          </technique_common>
        </source>
        <source id="Controller1-weights">
          <float_array id="Controller1-weights-array" count="1">1</float_array>
          <technique_common>
            <accessor source="#Controller1-weights-array" count="1" stride="1">
              <param name="WEIGHT" type="float"/>
            </accessor>
          </technique_common>
        </source>
        <joints>
          <input semantic="JOINT" source="#Controller1-joints"/>
          <input semantic="INV_BIND_MATRIX" source="#Controller1-bind_poses"/>
        </joints>
        <vertex_weights count="64">
          <input semantic="JOINT" source="#Controller1-joints" offset="0"/>
          <input semantic="WEIGHT" source="#Controller1-weights" offset="1"/>
          <vcount>1 1 1 1 1 1 1 1 1 1 1 1 1 1 1 1 1 1 1 1 1 1 1 1 1 1 1 1 1 1 1 1 1 1 1 1 1 1 1 1 1 1 1 1 1 1 1 1 1 1 1 1 1 1 1 1 1 1 1 1 1 1 1 1 </vcount>
          <v>1 0 1 0 1 0 1 0 1 0 1 0 1 0 1 0 1 0 1 0 1 0 1 0 1 0 1 0 1 0 1 0 1 0 1 0 1 0 1 0 1 0 1 0 1 0 1 0 1 0 1 0 1 0 1 0 1 0 1 0 1 0 1 0 1 0 1 0 1 0 1 0 1 0 1 0 1 0 1 0 1 0 1 0 1 0 1 0 1 0 1 0 1 0 1 0 1 0 1 0 1 0 1 0 1 0 1 0 1 0 1 0 1 0 1 0 1 0 1 0 1 0 1 0 1 0 1 0</v>
        </vertex_weights>
      </skin>
      <extra>
        <technique profile="FCOLLADA">
          <user_properties>SkinController</user_properties>
        </technique>
      </extra>
    </controller>
    <controller id="Controller2">
      <skin source="#Geometry2">
        <bind_shape_matrix>1 0 0 0 0 1 0 0 0 0 1 0 0 0 0 1</bind_shape_matrix>
        <source id="Controller2-joints">
          <Name_array id="Controller2-joints-array" count="13">painting1 painting2 wall_01 scale move wall1 wall_01_1 objects scale_1 move_1 wall2 WALL_TOP intro_wall</Name_array>
          <technique_common>
            <accessor source="#Controller2-joints-array" count="13" stride="1">
              <param name="JOINT" type="Name"/>
            </accessor>
          </technique_common>
        </source>
        <source id="Controller2-bind_poses">
          <float_array id="Controller2-bind_poses-array" count="208">1 0 0 0 0 1.45378 0 -220.121 0 0 1 -39.3478 0 0 0 1 1 0 0 0 0 1.45378 0 -220.121 0 0 1 -40.0332 0 0 0 1 1 0 0 0 0 1 0 0 0 0 1 9 0 0 0 1 1 0 0 0 0 1 0 0 0 0 1 0 0 0 0 1 1 0 0 0 0 1 0 0 0 0 1 0 0 0 0 1 1 0 0 0 0 1 0 0 0 0 1 0 0 0 0 1 -0.000003 0 1 -414 0 1 0 0 -1 0 -0.000003 63.0031 0 0 0 1 1 0 0 -0.001547 0 1 0 0 0 0 1 0.00019 0 0 0 1 -0.000003 0 1 -414 0 1 0 0 -1 0 -0.000003 54.0015 0 0 0 1 -0.000003 0 1 -414 0 1 0 0 -1 0 -0.000003 54.0015 0 0 0 1 1 0 0 0 0 1 0 0 0 0 1 0 0 0 0 1 1 0 0 0 0 1 0 0 0 0 1 0 0 0 0 1 1 0 0 0 0 1 0 0 0 0 1 0 0 0 0 1</float_array>
          <technique_common>
            <accessor source="#Controller2-bind_poses-array" count="13" stride="16">
              <param name="TRANSFORM" type="float4x4"/>
            </accessor>
          </technique_common>
        </source>
        <source id="Controller2-weights">
          <float_array id="Controller2-weights-array" count="1">1</float_array>
          <technique_common>
            <accessor source="#Controller2-weights-array" count="1" stride="1">
              <param name="WEIGHT" type="float"/>
            </accessor>
          </technique_common>
        </source>
        <joints>
          <input semantic="JOINT" source="#Controller2-joints"/>
          <input semantic="INV_BIND_MATRIX" source="#Controller2-bind_poses"/>
        </joints>
        <vertex_weights count="48">
          <input semantic="JOINT" source="#Controller2-joints" offset="0"/>
          <input semantic="WEIGHT" source="#Controller2-weights" offset="1"/>
          <vcount>1 1 1 1 1 1 1 1 1 1 1 1 1 1 1 1 1 1 1 1 1 1 1 1 1 1 1 1 1 1 1 1 1 1 1 1 1 1 1 1 1 1 1 1 1 1 1 1 </vcount>
          <v>2 0 2 0 2 0 2 0 2 0 2 0 2 0 2 0 2 0 2 0 2 0 2 0 2 0 2 0 2 0 2 0 2 0 2 0 2 0 2 0 2 0 2 0 2 0 2 0 2 0 2 0 2 0 2 0 2 0 2 0 2 0 2 0 2 0 2 0 2 0 2 0 2 0 2 0 2 0 2 0 2 0 2 0 2 0 2 0 2 0 2 0 2 0 2 0</v>
        </vertex_weights>
      </skin>
      <extra>
        <technique profile="FCOLLADA">
          <user_properties>SkinController</user_properties>
        </technique>
      </extra>
    </controller>
    <controller id="Controller3">
      <skin source="#Geometry3">
        <bind_shape_matrix>1 0 0 0 0 1 0 0 0 0 1 0 0 0 0 1</bind_shape_matrix>
        <source id="Controller3-joints">
          <Name_array id="Controller3-joints-array" count="13">painting1 painting2 wall_01 scale move wall1 wall_01_1 objects scale_1 move_1 wall2 WALL_TOP intro_wall</Name_array>
          <technique_common>
            <accessor source="#Controller3-joints-array" count="13" stride="1">
              <param name="JOINT" type="Name"/>
            </accessor>
          </technique_common>
        </source>
        <source id="Controller3-bind_poses">
          <float_array id="Controller3-bind_poses-array" count="208">1 0 0 0 0 1.45378 0 -220.121 0 0 1 -39.3478 0 0 0 1 1 0 0 0 0 1.45378 0 -220.121 0 0 1 -40.0332 0 0 0 1 1 0 0 0 0 1 0 0 0 0 1 9 0 0 0 1 1 0 0 0 0 1 0 0 0 0 1 0 0 0 0 1 1 0 0 0 0 1 0 0 0 0 1 0 0 0 0 1 1 0 0 0 0 1 0 0 0 0 1 0 0 0 0 1 -0.000003 0 1 -414 0 1 0 0 -1 0 -0.000003 63.0031 0 0 0 1 1 0 0 -0.001547 0 1 0 0 0 0 1 0.00019 0 0 0 1 -0.000003 0 1 -414 0 1 0 0 -1 0 -0.000003 54.0015 0 0 0 1 -0.000003 0 1 -414 0 1 0 0 -1 0 -0.000003 54.0015 0 0 0 1 1 0 0 0 0 1 0 0 0 0 1 0 0 0 0 1 1 0 0 0 0 1 0 0 0 0 1 0 0 0 0 1 1 0 0 0 0 1 0 0 0 0 1 0 0 0 0 1</float_array>
          <technique_common>
            <accessor source="#Controller3-bind_poses-array" count="13" stride="16">
              <param name="TRANSFORM" type="float4x4"/>
            </accessor>
          </technique_common>
        </source>
        <source id="Controller3-weights">
          <float_array id="Controller3-weights-array" count="1">1</float_array>
          <technique_common>
            <accessor source="#Controller3-weights-array" count="1" stride="1">
              <param name="WEIGHT" type="float"/>
            </accessor>
          </technique_common>
        </source>
        <joints>
          <input semantic="JOINT" source="#Controller3-joints"/>
          <input semantic="INV_BIND_MATRIX" source="#Controller3-bind_poses"/>
        </joints>
        <vertex_weights count="32">
          <input semantic="JOINT" source="#Controller3-joints" offset="0"/>
          <input semantic="WEIGHT" source="#Controller3-weights" offset="1"/>
          <vcount>1 1 1 1 1 1 1 1 1 1 1 1 1 1 1 1 1 1 1 1 1 1 1 1 1 1 1 1 1 1 1 1 </vcount>
          <v>6 0 6 0 6 0 6 0 6 0 6 0 6 0 6 0 6 0 6 0 6 0 6 0 6 0 6 0 6 0 6 0 6 0 6 0 6 0 6 0 6 0 6 0 6 0 6 0 6 0 6 0 6 0 6 0 6 0 6 0 6 0 6 0</v>
        </vertex_weights>
      </skin>
      <extra>
        <technique profile="FCOLLADA">
          <user_properties>SkinController</user_properties>
        </technique>
      </extra>
    </controller>
    <controller id="Controller4">
      <skin source="#Geometry4">
        <bind_shape_matrix>1 0 0 0 0 1 0 0 0 0 1 0 0 0 0 1</bind_shape_matrix>
        <source id="Controller4-joints">
          <Name_array id="Controller4-joints-array" count="13">painting1 painting2 wall_01 scale move wall1 wall_01_1 objects scale_1 move_1 wall2 WALL_TOP intro_wall</Name_array>
          <technique_common>
            <accessor source="#Controller4-joints-array" count="13" stride="1">
              <param name="JOINT" type="Name"/>
            </accessor>
          </technique_common>
        </source>
        <source id="Controller4-bind_poses">
          <float_array id="Controller4-bind_poses-array" count="208">1 0 0 0 0 1.45378 0 -220.121 0 0 1 -39.3478 0 0 0 1 1 0 0 0 0 1.45378 0 -220.121 0 0 1 -40.0332 0 0 0 1 1 0 0 0 0 1 0 0 0 0 1 9 0 0 0 1 1 0 0 0 0 1 0 0 0 0 1 0 0 0 0 1 1 0 0 0 0 1 0 0 0 0 1 0 0 0 0 1 1 0 0 0 0 1 0 0 0 0 1 0 0 0 0 1 -0.000003 0 1 -414 0 1 0 0 -1 0 -0.000003 63.0031 0 0 0 1 1 0 0 -0.001547 0 1 0 0 0 0 1 0.00019 0 0 0 1 -0.000003 0 1 -414 0 1 0 0 -1 0 -0.000003 54.0015 0 0 0 1 -0.000003 0 1 -414 0 1 0 0 -1 0 -0.000003 54.0015 0 0 0 1 1 0 0 0 0 1 0 0 0 0 1 0 0 0 0 1 1 0 0 0 0 1 0 0 0 0 1 0 0 0 0 1 1 0 0 0 0 1 0 0 0 0 1 0 0 0 0 1</float_array>
          <technique_common>
            <accessor source="#Controller4-bind_poses-array" count="13" stride="16">
              <param name="TRANSFORM" type="float4x4"/>
            </accessor>
          </technique_common>
        </source>
        <source id="Controller4-weights">
          <float_array id="Controller4-weights-array" count="1">1</float_array>
          <technique_common>
            <accessor source="#Controller4-weights-array" count="1" stride="1">
              <param name="WEIGHT" type="float"/>
            </accessor>
          </technique_common>
        </source>
        <joints>
          <input semantic="JOINT" source="#Controller4-joints"/>
          <input semantic="INV_BIND_MATRIX" source="#Controller4-bind_poses"/>
        </joints>
        <vertex_weights count="104">
          <input semantic="JOINT" source="#Controller4-joints" offset="0"/>
          <input semantic="WEIGHT" source="#Controller4-weights" offset="1"/>
          <vcount>1 1 1 1 1 1 1 1 1 1 1 1 1 1 1 1 1 1 1 1 1 1 1 1 1 1 1 1 1 1 1 1 1 1 1 1 1 1 1 1 1 1 1 1 1 1 1 1 1 1 1 1 1 1 1 1 1 1 1 1 1 1 1 1 1 1 1 1 1 1 1 1 1 1 1 1 1 1 1 1 1 1 1 1 1 1 1 1 1 1 1 1 1 1 1 1 1 1 1 1 1 1 1 1 </vcount>
          <v>2 0 2 0 2 0 2 0 2 0 2 0 2 0 2 0 2 0 2 0 2 0 2 0 2 0 2 0 2 0 2 0 2 0 2 0 2 0 2 0 2 0 2 0 2 0 2 0 2 0 2 0 2 0 2 0 2 0 2 0 2 0 2 0 2 0 2 0 2 0 2 0 2 0 2 0 2 0 2 0 2 0 2 0 2 0 2 0 2 0 2 0 2 0 2 0 2 0 2 0 2 0 2 0 2 0 2 0 2 0 2 0 2 0 2 0 2 0 2 0 2 0 2 0 2 0 2 0 2 0 2 0 2 0 2 0 2 0 2 0 2 0 2 0 2 0 2 0 2 0 2 0 2 0 2 0 2 0 2 0 2 0 2 0 2 0 2 0 2 0 2 0 2 0 2 0 2 0 2 0 2 0 2 0 2 0 2 0 2 0 2 0 2 0 2 0 2 0 2 0 2 0 2 0 2 0 2 0</v>
        </vertex_weights>
      </skin>
      <extra>
        <technique profile="FCOLLADA">
          <user_properties>SkinController</user_properties>
        </technique>
      </extra>
    </controller>
    <controller id="Controller5">
      <skin source="#Geometry5">
        <bind_shape_matrix>1 0 0 0 0 1 0 0 0 0 1 0 0 0 0 1</bind_shape_matrix>
        <source id="Controller5-joints">
          <Name_array id="Controller5-joints-array" count="13">painting1 painting2 wall_01 scale move wall1 wall_01_1 objects scale_1 move_1 wall2 WALL_TOP intro_wall</Name_array>
          <technique_common>
            <accessor source="#Controller5-joints-array" count="13" stride="1">
              <param name="JOINT" type="Name"/>
            </accessor>
          </technique_common>
        </source>
        <source id="Controller5-bind_poses">
          <float_array id="Controller5-bind_poses-array" count="208">1 0 0 0 0 1.45378 0 -220.121 0 0 1 -39.3478 0 0 0 1 1 0 0 0 0 1.45378 0 -220.121 0 0 1 -40.0332 0 0 0 1 1 0 0 0 0 1 0 0 0 0 1 9 0 0 0 1 1 0 0 0 0 1 0 0 0 0 1 0 0 0 0 1 1 0 0 0 0 1 0 0 0 0 1 0 0 0 0 1 1 0 0 0 0 1 0 0 0 0 1 0 0 0 0 1 -0.000003 0 1 -414 0 1 0 0 -1 0 -0.000003 63.0031 0 0 0 1 1 0 0 -0.001547 0 1 0 0 0 0 1 0.00019 0 0 0 1 -0.000003 0 1 -414 0 1 0 0 -1 0 -0.000003 54.0015 0 0 0 1 -0.000003 0 1 -414 0 1 0 0 -1 0 -0.000003 54.0015 0 0 0 1 1 0 0 0 0 1 0 0 0 0 1 0 0 0 0 1 1 0 0 0 0 1 0 0 0 0 1 0 0 0 0 1 1 0 0 0 0 1 0 0 0 0 1 0 0 0 0 1</float_array>
          <technique_common>
            <accessor source="#Controller5-bind_poses-array" count="13" stride="16">
              <param name="TRANSFORM" type="float4x4"/>
            </accessor>
          </technique_common>
        </source>
        <source id="Controller5-weights">
          <float_array id="Controller5-weights-array" count="1">1</float_array>
          <technique_common>
            <accessor source="#Controller5-weights-array" count="1" stride="1">
              <param name="WEIGHT" type="float"/>
            </accessor>
          </technique_common>
        </source>
        <joints>
          <input semantic="JOINT" source="#Controller5-joints"/>
          <input semantic="INV_BIND_MATRIX" source="#Controller5-bind_poses"/>
        </joints>
        <vertex_weights count="76">
          <input semantic="JOINT" source="#Controller5-joints" offset="0"/>
          <input semantic="WEIGHT" source="#Controller5-weights" offset="1"/>
          <vcount>1 1 1 1 1 1 1 1 1 1 1 1 1 1 1 1 1 1 1 1 1 1 1 1 1 1 1 1 1 1 1 1 1 1 1 1 1 1 1 1 1 1 1 1 1 1 1 1 1 1 1 1 1 1 1 1 1 1 1 1 1 1 1 1 1 1 1 1 1 1 1 1 1 1 1 1 </vcount>
          <v>6 0 6 0 6 0 6 0 6 0 6 0 6 0 6 0 6 0 6 0 6 0 6 0 6 0 6 0 6 0 6 0 6 0 6 0 6 0 6 0 6 0 6 0 6 0 6 0 6 0 6 0 6 0 6 0 6 0 6 0 6 0 6 0 6 0 6 0 6 0 6 0 6 0 6 0 6 0 6 0 6 0 6 0 6 0 6 0 6 0 6 0 6 0 6 0 6 0 6 0 6 0 6 0 6 0 6 0 6 0 6 0 6 0 6 0 6 0 6 0 6 0 6 0 6 0 6 0 6 0 6 0 6 0 6 0 6 0 6 0 6 0 6 0 6 0 6 0 6 0 6 0</v>
        </vertex_weights>
      </skin>
      <extra>
        <technique profile="FCOLLADA">
          <user_properties>SkinController</user_properties>
        </technique>
      </extra>
    </controller>
  </library_controllers>
  <library_visual_scenes>
    <visual_scene id="VisualSceneNode" name="rdmscene">
      <node id="VisualSceneNode1" name="intro_wall" sid="intro_wall" type="JOINT">
        <matrix>1 0 0 0 0 1 0 0 0 0 1 0 0 0 0 1</matrix>
        <node id="VisualSceneNode2" name="WALL_TOP" sid="WALL_TOP" type="JOINT">
          <matrix>1 0 0 0 0 1 0 0 0 0 1 0 0 0 0 1</matrix>
          <node id="VisualSceneNode3" name="wall1" sid="wall1" type="JOINT">
            <matrix>1 0 0 0 0 1 0 0 0 0 1 0 0 0 0 1</matrix>
            <node id="VisualSceneNode4" name="move" sid="move" type="JOINT">
              <matrix>1 0 0 0 0 1 0 0 0 0 1 0 0 0 0 1</matrix>
              <node id="VisualSceneNode5" name="scale" sid="scale" type="JOINT">
                <matrix>1 0 0 0 0 1 0 0 0 0 1 0 0 0 0 1</matrix>
                <node id="VisualSceneNode6" name="painting1" sid="painting1" type="JOINT">
                  <matrix>1 0 0 0 0 0.687863 0 151.413 0 0 1 39.3478 0 0 0 1</matrix>
                </node>
                <node id="VisualSceneNode7" name="painting2" sid="painting2" type="JOINT">
                  <matrix>1 0 0 0 0 0.687863 0 151.413 0 0 1 40.0332 0 0 0 1</matrix>
                </node>
                <node id="VisualSceneNode8" name="wall_01" sid="wall_01" type="JOINT">
                  <matrix>1 0 0 0 0 1 0 0 0 0 1 -9 0 0 0 1</matrix>
                </node>
              </node>
            </node>
          </node>
          <node id="VisualSceneNode9" name="wall2" sid="wall2" type="JOINT">
            <matrix>1 0 0 0 0 1 0 0 0 0 1 0 0 0 0 1</matrix>
            <node id="VisualSceneNode10" name="move_1" sid="move_1" type="JOINT">
              <matrix>-0.000003 0 -1 54 0 1 0 0 1 0 -0.000003 414 0 0 0 1</matrix>
              <node id="VisualSceneNode11" name="scale_1" sid="scale_1" type="JOINT">
                <matrix>1 0 0 0.000011 0 1 0 0 0 0 1 0.000000 0 0 0 1</matrix>
                <node id="VisualSceneNode12" name="objects" sid="objects" type="JOINT">
                  <matrix>-0.000003 0 1 -414 0 1 0 0 -1 0 -0.000003 54 0 0 0 1</matrix>
                  <node id="VisualSceneNode13" name="wall_01_1" sid="wall_01_1" type="JOINT">
                    <matrix>-0.000003 0 -1 63 0 1 0 0 1 0 -0.000003 414 0 0 0 1</matrix>
                  </node>
                </node>
              </node>
            </node>
          </node>
        </node>
      </node>
      <node id="VisualSceneNode14" name="painting1_0_0" type="NODE">
        <matrix>1 0 0 0 0 1 0 0 0 0 1 0 0 0 0 1</matrix>
        <instance_controller url="#Controller">
          <skeleton>#VisualSceneNode1</skeleton>
          <bind_material>
            <technique_common>
              <instance_material symbol="VisualMaterial0" target="#VisualMaterial"/>
            </technique_common>
          </bind_material>
        </instance_controller>
      </node>
      <node id="VisualSceneNode15" name="painting2_1_0" type="NODE">
        <matrix>1 0 0 0 0 1 0 0 0 0 1 0 0 0 0 1</matrix>
        <instance_controller url="#Controller1">
          <skeleton>#VisualSceneNode1</skeleton>
          <bind_material>
            <technique_common>
              <instance_material symbol="VisualMaterial10" target="#VisualMaterial1"/>
            </technique_common>
          </bind_material>
        </instance_controller>
      </node>
      <node id="VisualSceneNode16" name="wall_01_2_0" type="NODE">
        <matrix>1 0 0 0 0 1 0 0 0 0 1 0 0 0 0 1</matrix>
        <instance_controller url="#Controller2">
          <skeleton>#VisualSceneNode1</skeleton>
          <bind_material>
            <technique_common>
              <instance_material symbol="VisualMaterial20" target="#VisualMaterial2"/>
            </technique_common>
          </bind_material>
        </instance_controller>
      </node>
      <node id="VisualSceneNode17" name="wall_01_1_4_0" type="NODE">
        <matrix>1 0 0 0 0 1 0 0 0 0 1 0 0 0 0 1</matrix>
        <instance_controller url="#Controller3">
          <skeleton>#VisualSceneNode1</skeleton>
          <bind_material>
            <technique_common>
              <instance_material symbol="VisualMaterial20" target="#VisualMaterial2"/>
            </technique_common>
          </bind_material>
        </instance_controller>
      </node>
      <node id="VisualSceneNode18" name="wall_01_3_0" type="NODE">
        <matrix>1 0 0 0 0 1 0 0 0 0 1 0 0 0 0 1</matrix>
        <instance_controller url="#Controller4">
          <skeleton>#VisualSceneNode1</skeleton>
          <bind_material>
            <technique_common>
              <instance_material symbol="VisualMaterial30" target="#VisualMaterial3"/>
            </technique_common>
          </bind_material>
        </instance_controller>
      </node>
      <node id="VisualSceneNode19" name="wall_01_1_5_0" type="NODE">
        <matrix>1 0 0 0 0 1 0 0 0 0 1 0 0 0 0 1</matrix>
        <instance_controller url="#Controller5">
          <skeleton>#VisualSceneNode1</skeleton>
          <bind_material>
            <technique_common>
              <instance_material symbol="VisualMaterial30" target="#VisualMaterial3"/>
            </technique_common>
          </bind_material>
        </instance_controller>
      </node>
    </visual_scene>
  </library_visual_scenes>
  <scene>
    <instance_visual_scene url="#VisualSceneNode"/>
  </scene>
</COLLADA>
