version 1
nodes
0 "blender_implicit" -1
1 "intro_wall" -1
2 "WALL_TOP" 1
3 "wall1" 2
4 "move" 3
5 "scale" 4
6 "painting1" 5
7 "painting2" 5
8 "wall_01" 5
9 "wall2" 2
10 "move_1" 9
11 "scale_1" 10
12 "objects" 11
13 "wall_01_1" 12
end
skeleton
time 0
0  0 0 0  0 0 0
1  0.000000 0.000000 0.000000  1.570796 -0.000000 0.000000
2  0.000000 0.000000 0.000000  0.000000 -0.000000 0.000000
3  0.000000 0.000000 0.000000  0.000000 -0.000000 0.000000
4  0.000000 0.000000 0.000000  0.000000 -0.000000 0.000000
5  0.000000 0.000000 0.000000  0.000000 -0.000000 0.000000
6  0.000000 151.412888 39.347797  0.000000 -0.000000 0.000000
7  0.000000 151.412888 40.033199  0.000000 -0.000000 0.000000
8  0.000000 0.000000 -9.000000  0.000000 -0.000000 0.000000
9  0.000000 0.000000 0.000000  1.553927 0.128608 -0.130789
10  0.000000 417.507050 -0.000000  -1.442171 -0.016730 1.699425
11  0.000050 -0.000001 -0.000001  0.130789 -0.128607 1.553928
12  -0.000000 417.507111 0.000000  -0.076152 1.289462 3.065611
13  0.000001 418.766510 -0.000001  -1.421579 -0.022604 1.720127
end
triangles
Mdl_0_Mtl_Comb2.001
0  -180.000000 -36.000000 0.000039  0.000000 -1.000000 -0.000000  -0.921875 0.093750 1 8 1.000000
0  -198.000000 -36.000008 35.999992  0.000000 -1.000000 -0.000000  -0.937500 0.484375 1 8 1.000000
0  -198.000000 -36.000000 0.000039  0.000000 -1.000000 -0.000000  -0.937500 0.093750 1 8 1.000000
Mdl_0_Mtl_Comb2.001
0  -180.000000 -36.000000 0.000039  0.000000 -1.000000 -0.000000  -0.921875 0.093750 1 8 1.000000
0  -180.000000 -36.000008 35.999992  0.000000 -1.000000 -0.000000  -0.921875 0.484375 1 8 1.000000
0  -198.000000 -36.000008 35.999992  0.000000 -1.000000 -0.000000  -0.937500 0.484375 1 8 1.000000
Mdl_0_Mtl_Comb2.001
0  -180.000000 -36.000000 0.000039  0.000000 -1.000000 -0.000000  -0.921875 0.093750 1 8 1.000000
0  -162.000000 -36.000008 35.999992  0.000000 -1.000000 -0.000000  -0.906250 0.484375 1 8 1.000000
0  -180.000000 -36.000008 35.999992  0.000000 -1.000000 -0.000000  -0.921875 0.484375 1 8 1.000000
Mdl_0_Mtl_Comb2.001
0  -180.000000 -36.000000 0.000039  0.000000 -1.000000 -0.000000  -0.921875 0.093750 1 8 1.000000
0  -162.000000 -36.000000 0.000039  0.000000 -1.000000 -0.000000  -0.906250 0.093750 1 8 1.000000
0  -162.000000 -36.000008 35.999992  0.000000 -1.000000 -0.000000  -0.906250 0.484375 1 8 1.000000
Mdl_0_Mtl_Comb2.001
0  -162.000000 -36.000000 0.000039  0.000000 -1.000000 -0.000000  -0.906250 0.093750 1 8 1.000000
0  162.000000 -36.000008 35.999992  0.000000 -1.000000 -0.000000  -0.843750 0.484375 1 8 1.000000
0  -162.000000 -36.000008 35.999992  0.000000 -1.000000 -0.000000  -0.906250 0.484375 1 8 1.000000
Mdl_0_Mtl_Comb2.001
0  -162.000000 -36.000000 0.000039  0.000000 -1.000000 -0.000000  -0.906250 0.093750 1 8 1.000000
0  162.000000 -36.000000 0.000039  0.000000 -1.000000 -0.000000  -0.843750 0.093750 1 8 1.000000
0  162.000000 -36.000008 35.999992  0.000000 -1.000000 -0.000000  -0.843750 0.484375 1 8 1.000000
Mdl_0_Mtl_Comb2.001
0  162.000000 -36.000000 0.000039  0.000000 -1.000000 -0.000000  -0.843750 0.093750 1 8 1.000000
0  180.000000 -36.000000 0.000039  0.000000 -1.000000 -0.000000  -0.828125 0.093750 1 8 1.000000
0  162.000000 -36.000008 35.999992  0.000000 -1.000000 -0.000000  -0.843750 0.484375 1 8 1.000000
Mdl_0_Mtl_Comb2.001
0  180.000000 -36.000000 0.000039  0.000000 -1.000000 -0.000000  -0.828125 0.093750 1 8 1.000000
0  180.000000 -36.000008 35.999992  0.000000 -1.000000 -0.000000  -0.828125 0.484375 1 8 1.000000
0  162.000000 -36.000008 35.999992  0.000000 -1.000000 -0.000000  -0.843750 0.484375 1 8 1.000000
Mdl_0_Mtl_Comb2.001
0  180.000000 -36.000000 0.000039  0.000000 -1.000000 -0.000000  -0.828125 0.093750 1 8 1.000000
0  198.000000 -36.000000 0.000039  0.000000 -1.000000 -0.000000  -0.812500 0.093750 1 8 1.000000
0  180.000000 -36.000008 35.999992  0.000000 -1.000000 -0.000000  -0.828125 0.484375 1 8 1.000000
Mdl_0_Mtl_Comb2.001
0  198.000000 -36.000000 0.000039  0.000000 -1.000000 -0.000000  -0.812500 0.093750 1 8 1.000000
0  198.000000 -36.000008 35.999992  0.000000 -1.000000 -0.000000  -0.812500 0.484375 1 8 1.000000
0  180.000000 -36.000008 35.999992  0.000000 -1.000000 -0.000000  -0.828125 0.484375 1 8 1.000000
Mdl_0_Mtl_Comb2.001
0  -198.000000 18.000000 0.000048  -1.000000 -0.000002 0.000000  -0.968750 0.093750 1 8 1.000000
0  -198.000000 35.999992 36.000008  -1.000000 -0.000002 0.000000  -0.984375 0.484375 1 8 1.000000
0  -198.000000 36.000000 0.000051  -1.000000 -0.000002 0.000000  -0.984375 0.093750 1 8 1.000000
Mdl_0_Mtl_Comb2.001
0  -198.000000 18.000000 0.000048  -1.000000 -0.000001 0.000000  -0.968750 0.093750 1 8 1.000000
0  -198.000000 17.999994 36.000004  -1.000000 -0.000001 0.000000  -0.968750 0.484375 1 8 1.000000
0  -198.000000 35.999992 36.000008  -1.000000 -0.000001 0.000000  -0.984375 0.484375 1 8 1.000000
Mdl_0_Mtl_Comb2.001
0  -198.000000 18.000000 0.000048  -1.000000 0.000000 0.000000  -0.968750 0.093750 1 8 1.000000
0  -198.000000 -18.000006 35.999996  -1.000000 0.000000 0.000000  -0.953125 0.484375 1 8 1.000000
0  -198.000000 17.999994 36.000004  -1.000000 0.000000 0.000000  -0.968750 0.484375 1 8 1.000000
Mdl_0_Mtl_Comb2.001
0  -198.000000 18.000000 0.000048  -1.000000 0.000001 0.000000  -0.968750 0.093750 1 8 1.000000
0  -198.000000 -18.000000 0.000042  -1.000000 0.000001 0.000000  -0.953125 0.093750 1 8 1.000000
0  -198.000000 -18.000006 35.999996  -1.000000 0.000001 0.000000  -0.953125 0.484375 1 8 1.000000
Mdl_0_Mtl_Comb2.001
0  180.000000 -36.000031 198.000000  0.000000 -1.000000 -0.000000  -1.984380 0.703125 1 8 1.000000
0  198.000000 -36.000046 270.000000  0.000000 -1.000000 -0.000000  -1.765630 0.734375 1 8 1.000000
0  180.000000 -36.000046 270.000000  0.000000 -1.000000 -0.000000  -1.984380 0.734375 1 8 1.000000
Mdl_0_Mtl_Comb2.001
0  180.000000 -36.000031 198.000000  0.000000 -1.000000 -0.000000  -1.984380 0.703125 1 8 1.000000
0  198.000000 -36.000031 198.000000  0.000000 -1.000000 -0.000000  -1.765630 0.703125 1 8 1.000000
0  198.000000 -36.000046 270.000000  0.000000 -1.000000 -0.000000  -1.765630 0.734375 1 8 1.000000
Mdl_0_Mtl_Comb2.001
0  180.000000 -36.000031 198.000000  0.000000 -1.000000 0.000000  -1.984380 0.703125 1 8 1.000000
0  198.000000 -36.000031 180.000000  0.000000 -1.000000 0.000000  -1.765630 0.671875 1 8 1.000000
0  198.000000 -36.000031 198.000000  0.000000 -1.000000 0.000000  -1.765630 0.703125 1 8 1.000000
Mdl_0_Mtl_Comb2.001
0  180.000000 -36.000031 198.000000  0.000000 -1.000000 0.000000  -1.984380 0.703125 1 8 1.000000
0  180.000000 -36.000031 180.000000  0.000000 -1.000000 0.000000  -1.984380 0.671875 1 8 1.000000
0  198.000000 -36.000031 180.000000  0.000000 -1.000000 0.000000  -1.765630 0.671875 1 8 1.000000
Mdl_0_Mtl_Comb2.001
0  180.000000 -36.000031 180.000000  0.000000 -1.000000 -0.000000  -1.984380 0.671875 1 8 1.000000
0  198.000000 -36.000019 107.999992  0.000000 -1.000000 -0.000000  -1.765630 0.578125 1 8 1.000000
0  198.000000 -36.000031 180.000000  0.000000 -1.000000 -0.000000  -1.765630 0.671875 1 8 1.000000
Mdl_0_Mtl_Comb2.001
0  180.000000 -36.000031 180.000000  0.000000 -1.000000 -0.000000  -1.984380 0.671875 1 8 1.000000
0  180.000000 -36.000019 107.999992  0.000000 -1.000000 -0.000000  -1.984380 0.578125 1 8 1.000000
0  198.000000 -36.000019 107.999992  0.000000 -1.000000 -0.000000  -1.765630 0.578125 1 8 1.000000
Mdl_0_Mtl_Comb2.001
0  180.000000 -36.000019 107.999992  0.000000 -1.000000 -0.000001  -1.984380 0.578125 1 8 1.000000
0  198.000000 -36.000015 89.999992  0.000000 -1.000000 -0.000001  -1.765630 0.546875 1 8 1.000000
0  198.000000 -36.000019 107.999992  0.000000 -1.000000 -0.000001  -1.765630 0.578125 1 8 1.000000
Mdl_0_Mtl_Comb2.001
0  180.000000 -36.000019 107.999992  0.000000 -1.000000 0.000000  -1.984380 0.578125 1 8 1.000000
0  180.000000 -36.000015 89.999992  0.000000 -1.000000 0.000000  -1.984380 0.546875 1 8 1.000000
0  198.000000 -36.000015 89.999992  0.000000 -1.000000 0.000000  -1.765630 0.546875 1 8 1.000000
Mdl_0_Mtl_Comb2.001
0  180.000000 -36.000015 89.999992  0.000000 -1.000000 -0.000000  -1.984380 0.546875 1 8 1.000000
0  198.000000 -36.000008 35.999992  0.000000 -1.000000 -0.000000  -1.765630 0.515625 1 8 1.000000
0  198.000000 -36.000015 89.999992  0.000000 -1.000000 -0.000000  -1.765630 0.546875 1 8 1.000000
Mdl_0_Mtl_Comb2.001
0  180.000000 -36.000015 89.999992  0.000000 -1.000000 -0.000000  -1.984380 0.546875 1 8 1.000000
0  180.000000 -36.000008 35.999992  0.000000 -1.000000 -0.000000  -1.984380 0.515625 1 8 1.000000
0  198.000000 -36.000008 35.999992  0.000000 -1.000000 -0.000000  -1.765630 0.515625 1 8 1.000000
Mdl_0_Mtl_Comb2.001
0  -198.000000 -36.000015 89.999992  0.000000 -1.000000 -0.000000  -1.765630 0.546875 1 8 1.000000
0  -198.000000 -36.000008 35.999992  0.000000 -1.000000 -0.000000  -1.765630 0.515625 1 8 1.000000
0  -180.000000 -36.000008 35.999992  0.000000 -1.000000 -0.000000  -1.984380 0.515625 1 8 1.000000
Mdl_0_Mtl_Comb2.001
0  -198.000000 -36.000015 89.999992  0.000000 -1.000000 -0.000000  -1.765630 0.546875 1 8 1.000000
0  -180.000000 -36.000008 35.999992  0.000000 -1.000000 -0.000000  -1.984380 0.515625 1 8 1.000000
0  -180.000000 -36.000015 89.999992  0.000000 -1.000000 -0.000000  -1.984380 0.546875 1 8 1.000000
Mdl_0_Mtl_Comb2.001
0  -198.000000 -36.000015 89.999992  0.000000 -1.000000 0.000000  -1.765630 0.546875 1 8 1.000000
0  -180.000000 -36.000015 89.999992  0.000000 -1.000000 0.000000  -1.984380 0.546875 1 8 1.000000
0  -198.000000 -36.000019 107.999992  0.000000 -1.000000 0.000000  -1.765630 0.578125 1 8 1.000000
Mdl_0_Mtl_Comb2.001
0  -180.000000 -36.000015 89.999992  0.000000 -1.000000 -0.000001  -1.984380 0.546875 1 8 1.000000
0  -180.000000 -36.000019 107.999992  0.000000 -1.000000 -0.000001  -1.984380 0.578125 1 8 1.000000
0  -198.000000 -36.000019 107.999992  0.000000 -1.000000 -0.000001  -1.765630 0.578125 1 8 1.000000
Mdl_0_Mtl_Comb2.001
0  -180.000000 -36.000019 107.999992  0.000000 -1.000000 -0.000000  -1.984380 0.578125 1 8 1.000000
0  -198.000000 -36.000031 180.000000  0.000000 -1.000000 -0.000000  -1.765630 0.671875 1 8 1.000000
0  -198.000000 -36.000019 107.999992  0.000000 -1.000000 -0.000000  -1.765630 0.578125 1 8 1.000000
Mdl_0_Mtl_Comb2.001
0  -180.000000 -36.000019 107.999992  0.000000 -1.000000 -0.000000  -1.984380 0.578125 1 8 1.000000
0  -180.000000 -36.000031 180.000000  0.000000 -1.000000 -0.000000  -1.984380 0.671875 1 8 1.000000
0  -198.000000 -36.000031 180.000000  0.000000 -1.000000 -0.000000  -1.765630 0.671875 1 8 1.000000
Mdl_0_Mtl_Comb2.001
0  -180.000000 -36.000031 180.000000  0.000000 -1.000000 0.000000  -1.984380 0.671875 1 8 1.000000
0  -198.000000 -36.000031 198.000000  0.000000 -1.000000 0.000000  -1.765630 0.703125 1 8 1.000000
0  -198.000000 -36.000031 180.000000  0.000000 -1.000000 0.000000  -1.765630 0.671875 1 8 1.000000
Mdl_0_Mtl_Comb2.001
0  -180.000000 -36.000031 180.000000  0.000000 -1.000000 0.000000  -1.984380 0.671875 1 8 1.000000
0  -180.000000 -36.000031 198.000000  0.000000 -1.000000 0.000000  -1.984380 0.703125 1 8 1.000000
0  -198.000000 -36.000031 198.000000  0.000000 -1.000000 0.000000  -1.765630 0.703125 1 8 1.000000
Mdl_0_Mtl_Comb2.001
0  -180.000000 -36.000031 198.000000  0.000000 -1.000000 -0.000000  -1.984380 0.703125 1 8 1.000000
0  -198.000000 -36.000046 270.000000  0.000000 -1.000000 -0.000000  -1.765630 0.734375 1 8 1.000000
0  -198.000000 -36.000031 198.000000  0.000000 -1.000000 -0.000000  -1.765630 0.703125 1 8 1.000000
Mdl_0_Mtl_Comb2.001
0  -180.000000 -36.000031 198.000000  0.000000 -1.000000 -0.000000  -1.984380 0.703125 1 8 1.000000
0  -180.000000 -36.000046 270.000000  0.000000 -1.000000 -0.000000  -1.984380 0.734375 1 8 1.000000
0  -198.000000 -36.000046 270.000000  0.000000 -1.000000 -0.000000  -1.765630 0.734375 1 8 1.000000
Mdl_0_Mtl_Comb2.001
0  198.000000 -36.000015 89.999992  1.000000 0.000000 0.000000  -0.765625 0.546875 1 8 1.000000
0  198.000000 -36.000008 35.999992  1.000000 0.000000 0.000000  -0.765625 0.515625 1 8 1.000000
0  198.000000 -18.000105 35.999996  1.000000 0.000000 0.000000  -0.984375 0.515625 1 8 1.000000
Mdl_0_Mtl_Comb2.001
0  198.000000 -36.000015 89.999992  1.000000 0.000000 0.000000  -0.765625 0.546875 1 8 1.000000
0  198.000000 -18.000105 35.999996  1.000000 0.000000 0.000000  -0.984375 0.515625 1 8 1.000000
0  198.000000 -18.000114 90.000000  1.000000 0.000000 0.000000  -0.984375 0.546875 1 8 1.000000
Mdl_0_Mtl_Comb2.001
0  198.000000 -36.000015 89.999992  1.000000 0.000000 0.000000  -0.765625 0.546875 1 8 1.000000
0  198.000000 -18.000114 90.000000  1.000000 0.000000 0.000000  -0.984375 0.546875 1 8 1.000000
0  198.000000 -36.000019 107.999992  1.000000 0.000000 0.000000  -0.765625 0.578125 1 8 1.000000
Mdl_0_Mtl_Comb2.001
0  198.000000 -18.000114 90.000000  1.000000 0.000000 0.000000  -0.984375 0.546875 1 8 1.000000
0  198.000000 -18.000116 108.000000  1.000000 0.000000 0.000000  -0.984375 0.578125 1 8 1.000000
0  198.000000 -36.000019 107.999992  1.000000 0.000000 0.000000  -0.765625 0.578125 1 8 1.000000
Mdl_0_Mtl_Comb2.001
0  198.000000 -18.000116 108.000000  1.000000 0.000000 0.000000  -0.984375 0.578125 1 8 1.000000
0  198.000000 -36.000031 180.000000  1.000000 0.000000 0.000000  -0.765625 0.671875 1 8 1.000000
0  198.000000 -36.000019 107.999992  1.000000 0.000000 0.000000  -0.765625 0.578125 1 8 1.000000
Mdl_0_Mtl_Comb2.001
0  198.000000 -18.000116 108.000000  1.000000 0.000000 0.000000  -0.984375 0.578125 1 8 1.000000
0  198.000000 -18.000128 180.000000  1.000000 0.000000 0.000000  -0.984375 0.671875 1 8 1.000000
0  198.000000 -36.000031 180.000000  1.000000 0.000000 0.000000  -0.765625 0.671875 1 8 1.000000
Mdl_0_Mtl_Comb2.001
0  198.000000 -18.000128 180.000000  1.000000 0.000000 0.000000  -0.984375 0.671875 1 8 1.000000
0  198.000000 -36.000031 198.000000  1.000000 0.000000 0.000000  -0.765625 0.703125 1 8 1.000000
0  198.000000 -36.000031 180.000000  1.000000 0.000000 0.000000  -0.765625 0.671875 1 8 1.000000
Mdl_0_Mtl_Comb2.001
0  198.000000 -18.000128 180.000000  1.000000 0.000000 0.000000  -0.984375 0.671875 1 8 1.000000
0  198.000000 -18.000132 198.000000  1.000000 0.000000 0.000000  -0.984375 0.703125 1 8 1.000000
0  198.000000 -36.000031 198.000000  1.000000 0.000000 0.000000  -0.765625 0.703125 1 8 1.000000
Mdl_0_Mtl_Comb2.001
0  198.000000 -18.000132 198.000000  1.000000 0.000000 0.000000  -0.984375 0.703125 1 8 1.000000
0  198.000000 -36.000046 270.000000  1.000000 0.000000 0.000000  -0.765625 0.734375 1 8 1.000000
0  198.000000 -36.000031 198.000000  1.000000 0.000000 0.000000  -0.765625 0.703125 1 8 1.000000
Mdl_0_Mtl_Comb2.001
0  198.000000 -18.000132 198.000000  1.000000 0.000000 0.000000  -0.984375 0.703125 1 8 1.000000
0  198.000000 -18.000143 270.000000  1.000000 0.000000 0.000000  -0.984375 0.734375 1 8 1.000000
0  198.000000 -36.000046 270.000000  1.000000 0.000000 0.000000  -0.765625 0.734375 1 8 1.000000
Mdl_0_Mtl_Comb2.001
0  -198.000000 35.999985 90.000008  -1.000000 0.000000 0.000000  -1.765630 0.546875 1 8 1.000000
0  -198.000000 35.999992 36.000008  -1.000000 0.000000 0.000000  -1.765630 0.515625 1 8 1.000000
0  -198.000000 17.999994 36.000004  -1.000000 0.000000 0.000000  -1.984380 0.515625 1 8 1.000000
Mdl_0_Mtl_Comb2.001
0  -198.000000 35.999985 90.000008  -1.000000 0.000000 0.000000  -1.765630 0.546875 1 8 1.000000
0  -198.000000 17.999994 36.000004  -1.000000 0.000000 0.000000  -1.984380 0.515625 1 8 1.000000
0  -198.000000 17.999985 90.000000  -1.000000 0.000000 0.000000  -1.984380 0.546875 1 8 1.000000
Mdl_0_Mtl_Comb2.001
0  -198.000000 35.999985 90.000008  -1.000000 0.000000 0.000000  -1.765630 0.546875 1 8 1.000000
0  -198.000000 17.999985 90.000000  -1.000000 0.000000 0.000000  -1.984380 0.546875 1 8 1.000000
0  -198.000000 35.999981 108.000008  -1.000000 0.000000 0.000000  -1.765630 0.578125 1 8 1.000000
Mdl_0_Mtl_Comb2.001
0  -198.000000 17.999985 90.000000  -1.000000 0.000000 0.000000  -1.984380 0.546875 1 8 1.000000
0  -198.000000 17.999983 108.000000  -1.000000 0.000000 0.000000  -1.984380 0.578125 1 8 1.000000
0  -198.000000 35.999981 108.000008  -1.000000 0.000000 0.000000  -1.765630 0.578125 1 8 1.000000
Mdl_0_Mtl_Comb2.001
0  -198.000000 17.999983 108.000000  -1.000000 0.000000 0.000000  -1.984380 0.578125 1 8 1.000000
0  -198.000000 35.999969 180.000000  -1.000000 0.000000 0.000000  -1.765630 0.671875 1 8 1.000000
0  -198.000000 35.999981 108.000008  -1.000000 0.000000 0.000000  -1.765630 0.578125 1 8 1.000000
Mdl_0_Mtl_Comb2.001
0  -198.000000 17.999983 108.000000  -1.000000 0.000000 0.000000  -1.984380 0.578125 1 8 1.000000
0  -198.000000 17.999971 180.000000  -1.000000 0.000000 0.000000  -1.984380 0.671875 1 8 1.000000
0  -198.000000 35.999969 180.000000  -1.000000 0.000000 0.000000  -1.765630 0.671875 1 8 1.000000
Mdl_0_Mtl_Comb2.001
0  -198.000000 17.999971 180.000000  -1.000000 0.000000 0.000000  -1.984380 0.671875 1 8 1.000000
0  -198.000000 35.999969 198.000000  -1.000000 0.000000 0.000000  -1.765630 0.703125 1 8 1.000000
0  -198.000000 35.999969 180.000000  -1.000000 0.000000 0.000000  -1.765630 0.671875 1 8 1.000000
Mdl_0_Mtl_Comb2.001
0  -198.000000 17.999971 180.000000  -1.000000 0.000000 0.000000  -1.984380 0.671875 1 8 1.000000
0  -198.000000 17.999968 198.000000  -1.000000 0.000000 0.000000  -1.984380 0.703125 1 8 1.000000
0  -198.000000 35.999969 198.000000  -1.000000 0.000000 0.000000  -1.765630 0.703125 1 8 1.000000
Mdl_0_Mtl_Comb2.001
0  -198.000000 17.999968 198.000000  -1.000000 0.000000 0.000000  -1.984380 0.703125 1 8 1.000000
0  -198.000000 35.999954 270.000000  -1.000000 0.000000 0.000000  -1.765630 0.734375 1 8 1.000000
0  -198.000000 35.999969 198.000000  -1.000000 0.000000 0.000000  -1.765630 0.703125 1 8 1.000000
Mdl_0_Mtl_Comb2.001
0  -198.000000 17.999968 198.000000  -1.000000 0.000000 0.000000  -1.984380 0.703125 1 8 1.000000
0  -198.000000 17.999956 270.000000  -1.000000 0.000000 0.000000  -1.984380 0.734375 1 8 1.000000
0  -198.000000 35.999954 270.000000  -1.000000 0.000000 0.000000  -1.765630 0.734375 1 8 1.000000
Mdl_0_Mtl_Comb2.001
0  198.000000 17.999893 36.000004  1.000000 -0.000001 0.000000  -0.781250 0.484375 1 8 1.000000
0  198.000000 -18.000105 35.999996  1.000000 -0.000001 0.000000  -0.796875 0.484375 1 8 1.000000
0  198.000000 -18.000099 0.000042  1.000000 -0.000001 0.000000  -0.796875 0.093750 1 8 1.000000
Mdl_0_Mtl_Comb2.001
0  198.000000 17.999893 36.000004  1.000000 0.000001 0.000000  -0.781250 0.484375 1 8 1.000000
0  198.000000 -18.000099 0.000042  1.000000 0.000001 0.000000  -0.796875 0.093750 1 8 1.000000
0  198.000000 17.999899 0.000048  1.000000 0.000001 0.000000  -0.781250 0.093750 1 8 1.000000
Mdl_0_Mtl_Comb2.001
0  198.000000 17.999893 36.000004  1.000000 0.000000 0.000000  -0.781250 0.484375 1 8 1.000000
0  198.000000 17.999899 0.000048  1.000000 0.000000 0.000000  -0.781250 0.093750 1 8 1.000000
0  198.000000 35.999893 36.000008  1.000000 0.000000 0.000000  -0.765625 0.484375 1 8 1.000000
Mdl_0_Mtl_Comb2.001
0  198.000000 17.999899 0.000048  1.000000 -0.000002 0.000000  -0.781250 0.093750 1 8 1.000000
0  198.000000 35.999901 0.000051  1.000000 -0.000002 0.000000  -0.765625 0.093750 1 8 1.000000
0  198.000000 35.999893 36.000008  1.000000 -0.000002 0.000000  -0.765625 0.484375 1 8 1.000000
Mdl_0_Mtl_Comb2.001
0  -198.000000 -18.000015 90.000000  -1.000000 0.000000 0.000000  -0.984375 0.546875 1 8 1.000000
0  -198.000000 -18.000006 35.999996  -1.000000 0.000000 0.000000  -0.984375 0.515625 1 8 1.000000
0  -198.000000 -36.000015 89.999992  -1.000000 0.000000 0.000000  -0.765625 0.546875 1 8 1.000000
Mdl_0_Mtl_Comb2.001
0  -198.000000 -18.000015 90.000000  -1.000000 0.000000 0.000000  -0.984375 0.546875 1 8 1.000000
0  -198.000000 -36.000015 89.999992  -1.000000 0.000000 0.000000  -0.765625 0.546875 1 8 1.000000
0  -198.000000 -36.000019 107.999992  -1.000000 0.000000 0.000000  -0.765625 0.578125 1 8 1.000000
Mdl_0_Mtl_Comb2.001
0  -198.000000 -18.000015 90.000000  -1.000000 0.000000 0.000000  -0.984375 0.546875 1 8 1.000000
0  -198.000000 -36.000019 107.999992  -1.000000 0.000000 0.000000  -0.765625 0.578125 1 8 1.000000
0  -198.000000 -18.000017 108.000000  -1.000000 0.000000 0.000000  -0.984375 0.578125 1 8 1.000000
Mdl_0_Mtl_Comb2.001
0  -198.000000 -18.000006 35.999996  -1.000000 0.000000 0.000000  -0.984375 0.515625 1 8 1.000000
0  -198.000000 -36.000008 35.999992  -1.000000 0.000000 0.000000  -0.765625 0.515625 1 8 1.000000
0  -198.000000 -36.000015 89.999992  -1.000000 0.000000 0.000000  -0.765625 0.546875 1 8 1.000000
Mdl_0_Mtl_Comb2.001
0  -198.000000 -36.000019 107.999992  -1.000000 0.000000 0.000000  -0.765625 0.578125 1 8 1.000000
0  -198.000000 -36.000031 180.000000  -1.000000 0.000000 0.000000  -0.765625 0.671875 1 8 1.000000
0  -198.000000 -18.000017 108.000000  -1.000000 0.000000 0.000000  -0.984375 0.578125 1 8 1.000000
Mdl_0_Mtl_Comb2.001
0  -198.000000 -36.000031 180.000000  -1.000000 0.000000 0.000000  -0.765625 0.671875 1 8 1.000000
0  -198.000000 -18.000029 180.000000  -1.000000 0.000000 0.000000  -0.984375 0.671875 1 8 1.000000
0  -198.000000 -18.000017 108.000000  -1.000000 0.000000 0.000000  -0.984375 0.578125 1 8 1.000000
Mdl_0_Mtl_Comb2.001
0  -198.000000 -36.000031 180.000000  -1.000000 0.000000 0.000000  -0.765625 0.671875 1 8 1.000000
0  -198.000000 -36.000031 198.000000  -1.000000 0.000000 0.000000  -0.765625 0.703125 1 8 1.000000
0  -198.000000 -18.000029 180.000000  -1.000000 0.000000 0.000000  -0.984375 0.671875 1 8 1.000000
Mdl_0_Mtl_Comb2.001
0  -198.000000 -36.000031 198.000000  -1.000000 0.000000 0.000000  -0.765625 0.703125 1 8 1.000000
0  -198.000000 -18.000032 198.000000  -1.000000 0.000000 0.000000  -0.984375 0.703125 1 8 1.000000
0  -198.000000 -18.000029 180.000000  -1.000000 0.000000 0.000000  -0.984375 0.671875 1 8 1.000000
Mdl_0_Mtl_Comb2.001
0  -198.000000 -36.000031 198.000000  -1.000000 0.000000 0.000000  -0.765625 0.703125 1 8 1.000000
0  -198.000000 -36.000046 270.000000  -1.000000 0.000000 0.000000  -0.765625 0.734375 1 8 1.000000
0  -198.000000 -18.000032 198.000000  -1.000000 0.000000 0.000000  -0.984375 0.703125 1 8 1.000000
Mdl_0_Mtl_Comb2.001
0  -198.000000 -36.000046 270.000000  -1.000000 0.000000 0.000000  -0.765625 0.734375 1 8 1.000000
0  -198.000000 -18.000044 270.000000  -1.000000 0.000000 0.000000  -0.984375 0.734375 1 8 1.000000
0  -198.000000 -18.000032 198.000000  -1.000000 0.000000 0.000000  -0.984375 0.703125 1 8 1.000000
Mdl_0_Mtl_Comb2.001
0  198.000000 17.999884 90.000000  1.000000 0.000000 0.000000  -1.984380 0.546875 1 8 1.000000
0  198.000000 17.999893 36.000004  1.000000 0.000000 0.000000  -1.984380 0.515625 1 8 1.000000
0  198.000000 35.999886 90.000008  1.000000 0.000000 0.000000  -1.765630 0.546875 1 8 1.000000
Mdl_0_Mtl_Comb2.001
0  198.000000 17.999884 90.000000  1.000000 0.000000 0.000000  -1.984380 0.546875 1 8 1.000000
0  198.000000 35.999886 90.000008  1.000000 0.000000 0.000000  -1.765630 0.546875 1 8 1.000000
0  198.000000 35.999882 108.000008  1.000000 0.000000 0.000000  -1.765630 0.578125 1 8 1.000000
Mdl_0_Mtl_Comb2.001
0  198.000000 17.999884 90.000000  1.000000 0.000000 0.000000  -1.984380 0.546875 1 8 1.000000
0  198.000000 35.999882 108.000008  1.000000 0.000000 0.000000  -1.765630 0.578125 1 8 1.000000
0  198.000000 17.999882 108.000000  1.000000 0.000000 0.000000  -1.984380 0.578125 1 8 1.000000
Mdl_0_Mtl_Comb2.001
0  198.000000 17.999893 36.000004  1.000000 0.000000 0.000000  -1.984380 0.515625 1 8 1.000000
0  198.000000 35.999893 36.000008  1.000000 0.000000 0.000000  -1.765630 0.515625 1 8 1.000000
0  198.000000 35.999886 90.000008  1.000000 0.000000 0.000000  -1.765630 0.546875 1 8 1.000000
Mdl_0_Mtl_Comb2.001
0  198.000000 35.999882 108.000008  1.000000 0.000000 0.000000  -1.765630 0.578125 1 8 1.000000
0  198.000000 35.999870 180.000000  1.000000 0.000000 0.000000  -1.765630 0.671875 1 8 1.000000
0  198.000000 17.999882 108.000000  1.000000 0.000000 0.000000  -1.984380 0.578125 1 8 1.000000
Mdl_0_Mtl_Comb2.001
0  198.000000 35.999870 180.000000  1.000000 0.000000 0.000000  -1.765630 0.671875 1 8 1.000000
0  198.000000 17.999870 180.000000  1.000000 0.000000 0.000000  -1.984380 0.671875 1 8 1.000000
0  198.000000 17.999882 108.000000  1.000000 0.000000 0.000000  -1.984380 0.578125 1 8 1.000000
Mdl_0_Mtl_Comb2.001
0  198.000000 35.999870 180.000000  1.000000 0.000000 0.000000  -1.765630 0.671875 1 8 1.000000
0  198.000000 35.999870 198.000000  1.000000 0.000000 0.000000  -1.765630 0.703125 1 8 1.000000
0  198.000000 17.999870 180.000000  1.000000 0.000000 0.000000  -1.984380 0.671875 1 8 1.000000
Mdl_0_Mtl_Comb2.001
0  198.000000 35.999870 198.000000  1.000000 0.000000 0.000000  -1.765630 0.703125 1 8 1.000000
0  198.000000 17.999866 198.000000  1.000000 0.000000 0.000000  -1.984380 0.703125 1 8 1.000000
0  198.000000 17.999870 180.000000  1.000000 0.000000 0.000000  -1.984380 0.671875 1 8 1.000000
Mdl_0_Mtl_Comb2.001
0  198.000000 35.999870 198.000000  1.000000 0.000000 0.000000  -1.765630 0.703125 1 8 1.000000
0  198.000000 35.999855 270.000000  1.000000 0.000000 0.000000  -1.765630 0.734375 1 8 1.000000
0  198.000000 17.999866 198.000000  1.000000 0.000000 0.000000  -1.984380 0.703125 1 8 1.000000
Mdl_0_Mtl_Comb2.001
0  198.000000 35.999855 270.000000  1.000000 0.000000 0.000000  -1.765630 0.734375 1 8 1.000000
0  198.000000 17.999855 270.000000  1.000000 0.000000 0.000000  -1.984380 0.734375 1 8 1.000000
0  198.000000 17.999866 198.000000  1.000000 0.000000 0.000000  -1.984380 0.703125 1 8 1.000000
Mdl_0_Mtl_Comb2.001
0  198.000000 -18.000099 0.000042  1.000000 0.000000 0.000000  -0.953125 0.093750 1 8 1.000000
0  198.000000 -36.000008 35.999992  1.000000 0.000000 0.000000  -0.937500 0.484375 1 8 1.000000
0  198.000000 -36.000000 0.000039  1.000000 0.000000 0.000000  -0.937500 0.093750 1 8 1.000000
Mdl_0_Mtl_Comb2.001
0  198.000000 -18.000099 0.000042  1.000000 0.000001 0.000000  -0.953125 0.093750 1 8 1.000000
0  198.000000 -18.000105 35.999996  1.000000 0.000001 0.000000  -0.953125 0.484375 1 8 1.000000
0  198.000000 -36.000008 35.999992  1.000000 0.000001 0.000000  -0.937500 0.484375 1 8 1.000000
Mdl_0_Mtl_Comb2.001
0  -198.000000 -18.000000 0.000042  -1.000000 0.000001 0.000000  -0.796875 0.093750 1 8 1.000000
0  -198.000000 -36.000008 35.999992  -1.000000 0.000001 0.000000  -0.812500 0.484375 1 8 1.000000
0  -198.000000 -18.000006 35.999996  -1.000000 0.000001 0.000000  -0.796875 0.484375 1 8 1.000000
Mdl_0_Mtl_Comb2.001
0  -198.000000 -18.000000 0.000042  -1.000000 0.000000 0.000000  -0.796875 0.093750 1 8 1.000000
0  -198.000000 -36.000000 0.000039  -1.000000 0.000000 0.000000  -0.812500 0.093750 1 8 1.000000
0  -198.000000 -36.000008 35.999992  -1.000000 0.000000 0.000000  -0.812500 0.484375 1 8 1.000000
Mdl_0_Mtl_Comb2.001
0  18.001900 -313.977020 -0.000036  -1.000000 0.000005 0.000000  -3.921880 0.093750 1 13 1.000000
0  18.002001 -293.972015 35.999950  -1.000000 0.000005 0.000000  -3.937500 0.484375 1 13 1.000000
0  18.002001 -293.972015 -0.000033  -1.000000 0.000005 0.000000  -3.937500 0.093750 1 13 1.000000
Mdl_0_Mtl_Comb2.001
0  18.001900 -313.977020 -0.000036  -1.000000 0.000005 0.000000  -3.921880 0.093750 1 13 1.000000
0  18.001900 -313.977020 35.999950  -1.000000 0.000005 0.000000  -3.921880 0.484375 1 13 1.000000
0  18.002001 -293.972015 35.999950  -1.000000 0.000005 0.000000  -3.937500 0.484375 1 13 1.000000
Mdl_0_Mtl_Comb2.001
0  18.001900 -313.977020 -0.000036  -1.000000 0.000003 0.000000  -3.921880 0.093750 1 13 1.000000
0  18.001799 -345.027008 35.999943  -1.000000 0.000003 0.000000  -3.904380 0.484375 1 13 1.000000
0  18.001900 -313.977020 35.999950  -1.000000 0.000003 0.000000  -3.921880 0.484375 1 13 1.000000
Mdl_0_Mtl_Comb2.001
0  18.001900 -313.977020 -0.000036  -1.000000 0.000003 0.000000  -3.921880 0.093750 1 13 1.000000
0  18.001799 -345.027008 -0.000041  -1.000000 0.000003 0.000000  -3.904380 0.093750 1 13 1.000000
0  18.001799 -345.027008 35.999943  -1.000000 0.000003 0.000000  -3.904380 0.484375 1 13 1.000000
Mdl_0_Mtl_Comb2.001
0  18.001799 -345.027008 -0.000041  -1.000000 0.000004 0.000000  -3.904380 0.093750 1 13 1.000000
0  18.001299 -482.972015 35.999920  -1.000000 0.000004 0.000000  -3.845620 0.484375 1 13 1.000000
0  18.001799 -345.027008 35.999943  -1.000000 0.000004 0.000000  -3.904380 0.484375 1 13 1.000000
Mdl_0_Mtl_Comb2.001
0  18.001799 -345.027008 -0.000041  -1.000000 0.000004 0.000000  -3.904380 0.093750 1 13 1.000000
0  18.001299 -482.972015 -0.000064  -1.000000 0.000004 0.000000  -3.845620 0.093750 1 13 1.000000
0  18.001299 -482.972015 35.999920  -1.000000 0.000004 0.000000  -3.845620 0.484375 1 13 1.000000
Mdl_0_Mtl_Comb2.001
0  18.001299 -482.972015 -0.000064  -1.000000 0.000003 0.000000  -3.845620 0.093750 1 13 1.000000
0  18.001200 -514.023010 -0.000069  -1.000000 0.000003 0.000000  -3.828120 0.093750 1 13 1.000000
0  18.001299 -482.972015 35.999920  -1.000000 0.000003 0.000000  -3.845620 0.484375 1 13 1.000000
Mdl_0_Mtl_Comb2.001
0  18.001200 -514.023010 -0.000069  -1.000000 0.000003 0.000000  -3.828120 0.093750 1 13 1.000000
0  18.001200 -514.023010 35.999916  -1.000000 0.000003 0.000000  -3.828120 0.484375 1 13 1.000000
0  18.001299 -482.972015 35.999920  -1.000000 0.000003 0.000000  -3.845620 0.484375 1 13 1.000000
Mdl_0_Mtl_Comb2.001
0  18.001200 -514.023010 -0.000069  -1.000000 0.000005 0.000000  -3.828120 0.093750 1 13 1.000000
0  18.001099 -534.028015 -0.000072  -1.000000 0.000005 0.000000  -3.812500 0.093750 1 13 1.000000
0  18.001200 -514.023010 35.999916  -1.000000 0.000005 0.000000  -3.828120 0.484375 1 13 1.000000
Mdl_0_Mtl_Comb2.001
0  18.001099 -534.028015 -0.000072  -1.000000 0.000005 0.000000  -3.812500 0.093750 1 13 1.000000
0  18.001099 -534.028015 35.999912  -1.000000 0.000005 0.000000  -3.812500 0.484375 1 13 1.000000
0  18.001200 -514.023010 35.999916  -1.000000 0.000005 0.000000  -3.828120 0.484375 1 13 1.000000
Mdl_0_Mtl_Comb2.001
0  36.001099 -534.028015 -0.000072  0.000000 -1.000000 0.000000  -3.796880 0.093750 1 13 1.000000
0  18.001099 -534.028015 35.999912  0.000000 -1.000000 0.000000  -3.812500 0.484375 1 13 1.000000
0  18.001099 -534.028015 -0.000072  0.000000 -1.000000 0.000000  -3.812500 0.093750 1 13 1.000000
Mdl_0_Mtl_Comb2.001
0  36.001099 -534.028015 -0.000072  0.000000 -1.000000 0.000000  -3.796880 0.093750 1 13 1.000000
0  36.001099 -534.028015 35.999912  0.000000 -1.000000 0.000000  -3.796880 0.484375 1 13 1.000000
0  18.001099 -534.028015 35.999912  0.000000 -1.000000 0.000000  -3.812500 0.484375 1 13 1.000000
Mdl_0_Mtl_Comb2.001
0  36.001099 -534.028015 -0.000072  0.000000 -1.000000 0.000000  -3.796880 0.093750 1 13 1.000000
0  72.001099 -534.028015 35.999912  0.000000 -1.000000 0.000000  -3.781250 0.484375 1 13 1.000000
0  36.001099 -534.028015 35.999912  0.000000 -1.000000 0.000000  -3.796880 0.484375 1 13 1.000000
Mdl_0_Mtl_Comb2.001
0  36.001099 -534.028015 -0.000072  0.000000 -1.000000 0.000000  -3.796880 0.093750 1 13 1.000000
0  72.001099 -534.028015 -0.000087  0.000000 -1.000000 0.000000  -3.781250 0.093750 1 13 1.000000
0  72.001099 -534.028015 35.999912  0.000000 -1.000000 0.000000  -3.781250 0.484375 1 13 1.000000
Mdl_0_Mtl_Comb2.001
0  72.001099 -534.028015 -0.000087  0.000000 -1.000000 0.000000  -3.781250 0.093750 1 13 1.000000
0  90.001099 -534.028015 35.999912  0.000000 -1.000000 0.000000  -3.765620 0.484375 1 13 1.000000
0  72.001099 -534.028015 35.999912  0.000000 -1.000000 0.000000  -3.781250 0.484375 1 13 1.000000
Mdl_0_Mtl_Comb2.001
0  72.001099 -534.028015 -0.000087  0.000000 -1.000000 0.000000  -3.781250 0.093750 1 13 1.000000
0  90.001099 -534.028015 -0.000087  0.000000 -1.000000 0.000000  -3.765620 0.093750 1 13 1.000000
0  90.001099 -534.028015 35.999912  0.000000 -1.000000 0.000000  -3.765620 0.484375 1 13 1.000000
Mdl_0_Mtl_Comb2.001
0  72.002007 -293.972015 -0.000048  0.000000 1.000000 0.000000  -3.968750 0.093750 1 13 1.000000
0  90.002007 -293.972015 35.999950  0.000000 1.000000 0.000000  -3.984380 0.484375 1 13 1.000000
0  90.002007 -293.972015 -0.000048  0.000000 1.000000 0.000000  -3.984380 0.093750 1 13 1.000000
Mdl_0_Mtl_Comb2.001
0  72.002007 -293.972015 -0.000048  0.000000 1.000000 0.000000  -3.968750 0.093750 1 13 1.000000
0  72.002007 -293.972015 35.999950  0.000000 1.000000 0.000000  -3.968750 0.484375 1 13 1.000000
0  90.002007 -293.972015 35.999950  0.000000 1.000000 0.000000  -3.984380 0.484375 1 13 1.000000
Mdl_0_Mtl_Comb2.001
0  72.002007 -293.972015 -0.000048  0.000000 1.000000 0.000000  -3.968750 0.093750 1 13 1.000000
0  36.002003 -293.972015 35.999950  0.000000 1.000000 0.000000  -3.953130 0.484375 1 13 1.000000
0  72.002007 -293.972015 35.999950  0.000000 1.000000 0.000000  -3.968750 0.484375 1 13 1.000000
Mdl_0_Mtl_Comb2.001
0  72.002007 -293.972015 -0.000048  0.000000 1.000000 0.000000  -3.968750 0.093750 1 13 1.000000
0  36.002003 -293.972015 -0.000033  0.000000 1.000000 0.000000  -3.953130 0.093750 1 13 1.000000
0  36.002003 -293.972015 35.999950  0.000000 1.000000 0.000000  -3.953130 0.484375 1 13 1.000000
Mdl_0_Mtl_Comb2.001
0  36.002003 -293.972015 -0.000033  0.000000 1.000000 0.000000  -3.953130 0.093750 1 13 1.000000
0  18.002001 -293.972015 35.999950  0.000000 1.000000 0.000000  -3.937500 0.484375 1 13 1.000000
0  36.002003 -293.972015 35.999950  0.000000 1.000000 0.000000  -3.953130 0.484375 1 13 1.000000
Mdl_0_Mtl_Comb2.001
0  36.002003 -293.972015 -0.000033  0.000000 1.000000 0.000000  -3.953130 0.093750 1 13 1.000000
0  18.002001 -293.972015 -0.000033  0.000000 1.000000 0.000000  -3.937500 0.093750 1 13 1.000000
0  18.002001 -293.972015 35.999950  0.000000 1.000000 0.000000  -3.937500 0.484375 1 13 1.000000
Mdl_0_Mtl_Comb2.001
0  18.001200 -514.023010 161.849915  -1.000000 0.000005 0.000000  -0.984375 0.650926 1 13 1.000000
0  18.001099 -534.028076 269.999908  -1.000000 0.000005 0.000000  -0.765625 0.734375 1 13 1.000000
0  18.001200 -514.023071 269.999908  -1.000000 0.000005 0.000000  -0.984375 0.734375 1 13 1.000000
Mdl_0_Mtl_Comb2.001
0  18.001200 -514.023010 161.849915  -1.000000 0.000005 0.000000  -0.984375 0.650926 1 13 1.000000
0  18.001099 -534.028015 161.849899  -1.000000 0.000005 0.000000  -0.765625 0.650926 1 13 1.000000
0  18.001099 -534.028076 269.999908  -1.000000 0.000005 0.000000  -0.765625 0.734375 1 13 1.000000
Mdl_0_Mtl_Comb2.001
0  18.001200 -514.023010 161.849915  -1.000000 0.000005 0.000000  -0.984375 0.650926 1 13 1.000000
0  18.001099 -534.028015 107.999916  -1.000000 0.000005 0.000000  -0.765625 0.609375 1 13 1.000000
0  18.001099 -534.028015 161.849899  -1.000000 0.000005 0.000000  -0.765625 0.650926 1 13 1.000000
Mdl_0_Mtl_Comb2.001
0  18.001200 -514.023010 161.849915  -1.000000 0.000005 0.000000  -0.984375 0.650926 1 13 1.000000
0  18.001200 -514.023010 107.999916  -1.000000 0.000005 0.000000  -0.984375 0.609375 1 13 1.000000
0  18.001099 -534.028015 107.999916  -1.000000 0.000005 0.000000  -0.765625 0.609375 1 13 1.000000
Mdl_0_Mtl_Comb2.001
0  18.001200 -514.023010 107.999916  -1.000000 0.000005 0.000000  -0.984375 0.609375 1 13 1.000000
0  18.001099 -534.028015 35.999912  -1.000000 0.000005 0.000000  -0.765625 0.515625 1 13 1.000000
0  18.001099 -534.028015 107.999916  -1.000000 0.000005 0.000000  -0.765625 0.609375 1 13 1.000000
Mdl_0_Mtl_Comb2.001
0  18.001200 -514.023010 107.999916  -1.000000 0.000005 0.000000  -0.984375 0.609375 1 13 1.000000
0  18.001200 -514.023010 35.999916  -1.000000 0.000005 0.000000  -0.984375 0.515625 1 13 1.000000
0  18.001099 -534.028015 35.999912  -1.000000 0.000005 0.000000  -0.765625 0.515625 1 13 1.000000
Mdl_0_Mtl_Comb2.001
0  36.002003 -293.972046 161.849945  0.000000 1.000000 0.000000  -0.984375 0.650926 1 13 1.000000
0  18.002001 -293.972046 269.999939  0.000000 1.000000 0.000000  -0.765625 0.734375 1 13 1.000000
0  36.002003 -293.972046 269.999939  0.000000 1.000000 0.000000  -0.984375 0.734375 1 13 1.000000
Mdl_0_Mtl_Comb2.001
0  36.002003 -293.972046 161.849945  0.000000 1.000000 0.000000  -0.984375 0.650926 1 13 1.000000
0  18.002001 -293.972046 161.849945  0.000000 1.000000 0.000000  -0.765625 0.650926 1 13 1.000000
0  18.002001 -293.972046 269.999939  0.000000 1.000000 0.000000  -0.765625 0.734375 1 13 1.000000
Mdl_0_Mtl_Comb2.001
0  36.002003 -293.972046 161.849945  0.000000 1.000000 0.000000  -0.984375 0.650926 1 13 1.000000
0  18.002001 -293.972046 107.999954  0.000000 1.000000 0.000000  -0.765625 0.609375 1 13 1.000000
0  18.002001 -293.972046 161.849945  0.000000 1.000000 0.000000  -0.765625 0.650926 1 13 1.000000
Mdl_0_Mtl_Comb2.001
0  36.002003 -293.972046 161.849945  0.000000 1.000000 0.000000  -0.984375 0.650926 1 13 1.000000
0  36.002003 -293.972046 107.999954  0.000000 1.000000 0.000000  -0.984375 0.609375 1 13 1.000000
0  18.002001 -293.972046 107.999954  0.000000 1.000000 0.000000  -0.765625 0.609375 1 13 1.000000
Mdl_0_Mtl_Comb2.001
0  36.002003 -293.972046 107.999954  0.000000 1.000000 0.000000  -0.984375 0.609375 1 13 1.000000
0  18.002001 -293.972015 35.999950  0.000000 1.000000 0.000000  -0.765625 0.515625 1 13 1.000000
0  18.002001 -293.972046 107.999954  0.000000 1.000000 0.000000  -0.765625 0.609375 1 13 1.000000
Mdl_0_Mtl_Comb2.001
0  36.002003 -293.972046 107.999954  0.000000 1.000000 0.000001  -0.984375 0.609375 1 13 1.000000
0  36.002003 -293.972015 35.999950  0.000000 1.000000 0.000001  -0.984375 0.515625 1 13 1.000000
0  18.002001 -293.972015 35.999950  0.000000 1.000000 0.000001  -0.765625 0.515625 1 13 1.000000
Mdl_0_Mtl_Comb2.001
0  72.001099 -534.028015 161.849899  0.000000 -1.000000 0.000000  -0.984375 0.650926 1 13 1.000000
0  90.001099 -534.028076 269.999908  0.000000 -1.000000 0.000000  -0.765625 0.734375 1 13 1.000000
0  72.001099 -534.028076 269.999908  0.000000 -1.000000 0.000000  -0.984375 0.734375 1 13 1.000000
Mdl_0_Mtl_Comb2.001
0  72.001099 -534.028015 161.849899  0.000000 -1.000000 -0.000002  -0.984375 0.650926 1 13 1.000000
0  90.001099 -534.028015 161.849899  0.000000 -1.000000 -0.000002  -0.765625 0.650926 1 13 1.000000
0  90.001099 -534.028076 269.999908  0.000000 -1.000000 -0.000002  -0.765625 0.734375 1 13 1.000000
Mdl_0_Mtl_Comb2.001
0  72.001099 -534.028015 161.849899  0.000000 -1.000000 0.000000  -0.984375 0.650926 1 13 1.000000
0  90.001099 -534.028015 107.999916  0.000000 -1.000000 0.000000  -0.765625 0.609375 1 13 1.000000
0  90.001099 -534.028015 161.849899  0.000000 -1.000000 0.000000  -0.765625 0.650926 1 13 1.000000
Mdl_0_Mtl_Comb2.001
0  72.001099 -534.028015 161.849899  0.000000 -1.000000 0.000000  -0.984375 0.650926 1 13 1.000000
0  72.001099 -534.028015 107.999916  0.000000 -1.000000 0.000000  -0.984375 0.609375 1 13 1.000000
0  90.001099 -534.028015 107.999916  0.000000 -1.000000 0.000000  -0.765625 0.609375 1 13 1.000000
Mdl_0_Mtl_Comb2.001
0  72.001099 -534.028015 107.999916  0.000000 -1.000000 0.000000  -0.984375 0.609375 1 13 1.000000
0  90.001099 -534.028015 35.999912  0.000000 -1.000000 0.000000  -0.765625 0.515625 1 13 1.000000
0  90.001099 -534.028015 107.999916  0.000000 -1.000000 0.000000  -0.765625 0.609375 1 13 1.000000
Mdl_0_Mtl_Comb2.001
0  72.001099 -534.028015 107.999916  0.000000 -1.000000 0.000000  -0.984375 0.609375 1 13 1.000000
0  72.001099 -534.028015 35.999912  0.000000 -1.000000 0.000000  -0.984375 0.515625 1 13 1.000000
0  90.001099 -534.028015 35.999912  0.000000 -1.000000 0.000000  -0.765625 0.515625 1 13 1.000000
Mdl_0_Mtl_Comb2.001
0  18.002001 -293.972046 107.999954  -1.000000 0.000005 0.000000  -0.765625 0.609375 1 13 1.000000
0  18.002001 -293.972015 35.999950  -1.000000 0.000005 0.000000  -0.765625 0.515625 1 13 1.000000
0  18.001900 -313.977020 35.999950  -1.000000 0.000005 0.000000  -0.984375 0.515625 1 13 1.000000
Mdl_0_Mtl_Comb2.001
0  18.002001 -293.972046 107.999954  -1.000000 0.000005 0.000000  -0.765625 0.609375 1 13 1.000000
0  18.001900 -313.977020 35.999950  -1.000000 0.000005 0.000000  -0.984375 0.515625 1 13 1.000000
0  18.001900 -313.977051 107.999947  -1.000000 0.000005 0.000000  -0.984375 0.609375 1 13 1.000000
Mdl_0_Mtl_Comb2.001
0  18.002001 -293.972046 107.999954  -1.000000 0.000005 0.000000  -0.765625 0.609375 1 13 1.000000
0  18.001900 -313.977051 107.999947  -1.000000 0.000005 0.000000  -0.984375 0.609375 1 13 1.000000
0  18.002001 -293.972046 161.849945  -1.000000 0.000005 0.000000  -0.765625 0.650926 1 13 1.000000
Mdl_0_Mtl_Comb2.001
0  18.001900 -313.977051 107.999947  -1.000000 0.000005 0.000000  -0.984375 0.609375 1 13 1.000000
0  18.001900 -313.977051 161.849945  -1.000000 0.000005 0.000000  -0.984375 0.650926 1 13 1.000000
0  18.002001 -293.972046 161.849945  -1.000000 0.000005 0.000000  -0.765625 0.650926 1 13 1.000000
Mdl_0_Mtl_Comb2.001
0  18.001900 -313.977051 161.849945  -1.000000 0.000005 0.000000  -0.984375 0.650926 1 13 1.000000
0  18.002001 -293.972046 269.999939  -1.000000 0.000005 0.000000  -0.765625 0.734375 1 13 1.000000
0  18.002001 -293.972046 161.849945  -1.000000 0.000005 0.000000  -0.765625 0.650926 1 13 1.000000
Mdl_0_Mtl_Comb2.001
0  18.001900 -313.977051 161.849945  -1.000000 0.000005 0.000000  -0.984375 0.650926 1 13 1.000000
0  18.001900 -313.977051 269.999939  -1.000000 0.000005 0.000000  -0.984375 0.734375 1 13 1.000000
0  18.002001 -293.972046 269.999939  -1.000000 0.000005 0.000000  -0.765625 0.734375 1 13 1.000000
Mdl_0_Mtl_Comb2.001
0  18.001099 -534.028015 107.999916  0.000000 -1.000000 0.000000  -0.765625 0.609375 1 13 1.000000
0  18.001099 -534.028015 35.999912  0.000000 -1.000000 0.000000  -0.765625 0.515625 1 13 1.000000
0  36.001099 -534.028015 35.999912  0.000000 -1.000000 0.000000  -0.984375 0.515625 1 13 1.000000
Mdl_0_Mtl_Comb2.001
0  18.001099 -534.028015 107.999916  0.000000 -1.000000 0.000000  -0.765625 0.609375 1 13 1.000000
0  36.001099 -534.028015 35.999912  0.000000 -1.000000 0.000000  -0.984375 0.515625 1 13 1.000000
0  36.001099 -534.028015 107.999916  0.000000 -1.000000 0.000000  -0.984375 0.609375 1 13 1.000000
Mdl_0_Mtl_Comb2.001
0  18.001099 -534.028015 107.999916  0.000000 -1.000000 0.000000  -0.765625 0.609375 1 13 1.000000
0  36.001099 -534.028015 107.999916  0.000000 -1.000000 0.000000  -0.984375 0.609375 1 13 1.000000
0  18.001099 -534.028015 161.849899  0.000000 -1.000000 0.000000  -0.765625 0.650926 1 13 1.000000
Mdl_0_Mtl_Comb2.001
0  36.001099 -534.028015 107.999916  0.000000 -1.000000 0.000000  -0.984375 0.609375 1 13 1.000000
0  36.001099 -534.028015 161.849899  0.000000 -1.000000 0.000000  -0.984375 0.650926 1 13 1.000000
0  18.001099 -534.028015 161.849899  0.000000 -1.000000 0.000000  -0.765625 0.650926 1 13 1.000000
Mdl_0_Mtl_Comb2.001
0  36.001099 -534.028015 161.849899  0.000000 -1.000000 -0.000002  -0.984375 0.650926 1 13 1.000000
0  18.001099 -534.028076 269.999908  0.000000 -1.000000 -0.000002  -0.765625 0.734375 1 13 1.000000
0  18.001099 -534.028015 161.849899  0.000000 -1.000000 -0.000002  -0.765625 0.650926 1 13 1.000000
Mdl_0_Mtl_Comb2.001
0  36.001099 -534.028015 161.849899  0.000000 -1.000000 0.000000  -0.984375 0.650926 1 13 1.000000
0  36.001099 -534.028076 269.999908  0.000000 -1.000000 0.000000  -0.984375 0.734375 1 13 1.000000
0  18.001099 -534.028076 269.999908  0.000000 -1.000000 0.000000  -0.765625 0.734375 1 13 1.000000
Mdl_0_Mtl_Comb2.001
0  90.002007 -293.972046 107.999954  0.000000 1.000000 0.000002  -0.765625 0.609375 1 13 1.000000
0  90.002007 -293.972015 35.999950  0.000000 1.000000 0.000002  -0.765625 0.515625 1 13 1.000000
0  72.002007 -293.972015 35.999950  0.000000 1.000000 0.000002  -0.984375 0.515625 1 13 1.000000
Mdl_0_Mtl_Comb2.001
0  90.002007 -293.972046 107.999954  0.000000 1.000000 0.000000  -0.765625 0.609375 1 13 1.000000
0  72.002007 -293.972015 35.999950  0.000000 1.000000 0.000000  -0.984375 0.515625 1 13 1.000000
0  72.002007 -293.972046 107.999954  0.000000 1.000000 0.000000  -0.984375 0.609375 1 13 1.000000
Mdl_0_Mtl_Comb2.001
0  90.002007 -293.972046 107.999954  0.000000 1.000000 0.000000  -0.765625 0.609375 1 13 1.000000
0  72.002007 -293.972046 107.999954  0.000000 1.000000 0.000000  -0.984375 0.609375 1 13 1.000000
0  90.002007 -293.972046 161.849945  0.000000 1.000000 0.000000  -0.765625 0.650926 1 13 1.000000
Mdl_0_Mtl_Comb2.001
0  72.002007 -293.972046 107.999954  0.000000 1.000000 0.000000  -0.984375 0.609375 1 13 1.000000
0  72.002007 -293.972046 161.849945  0.000000 1.000000 0.000000  -0.984375 0.650926 1 13 1.000000
0  90.002007 -293.972046 161.849945  0.000000 1.000000 0.000000  -0.765625 0.650926 1 13 1.000000
Mdl_0_Mtl_Comb2.001
0  72.002007 -293.972046 161.849945  0.000000 1.000000 0.000000  -0.984375 0.650926 1 13 1.000000
0  90.002007 -293.972046 269.999939  0.000000 1.000000 0.000000  -0.765625 0.734375 1 13 1.000000
0  90.002007 -293.972046 161.849945  0.000000 1.000000 0.000000  -0.765625 0.650926 1 13 1.000000
Mdl_0_Mtl_Comb2.001
0  72.002007 -293.972046 161.849945  0.000000 1.000000 0.000000  -0.984375 0.650926 1 13 1.000000
0  72.002007 -293.972046 269.999939  0.000000 1.000000 0.000000  -0.984375 0.734375 1 13 1.000000
0  90.002007 -293.972046 269.999939  0.000000 1.000000 0.000000  -0.765625 0.734375 1 13 1.000000
Mdl_0_Mtl_Comb6.001
0  18.001299 -482.972046 107.999924  -1.000000 0.000003 0.000000  0.437016 0.400320 1 13 1.000000
0  18.001200 -514.023010 35.999916  -1.000000 0.000003 0.000000  0.361578 0.134034 1 13 1.000000
0  18.001200 -514.023010 107.999916  -1.000000 0.000003 0.000000  0.361578 0.400248 1 13 1.000000
Mdl_0_Mtl_Comb6.001
0  18.001299 -482.972046 107.999924  -1.000000 0.000003 0.000000  0.437016 0.400320 1 13 1.000000
0  18.001299 -482.972015 35.999920  -1.000000 0.000003 0.000000  0.436718 0.134034 1 13 1.000000
0  18.001200 -514.023010 35.999916  -1.000000 0.000003 0.000000  0.361578 0.134034 1 13 1.000000
Mdl_0_Mtl_Comb6.001
0  18.001299 -482.972046 107.999924  -1.000000 0.000003 0.000000  0.437016 0.400320 1 13 1.000000
0  18.001200 -514.023010 107.999916  -1.000000 0.000003 0.000000  0.361578 0.400248 1 13 1.000000
0  18.001299 -482.972046 161.849915  -1.000000 0.000003 0.000000  0.437291 0.599610 1 13 1.000000
Mdl_0_Mtl_Comb6.001
0  18.001299 -482.972046 107.999924  -1.000000 0.000004 0.000000  0.437016 0.400320 1 13 1.000000
0  18.001799 -345.027039 107.999947  -1.000000 0.000004 0.000000  0.787077 0.400320 1 13 1.000000
0  18.001299 -482.972015 35.999920  -1.000000 0.000004 0.000000  0.436718 0.134034 1 13 1.000000
Mdl_0_Mtl_Comb6.001
0  18.001299 -482.972046 107.999924  -1.000000 0.000004 0.000000  0.437016 0.400320 1 13 1.000000
0  18.001299 -482.972046 161.849915  -1.000000 0.000004 0.000000  0.437291 0.599610 1 13 1.000000
0  18.001799 -345.027039 161.849930  -1.000000 0.000004 0.000000  0.786802 0.599610 1 13 1.000000
Mdl_0_Mtl_Comb6.001
0  18.001299 -482.972046 107.999924  -1.000000 0.000004 0.000000  0.437016 0.400320 1 13 1.000000
0  18.001799 -345.027039 161.849930  -1.000000 0.000004 0.000000  0.786802 0.599610 1 13 1.000000
0  18.001799 -345.027039 107.999947  -1.000000 0.000004 0.000000  0.787077 0.400320 1 13 1.000000
Mdl_0_Mtl_Comb6.001
0  18.001200 -514.023010 107.999916  -1.000000 0.000003 0.000000  0.361578 0.400248 1 13 1.000000
0  18.001200 -514.023010 161.849915  -1.000000 0.000003 0.000000  0.361578 0.599610 1 13 1.000000
0  18.001299 -482.972046 161.849915  -1.000000 0.000003 0.000000  0.437291 0.599610 1 13 1.000000
Mdl_0_Mtl_Comb6.001
0  18.001299 -482.972015 35.999920  -1.000000 0.000004 0.000000  0.436718 0.134034 1 13 1.000000
0  18.001799 -345.027039 107.999947  -1.000000 0.000004 0.000000  0.787077 0.400320 1 13 1.000000
0  18.001799 -345.027008 35.999943  -1.000000 0.000004 0.000000  0.787376 0.134034 1 13 1.000000
Mdl_0_Mtl_Comb6.001
0  18.001799 -345.027039 161.849930  -1.000000 0.000004 0.000000  0.786802 0.599610 1 13 1.000000
0  18.001299 -482.972046 161.849915  -1.000000 0.000004 0.000000  0.437291 0.599610 1 13 1.000000
0  18.001299 -482.972046 269.999908  -1.000000 0.000004 0.000000  0.436980 1.000000 1 13 1.000000
Mdl_0_Mtl_Comb6.001
0  18.001799 -345.027039 161.849930  -1.000000 0.000003 0.000000  0.786802 0.599610 1 13 1.000000
0  18.001900 -313.977051 161.849945  -1.000000 0.000003 0.000000  0.862515 0.599610 1 13 1.000000
0  18.001799 -345.027039 107.999947  -1.000000 0.000003 0.000000  0.787077 0.400320 1 13 1.000000
Mdl_0_Mtl_Comb6.001
0  18.001799 -345.027039 161.849930  -1.000000 0.000003 0.000000  0.786802 0.599610 1 13 1.000000
0  18.001799 -345.027039 269.999939  -1.000000 0.000003 0.000000  0.787114 1.000000 1 13 1.000000
0  18.001900 -313.977051 161.849945  -1.000000 0.000003 0.000000  0.862515 0.599610 1 13 1.000000
Mdl_0_Mtl_Comb6.001
0  18.001799 -345.027039 161.849930  -1.000000 0.000004 0.000000  0.786802 0.599610 1 13 1.000000
0  18.001299 -482.972046 269.999908  -1.000000 0.000004 0.000000  0.436980 1.000000 1 13 1.000000
0  18.001799 -345.027039 269.999939  -1.000000 0.000004 0.000000  0.787114 1.000000 1 13 1.000000
Mdl_0_Mtl_Comb6.001
0  18.001200 -514.023010 161.849915  -1.000000 0.000003 0.000000  0.361578 0.599610 1 13 1.000000
0  18.001200 -514.023071 269.999908  -1.000000 0.000003 0.000000  0.361578 1.000000 1 13 1.000000
0  18.001299 -482.972046 161.849915  -1.000000 0.000003 0.000000  0.437291 0.599610 1 13 1.000000
Mdl_0_Mtl_Comb6.001
0  18.001299 -482.972046 161.849915  -1.000000 0.000003 0.000000  0.437291 0.599610 1 13 1.000000
0  18.001200 -514.023071 269.999908  -1.000000 0.000003 0.000000  0.361578 1.000000 1 13 1.000000
0  18.001299 -482.972046 269.999908  -1.000000 0.000003 0.000000  0.436980 1.000000 1 13 1.000000
Mdl_0_Mtl_Comb6.001
0  18.001900 -313.977051 107.999947  -1.000000 0.000003 0.000000  0.862515 0.400248 1 13 1.000000
0  18.001799 -345.027039 107.999947  -1.000000 0.000003 0.000000  0.787077 0.400320 1 13 1.000000
0  18.001900 -313.977051 161.849945  -1.000000 0.000003 0.000000  0.862515 0.599610 1 13 1.000000
Mdl_0_Mtl_Comb6.001
0  18.001799 -345.027008 35.999943  -1.000000 0.000003 0.000000  0.787376 0.134034 1 13 1.000000
0  18.001799 -345.027039 107.999947  -1.000000 0.000003 0.000000  0.787077 0.400320 1 13 1.000000
0  18.001900 -313.977051 107.999947  -1.000000 0.000003 0.000000  0.862515 0.400248 1 13 1.000000
Mdl_0_Mtl_Comb6.001
0  18.001799 -345.027008 35.999943  -1.000000 0.000003 0.000000  0.787376 0.134034 1 13 1.000000
0  18.001900 -313.977051 107.999947  -1.000000 0.000003 0.000000  0.862515 0.400248 1 13 1.000000
0  18.001900 -313.977020 35.999950  -1.000000 0.000003 0.000000  0.862515 0.134034 1 13 1.000000
Mdl_0_Mtl_Comb6.001
0  18.001799 -345.027039 269.999939  -1.000000 0.000003 0.000000  0.787114 1.000000 1 13 1.000000
0  18.001900 -313.977051 269.999939  -1.000000 0.000003 0.000000  0.862515 1.000000 1 13 1.000000
0  18.001900 -313.977051 161.849945  -1.000000 0.000003 0.000000  0.862515 0.599610 1 13 1.000000
Mdl_0_Mtl_Comb6.001
0  36.001099 -534.028015 161.849899  0.000000 -1.000000 0.000000  0.452174 0.599444 1 13 1.000000
0  72.001099 -534.028076 269.999908  0.000000 -1.000000 0.000000  0.547827 1.000000 1 13 1.000000
0  36.001099 -534.028076 269.999908  0.000000 -1.000000 0.000000  0.452174 1.000000 1 13 1.000000
Mdl_0_Mtl_Comb6.001
0  36.001099 -534.028015 161.849899  0.000000 -1.000000 -0.000002  0.452174 0.599444 1 13 1.000000
0  72.001099 -534.028015 161.849899  0.000000 -1.000000 -0.000002  0.547826 0.599444 1 13 1.000000
0  72.001099 -534.028076 269.999908  0.000000 -1.000000 -0.000002  0.547827 1.000000 1 13 1.000000
Mdl_0_Mtl_Comb6.001
0  36.001099 -534.028015 161.849899  0.000000 -1.000000 0.000000  0.452174 0.599444 1 13 1.000000
0  72.001099 -534.028015 107.999916  0.000000 -1.000000 0.000000  0.547827 0.400000 1 13 1.000000
0  72.001099 -534.028015 161.849899  0.000000 -1.000000 0.000000  0.547826 0.599444 1 13 1.000000
Mdl_0_Mtl_Comb6.001
0  36.001099 -534.028015 161.849899  0.000000 -1.000000 0.000000  0.452174 0.599444 1 13 1.000000
0  36.001099 -534.028015 107.999916  0.000000 -1.000000 0.000000  0.452174 0.400000 1 13 1.000000
0  72.001099 -534.028015 107.999916  0.000000 -1.000000 0.000000  0.547827 0.400000 1 13 1.000000
Mdl_0_Mtl_Comb6.001
0  36.001099 -534.028015 107.999916  0.000000 -1.000000 0.000000  0.452174 0.400000 1 13 1.000000
0  72.001099 -534.028015 35.999912  0.000000 -1.000000 0.000000  0.547826 0.133333 1 13 1.000000
0  72.001099 -534.028015 107.999916  0.000000 -1.000000 0.000000  0.547827 0.400000 1 13 1.000000
Mdl_0_Mtl_Comb6.001
0  36.001099 -534.028015 107.999916  0.000000 -1.000000 0.000000  0.452174 0.400000 1 13 1.000000
0  36.001099 -534.028015 35.999912  0.000000 -1.000000 0.000000  0.452174 0.133333 1 13 1.000000
0  72.001099 -534.028015 35.999912  0.000000 -1.000000 0.000000  0.547826 0.133333 1 13 1.000000
Mdl_0_Mtl_Comb6.001
0  72.002007 -293.972046 161.849945  0.000000 1.000000 0.000000  0.547826 0.599444 1 13 1.000000
0  36.002003 -293.972046 269.999939  0.000000 1.000000 0.000000  0.452174 1.000000 1 13 1.000000
0  72.002007 -293.972046 269.999939  0.000000 1.000000 0.000000  0.547827 1.000000 1 13 1.000000
Mdl_0_Mtl_Comb6.001
0  72.002007 -293.972046 161.849945  0.000000 1.000000 0.000000  0.547826 0.599444 1 13 1.000000
0  36.002003 -293.972046 161.849945  0.000000 1.000000 0.000000  0.452174 0.599444 1 13 1.000000
0  36.002003 -293.972046 269.999939  0.000000 1.000000 0.000000  0.452174 1.000000 1 13 1.000000
Mdl_0_Mtl_Comb6.001
0  72.002007 -293.972046 161.849945  0.000000 1.000000 0.000000  0.547826 0.599444 1 13 1.000000
0  36.002003 -293.972046 107.999954  0.000000 1.000000 0.000000  0.452174 0.400000 1 13 1.000000
0  36.002003 -293.972046 161.849945  0.000000 1.000000 0.000000  0.452174 0.599444 1 13 1.000000
Mdl_0_Mtl_Comb6.001
0  72.002007 -293.972046 161.849945  0.000000 1.000000 0.000000  0.547826 0.599444 1 13 1.000000
0  72.002007 -293.972046 107.999954  0.000000 1.000000 0.000000  0.547827 0.400000 1 13 1.000000
0  36.002003 -293.972046 107.999954  0.000000 1.000000 0.000000  0.452174 0.400000 1 13 1.000000
Mdl_0_Mtl_Comb6.001
0  72.002007 -293.972046 107.999954  0.000000 1.000000 0.000000  0.547827 0.400000 1 13 1.000000
0  36.002003 -293.972015 35.999950  0.000000 1.000000 0.000000  0.452174 0.133333 1 13 1.000000
0  36.002003 -293.972046 107.999954  0.000000 1.000000 0.000000  0.452174 0.400000 1 13 1.000000
Mdl_0_Mtl_Comb6.001
0  72.002007 -293.972046 107.999954  0.000000 1.000000 0.000001  0.547827 0.400000 1 13 1.000000
0  72.002007 -293.972015 35.999950  0.000000 1.000000 0.000001  0.547826 0.133333 1 13 1.000000
0  36.002003 -293.972015 35.999950  0.000000 1.000000 0.000001  0.452174 0.133333 1 13 1.000000
Mdl_0_Mtl_Comb6.001
0  162.000000 -36.000019 107.999992  0.000000 -1.000000 0.000000  0.909091 0.400000 1 8 1.000000
0  -162.000000 -36.000015 89.999992  0.000000 -1.000000 0.000000  0.090909 0.333333 1 8 1.000000
0  162.000000 -36.000015 89.999992  0.000000 -1.000000 0.000000  0.909091 0.333333 1 8 1.000000
Mdl_0_Mtl_Comb6.001
0  162.000000 -36.000019 107.999992  0.000000 -1.000000 -0.000000  0.909091 0.400000 1 8 1.000000
0  -162.000000 -36.000019 107.999992  0.000000 -1.000000 -0.000000  0.090909 0.400000 1 8 1.000000
0  -162.000000 -36.000015 89.999992  0.000000 -1.000000 -0.000000  0.090909 0.333333 1 8 1.000000
Mdl_0_Mtl_Comb6.001
0  162.000000 -36.000019 107.999992  0.000000 -1.000000 0.000000  0.909091 0.400000 1 8 1.000000
0  162.000000 -36.000015 89.999992  0.000000 -1.000000 0.000000  0.909091 0.333333 1 8 1.000000
0  180.000000 -36.000015 89.999992  0.000000 -1.000000 0.000000  0.954545 0.333333 1 8 1.000000
Mdl_0_Mtl_Comb6.001
0  162.000000 -36.000019 107.999992  0.000000 -1.000000 -0.000000  0.909091 0.400000 1 8 1.000000
0  -162.000000 -36.000031 180.000000  0.000000 -1.000000 -0.000000  0.090909 0.666667 1 8 1.000000
0  -162.000000 -36.000019 107.999992  0.000000 -1.000000 -0.000000  0.090909 0.400000 1 8 1.000000
Mdl_0_Mtl_Comb6.001
0  162.000000 -36.000019 107.999992  0.000000 -1.000000 -0.000001  0.909091 0.400000 1 8 1.000000
0  180.000000 -36.000015 89.999992  0.000000 -1.000000 -0.000001  0.954545 0.333333 1 8 1.000000
0  180.000000 -36.000019 107.999992  0.000000 -1.000000 -0.000001  0.954546 0.400000 1 8 1.000000
Mdl_0_Mtl_Comb6.001
0  162.000000 -36.000019 107.999992  0.000000 -1.000000 -0.000000  0.909091 0.400000 1 8 1.000000
0  162.000000 -36.000031 180.000000  0.000000 -1.000000 -0.000000  0.909091 0.666667 1 8 1.000000
0  -162.000000 -36.000031 180.000000  0.000000 -1.000000 -0.000000  0.090909 0.666667 1 8 1.000000
Mdl_0_Mtl_Comb6.001
0  162.000000 -36.000019 107.999992  0.000000 -1.000000 -0.000000  0.909091 0.400000 1 8 1.000000
0  180.000000 -36.000019 107.999992  0.000000 -1.000000 -0.000000  0.954546 0.400000 1 8 1.000000
0  162.000000 -36.000031 180.000000  0.000000 -1.000000 -0.000000  0.909091 0.666667 1 8 1.000000
Mdl_0_Mtl_Comb6.001
0  -162.000000 -36.000015 89.999992  0.000000 -1.000000 -0.000000  0.090909 0.333333 1 8 1.000000
0  -162.000000 -36.000008 35.999992  0.000000 -1.000000 -0.000000  0.090909 0.133333 1 8 1.000000
0  162.000000 -36.000015 89.999992  0.000000 -1.000000 -0.000000  0.909091 0.333333 1 8 1.000000
Mdl_0_Mtl_Comb6.001
0  -162.000000 -36.000015 89.999992  0.000000 -1.000000 0.000000  0.090909 0.333333 1 8 1.000000
0  -162.000000 -36.000019 107.999992  0.000000 -1.000000 0.000000  0.090909 0.400000 1 8 1.000000
0  -180.000000 -36.000015 89.999992  0.000000 -1.000000 0.000000  0.045454 0.333333 1 8 1.000000
Mdl_0_Mtl_Comb6.001
0  -162.000000 -36.000015 89.999992  0.000000 -1.000000 -0.000000  0.090909 0.333333 1 8 1.000000
0  -180.000000 -36.000015 89.999992  0.000000 -1.000000 -0.000000  0.045454 0.333333 1 8 1.000000
0  -180.000000 -36.000008 35.999992  0.000000 -1.000000 -0.000000  0.045454 0.133333 1 8 1.000000
Mdl_0_Mtl_Comb6.001
0  -162.000000 -36.000015 89.999992  0.000000 -1.000000 -0.000000  0.090909 0.333333 1 8 1.000000
0  -180.000000 -36.000008 35.999992  0.000000 -1.000000 -0.000000  0.045454 0.133333 1 8 1.000000
0  -162.000000 -36.000008 35.999992  0.000000 -1.000000 -0.000000  0.090909 0.133333 1 8 1.000000
Mdl_0_Mtl_Comb6.001
0  180.000000 -36.000015 89.999992  0.000000 -1.000000 -0.000000  0.954545 0.333333 1 8 1.000000
0  162.000000 -36.000015 89.999992  0.000000 -1.000000 -0.000000  0.909091 0.333333 1 8 1.000000
0  180.000000 -36.000008 35.999992  0.000000 -1.000000 -0.000000  0.954545 0.133333 1 8 1.000000
Mdl_0_Mtl_Comb6.001
0  -162.000000 -36.000031 180.000000  0.000000 -1.000000 0.000000  0.090909 0.666667 1 8 1.000000
0  162.000000 -36.000031 180.000000  0.000000 -1.000000 0.000000  0.909091 0.666667 1 8 1.000000
0  -162.000000 -36.000031 198.000000  0.000000 -1.000000 0.000000  0.090909 0.733334 1 8 1.000000
Mdl_0_Mtl_Comb6.001
0  -162.000000 -36.000031 180.000000  0.000000 -1.000000 -0.000000  0.090909 0.666667 1 8 1.000000
0  -180.000000 -36.000031 180.000000  0.000000 -1.000000 -0.000000  0.045454 0.666667 1 8 1.000000
0  -162.000000 -36.000019 107.999992  0.000000 -1.000000 -0.000000  0.090909 0.400000 1 8 1.000000
Mdl_0_Mtl_Comb6.001
0  -162.000000 -36.000031 180.000000  0.000000 -1.000000 0.000000  0.090909 0.666667 1 8 1.000000
0  -162.000000 -36.000031 198.000000  0.000000 -1.000000 0.000000  0.090909 0.733334 1 8 1.000000
0  -180.000000 -36.000031 198.000000  0.000000 -1.000000 0.000000  0.045454 0.733333 1 8 1.000000
Mdl_0_Mtl_Comb6.001
0  -162.000000 -36.000031 180.000000  0.000000 -1.000000 0.000000  0.090909 0.666667 1 8 1.000000
0  -180.000000 -36.000031 198.000000  0.000000 -1.000000 0.000000  0.045454 0.733333 1 8 1.000000
0  -180.000000 -36.000031 180.000000  0.000000 -1.000000 0.000000  0.045454 0.666667 1 8 1.000000
Mdl_0_Mtl_Comb6.001
0  180.000000 -36.000019 107.999992  0.000000 -1.000000 -0.000000  0.954546 0.400000 1 8 1.000000
0  180.000000 -36.000031 180.000000  0.000000 -1.000000 -0.000000  0.954545 0.666667 1 8 1.000000
0  162.000000 -36.000031 180.000000  0.000000 -1.000000 -0.000000  0.909091 0.666667 1 8 1.000000
Mdl_0_Mtl_Comb6.001
0  -162.000000 -36.000008 35.999992  0.000000 -1.000000 -0.000000  0.090909 0.133333 1 8 1.000000
0  162.000000 -36.000008 35.999992  0.000000 -1.000000 -0.000000  0.909091 0.133333 1 8 1.000000
0  162.000000 -36.000015 89.999992  0.000000 -1.000000 -0.000000  0.909091 0.333333 1 8 1.000000
Mdl_0_Mtl_Comb6.001
0  162.000000 -36.000015 89.999992  0.000000 -1.000000 -0.000000  0.909091 0.333333 1 8 1.000000
0  162.000000 -36.000008 35.999992  0.000000 -1.000000 -0.000000  0.909091 0.133333 1 8 1.000000
0  180.000000 -36.000008 35.999992  0.000000 -1.000000 -0.000000  0.954545 0.133333 1 8 1.000000
Mdl_0_Mtl_Comb6.001
0  -180.000000 -36.000015 89.999992  0.000000 -1.000000 -0.000001  0.045454 0.333333 1 8 1.000000
0  -162.000000 -36.000019 107.999992  0.000000 -1.000000 -0.000001  0.090909 0.400000 1 8 1.000000
0  -180.000000 -36.000019 107.999992  0.000000 -1.000000 -0.000001  0.045454 0.400000 1 8 1.000000
Mdl_0_Mtl_Comb6.001
0  -180.000000 -36.000019 107.999992  0.000000 -1.000000 -0.000000  0.045454 0.400000 1 8 1.000000
0  -162.000000 -36.000019 107.999992  0.000000 -1.000000 -0.000000  0.090909 0.400000 1 8 1.000000
0  -180.000000 -36.000031 180.000000  0.000000 -1.000000 -0.000000  0.045454 0.666667 1 8 1.000000
Mdl_0_Mtl_Comb6.001
0  -162.000000 -36.000031 198.000000  0.000000 -1.000000 -0.000000  0.090909 0.733334 1 8 1.000000
0  -162.000000 -36.000046 270.000000  0.000000 -1.000000 -0.000000  0.090909 1.000000 1 8 1.000000
0  -180.000000 -36.000031 198.000000  0.000000 -1.000000 -0.000000  0.045454 0.733333 1 8 1.000000
Mdl_0_Mtl_Comb6.001
0  162.000000 -36.000031 180.000000  0.000000 -1.000000 0.000000  0.909091 0.666667 1 8 1.000000
0  180.000000 -36.000031 180.000000  0.000000 -1.000000 0.000000  0.954545 0.666667 1 8 1.000000
0  162.000000 -36.000031 198.000000  0.000000 -1.000000 0.000000  0.909091 0.733333 1 8 1.000000
Mdl_0_Mtl_Comb6.001
0  -162.000000 -36.000031 198.000000  0.000000 -1.000000 0.000000  0.090909 0.733334 1 8 1.000000
0  162.000000 -36.000031 180.000000  0.000000 -1.000000 0.000000  0.909091 0.666667 1 8 1.000000
0  162.000000 -36.000031 198.000000  0.000000 -1.000000 0.000000  0.909091 0.733333 1 8 1.000000
Mdl_0_Mtl_Comb6.001
0  -162.000000 -36.000031 198.000000  0.000000 -1.000000 -0.000000  0.090909 0.733334 1 8 1.000000
0  162.000000 -36.000031 198.000000  0.000000 -1.000000 -0.000000  0.909091 0.733333 1 8 1.000000
0  162.000000 -36.000046 270.000000  0.000000 -1.000000 -0.000000  0.909091 1.000000 1 8 1.000000
Mdl_0_Mtl_Comb6.001
0  -162.000000 -36.000031 198.000000  0.000000 -1.000000 -0.000000  0.090909 0.733334 1 8 1.000000
0  162.000000 -36.000046 270.000000  0.000000 -1.000000 -0.000000  0.909091 1.000000 1 8 1.000000
0  -162.000000 -36.000046 270.000000  0.000000 -1.000000 -0.000000  0.090909 1.000000 1 8 1.000000
Mdl_0_Mtl_Comb6.001
0  -180.000000 -36.000031 198.000000  0.000000 -1.000000 -0.000000  0.045454 0.733333 1 8 1.000000
0  -162.000000 -36.000046 270.000000  0.000000 -1.000000 -0.000000  0.090909 1.000000 1 8 1.000000
0  -180.000000 -36.000046 270.000000  0.000000 -1.000000 -0.000000  0.045454 1.000000 1 8 1.000000
Mdl_0_Mtl_Comb6.001
0  162.000000 -36.000046 270.000000  0.000000 -1.000000 -0.000000  0.909091 1.000000 1 8 1.000000
0  162.000000 -36.000031 198.000000  0.000000 -1.000000 -0.000000  0.909091 0.733333 1 8 1.000000
0  180.000000 -36.000046 270.000000  0.000000 -1.000000 -0.000000  0.954545 1.000000 1 8 1.000000
Mdl_0_Mtl_Comb6.001
0  162.000000 -36.000031 198.000000  0.000000 -1.000000 -0.000000  0.909091 0.733333 1 8 1.000000
0  180.000000 -36.000031 198.000000  0.000000 -1.000000 -0.000000  0.954545 0.733333 1 8 1.000000
0  180.000000 -36.000046 270.000000  0.000000 -1.000000 -0.000000  0.954545 1.000000 1 8 1.000000
Mdl_0_Mtl_Comb6.001
0  180.000000 -36.000031 180.000000  0.000000 -1.000000 0.000000  0.954545 0.666667 1 8 1.000000
0  180.000000 -36.000031 198.000000  0.000000 -1.000000 0.000000  0.954545 0.733333 1 8 1.000000
0  162.000000 -36.000031 198.000000  0.000000 -1.000000 0.000000  0.909091 0.733333 1 8 1.000000
Mdl_0_Mtl_Comb6.001
0  198.000000 -18.000114 90.000000  1.000000 0.000000 0.000000  0.463089 0.333333 1 8 1.000000
0  198.000000 -18.000105 35.999996  1.000000 0.000000 0.000000  0.463088 0.133333 1 8 1.000000
0  198.000000 17.999884 90.000000  1.000000 0.000000 0.000000  0.536911 0.333333 1 8 1.000000
Mdl_0_Mtl_Comb6.001
0  198.000000 -18.000114 90.000000  1.000000 0.000000 0.000000  0.463089 0.333333 1 8 1.000000
0  198.000000 17.999884 90.000000  1.000000 0.000000 0.000000  0.536911 0.333333 1 8 1.000000
0  198.000000 17.999882 108.000000  1.000000 0.000000 0.000000  0.536912 0.400001 1 8 1.000000
Mdl_0_Mtl_Comb6.001
0  198.000000 -18.000114 90.000000  1.000000 0.000000 0.000000  0.463089 0.333333 1 8 1.000000
0  198.000000 17.999882 108.000000  1.000000 0.000000 0.000000  0.536912 0.400001 1 8 1.000000
0  198.000000 -18.000116 108.000000  1.000000 0.000000 0.000000  0.463089 0.400000 1 8 1.000000
Mdl_0_Mtl_Comb6.001
0  198.000000 -18.000105 35.999996  1.000000 0.000000 0.000000  0.463088 0.133333 1 8 1.000000
0  198.000000 17.999893 36.000004  1.000000 0.000000 0.000000  0.536912 0.133333 1 8 1.000000
0  198.000000 17.999884 90.000000  1.000000 0.000000 0.000000  0.536911 0.333333 1 8 1.000000
Mdl_0_Mtl_Comb6.001
0  198.000000 17.999882 108.000000  1.000000 0.000000 0.000000  0.536912 0.400001 1 8 1.000000
0  198.000000 17.999870 180.000000  1.000000 0.000000 0.000000  0.536912 0.666667 1 8 1.000000
0  198.000000 -18.000116 108.000000  1.000000 0.000000 0.000000  0.463089 0.400000 1 8 1.000000
Mdl_0_Mtl_Comb6.001
0  198.000000 17.999870 180.000000  1.000000 0.000000 0.000000  0.536912 0.666667 1 8 1.000000
0  198.000000 -18.000128 180.000000  1.000000 0.000000 0.000000  0.463089 0.666667 1 8 1.000000
0  198.000000 -18.000116 108.000000  1.000000 0.000000 0.000000  0.463089 0.400000 1 8 1.000000
Mdl_0_Mtl_Comb6.001
0  198.000000 17.999870 180.000000  1.000000 0.000000 0.000000  0.536912 0.666667 1 8 1.000000
0  198.000000 17.999866 198.000000  1.000000 0.000000 0.000000  0.536912 0.733334 1 8 1.000000
0  198.000000 -18.000128 180.000000  1.000000 0.000000 0.000000  0.463089 0.666667 1 8 1.000000
Mdl_0_Mtl_Comb6.001
0  198.000000 17.999866 198.000000  1.000000 0.000000 0.000000  0.536912 0.733334 1 8 1.000000
0  198.000000 -18.000132 198.000000  1.000000 0.000000 0.000000  0.463089 0.733333 1 8 1.000000
0  198.000000 -18.000128 180.000000  1.000000 0.000000 0.000000  0.463089 0.666667 1 8 1.000000
Mdl_0_Mtl_Comb6.001
0  198.000000 17.999866 198.000000  1.000000 0.000000 0.000000  0.536912 0.733334 1 8 1.000000
0  198.000000 17.999855 270.000000  1.000000 0.000000 0.000000  0.536912 1.000000 1 8 1.000000
0  198.000000 -18.000132 198.000000  1.000000 0.000000 0.000000  0.463089 0.733333 1 8 1.000000
Mdl_0_Mtl_Comb6.001
0  198.000000 17.999855 270.000000  1.000000 0.000000 0.000000  0.536912 1.000000 1 8 1.000000
0  198.000000 -18.000143 270.000000  1.000000 0.000000 0.000000  0.463089 1.000000 1 8 1.000000
0  198.000000 -18.000132 198.000000  1.000000 0.000000 0.000000  0.463089 0.733333 1 8 1.000000
Mdl_0_Mtl_Comb6.001
0  -198.000000 17.999985 90.000000  -1.000000 0.000000 0.000000  0.536911 0.333333 1 8 1.000000
0  -198.000000 17.999994 36.000004  -1.000000 0.000000 0.000000  0.536912 0.133333 1 8 1.000000
0  -198.000000 -18.000015 90.000000  -1.000000 0.000000 0.000000  0.463089 0.333333 1 8 1.000000
Mdl_0_Mtl_Comb6.001
0  -198.000000 17.999985 90.000000  -1.000000 0.000000 0.000000  0.536911 0.333333 1 8 1.000000
0  -198.000000 -18.000015 90.000000  -1.000000 0.000000 0.000000  0.463089 0.333333 1 8 1.000000
0  -198.000000 -18.000017 108.000000  -1.000000 0.000000 0.000000  0.463089 0.400000 1 8 1.000000
Mdl_0_Mtl_Comb6.001
0  -198.000000 17.999985 90.000000  -1.000000 0.000000 0.000000  0.536911 0.333333 1 8 1.000000
0  -198.000000 -18.000017 108.000000  -1.000000 0.000000 0.000000  0.463089 0.400000 1 8 1.000000
0  -198.000000 17.999983 108.000000  -1.000000 0.000000 0.000000  0.536912 0.400001 1 8 1.000000
Mdl_0_Mtl_Comb6.001
0  -198.000000 17.999994 36.000004  -1.000000 0.000000 0.000000  0.536912 0.133333 1 8 1.000000
0  -198.000000 -18.000006 35.999996  -1.000000 0.000000 0.000000  0.463088 0.133333 1 8 1.000000
0  -198.000000 -18.000015 90.000000  -1.000000 0.000000 0.000000  0.463089 0.333333 1 8 1.000000
Mdl_0_Mtl_Comb6.001
0  -198.000000 -18.000017 108.000000  -1.000000 0.000000 0.000000  0.463089 0.400000 1 8 1.000000
0  -198.000000 -18.000029 180.000000  -1.000000 0.000000 0.000000  0.463089 0.666667 1 8 1.000000
0  -198.000000 17.999983 108.000000  -1.000000 0.000000 0.000000  0.536912 0.400001 1 8 1.000000
Mdl_0_Mtl_Comb6.001
0  -198.000000 -18.000029 180.000000  -1.000000 0.000000 0.000000  0.463089 0.666667 1 8 1.000000
0  -198.000000 17.999971 180.000000  -1.000000 0.000000 0.000000  0.536912 0.666667 1 8 1.000000
0  -198.000000 17.999983 108.000000  -1.000000 0.000000 0.000000  0.536912 0.400001 1 8 1.000000
Mdl_0_Mtl_Comb6.001
0  -198.000000 -18.000029 180.000000  -1.000000 0.000000 0.000000  0.463089 0.666667 1 8 1.000000
0  -198.000000 -18.000032 198.000000  -1.000000 0.000000 0.000000  0.463089 0.733333 1 8 1.000000
0  -198.000000 17.999971 180.000000  -1.000000 0.000000 0.000000  0.536912 0.666667 1 8 1.000000
Mdl_0_Mtl_Comb6.001
0  -198.000000 -18.000032 198.000000  -1.000000 0.000000 0.000000  0.463089 0.733333 1 8 1.000000
0  -198.000000 17.999968 198.000000  -1.000000 0.000000 0.000000  0.536912 0.733334 1 8 1.000000
0  -198.000000 17.999971 180.000000  -1.000000 0.000000 0.000000  0.536912 0.666667 1 8 1.000000
Mdl_0_Mtl_Comb6.001
0  -198.000000 -18.000032 198.000000  -1.000000 0.000000 0.000000  0.463089 0.733333 1 8 1.000000
0  -198.000000 -18.000044 270.000000  -1.000000 0.000000 0.000000  0.463089 1.000000 1 8 1.000000
0  -198.000000 17.999968 198.000000  -1.000000 0.000000 0.000000  0.536912 0.733334 1 8 1.000000
Mdl_0_Mtl_Comb6.001
0  -198.000000 -18.000044 270.000000  -1.000000 0.000000 0.000000  0.463089 1.000000 1 8 1.000000
0  -198.000000 17.999956 270.000000  -1.000000 0.000000 0.000000  0.536912 1.000000 1 8 1.000000
0  -198.000000 17.999968 198.000000  -1.000000 0.000000 0.000000  0.536912 0.733334 1 8 1.000000
Mdl_0_Mtl_Comb4.001
0  0.000000 -40.033230 198.704010  0.000000 -1.000000 0.000000  -1.031250 0.742188 1 7 1.000000
0  -20.161400 -40.033230 198.704010  0.000000 -1.000000 0.000000  -1.968750 0.742188 1 7 1.000000
0  -20.161400 -40.033230 184.123016  0.000000 -1.000000 0.000000  -1.968750 0.507813 1 7 1.000000
Mdl_0_Mtl_Comb4.001
0  0.000000 -40.033230 198.704010  0.000000 -1.000000 0.000000  -1.031250 0.742188 1 7 1.000000
0  -20.161400 -40.033230 184.123016  0.000000 -1.000000 0.000000  -1.968750 0.507813 1 7 1.000000
0  0.000000 -40.033230 184.123016  0.000000 -1.000000 0.000000  -1.031250 0.507813 1 7 1.000000
Mdl_0_Mtl_Comb4.001
0  0.000000 -40.033230 198.704010  0.000000 -1.000000 0.000000  -1.031250 0.742188 1 7 1.000000
0  0.000000 -40.033230 184.123016  0.000000 -1.000000 0.000000  -1.031250 0.507813 1 7 1.000000
0  20.161400 -40.033230 198.704010  0.000000 -1.000000 0.000000  -1.968750 0.742188 1 7 1.000000
Mdl_0_Mtl_Comb4.001
0  0.000000 -40.033230 184.123016  0.000000 -1.000000 0.000000  -1.031250 0.507813 1 7 1.000000
0  20.161400 -40.033230 184.123016  0.000000 -1.000000 0.000000  -1.968750 0.507813 1 7 1.000000
0  20.161400 -40.033230 198.704010  0.000000 -1.000000 0.000000  -1.968750 0.742188 1 7 1.000000
Mdl_0_Mtl_Comb4.001
0  -20.161400 -40.033230 184.123016  0.000000 0.000000 -1.000000  0.000000 0.757813 1 7 1.000000
0  -160.592010 -40.033230 184.123016  0.000000 0.000000 -1.000000  0.000000 0.757813 1 7 1.000000
0  -20.161400 -39.346928 184.123016  0.000000 0.000000 -1.000000  0.000000 0.757813 1 7 1.000000
Mdl_0_Mtl_Comb4.001
0  -20.161400 -40.033230 184.123016  0.000000 0.000000 -1.000000  0.000000 0.757813 1 7 1.000000
0  -20.161400 -39.346928 184.123016  0.000000 0.000000 -1.000000  0.000000 0.757813 1 7 1.000000
0  0.000000 -39.346928 184.123016  0.000000 0.000000 -1.000000  0.000000 0.757813 1 7 1.000000
Mdl_0_Mtl_Comb4.001
0  -20.161400 -40.033230 184.123016  0.000000 0.000000 -1.000000  0.000000 0.757813 1 7 1.000000
0  0.000000 -39.346928 184.123016  0.000000 0.000000 -1.000000  0.000000 0.757813 1 7 1.000000
0  0.000000 -40.033230 184.123016  0.000000 0.000000 -1.000000  0.000000 0.757813 1 7 1.000000
Mdl_0_Mtl_Comb4.001
0  -160.592010 -40.033230 184.123016  0.000000 0.000000 -1.000000  0.000000 0.757813 1 7 1.000000
0  -160.592010 -39.346928 184.123016  0.000000 0.000000 -1.000000  0.000000 0.757813 1 7 1.000000
0  -20.161400 -39.346928 184.123016  0.000000 0.000000 -1.000000  0.000000 0.757813 1 7 1.000000
Mdl_0_Mtl_Comb4.001
0  0.000000 -39.346928 184.123016  0.000000 0.000000 -1.000000  0.000000 0.757813 1 7 1.000000
0  20.161400 -39.346928 184.123016  0.000000 0.000000 -1.000000  0.000000 0.757813 1 7 1.000000
0  0.000000 -40.033230 184.123016  0.000000 0.000000 -1.000000  0.000000 0.757813 1 7 1.000000
Mdl_0_Mtl_Comb4.001
0  20.161400 -39.346928 184.123016  0.000000 0.000000 -1.000000  0.000000 0.757813 1 7 1.000000
0  20.161400 -40.033230 184.123016  0.000000 0.000000 -1.000000  0.000000 0.757813 1 7 1.000000
0  0.000000 -40.033230 184.123016  0.000000 0.000000 -1.000000  0.000000 0.757813 1 7 1.000000
Mdl_0_Mtl_Comb4.001
0  20.161400 -39.346928 184.123016  0.000000 0.000000 -1.000000  0.000000 0.757813 1 7 1.000000
0  160.592010 -39.346928 184.123016  0.000000 0.000000 -1.000000  0.000000 0.757813 1 7 1.000000
0  20.161400 -40.033230 184.123016  0.000000 0.000000 -1.000000  0.000000 0.757813 1 7 1.000000
Mdl_0_Mtl_Comb4.001
0  160.592010 -39.346928 184.123016  0.000000 0.000000 -1.000000  0.000000 0.757813 1 7 1.000000
0  160.592010 -40.033230 184.123016  0.000000 0.000000 -1.000000  0.000000 0.757813 1 7 1.000000
0  20.161400 -40.033230 184.123016  0.000000 0.000000 -1.000000  0.000000 0.757813 1 7 1.000000
Mdl_0_Mtl_Comb4.001
0  160.592010 -40.033218 118.702995  0.000000 -1.000000 -0.000001  0.031250 0.257813 1 7 1.000000
0  160.592010 -40.033215 104.121994  0.000000 -1.000000 -0.000001  0.031250 0.492188 1 7 1.000000
0  175.376007 -40.033215 104.121994  0.000000 -1.000000 -0.000001  0.968750 0.492188 1 7 1.000000
Mdl_0_Mtl_Comb4.001
0  160.592010 -40.033218 118.702995  0.000000 -1.000000 0.000000  0.031250 0.257813 1 7 1.000000
0  175.376007 -40.033215 104.121994  0.000000 -1.000000 0.000000  0.968750 0.492188 1 7 1.000000
0  175.376007 -40.033218 118.702995  0.000000 -1.000000 0.000000  0.968750 0.257813 1 7 1.000000
Mdl_0_Mtl_Comb4.001
0  -160.592010 -40.033218 118.702995  0.000000 -1.000000 0.000000  0.031250 0.257813 1 7 1.000000
0  -175.376007 -40.033218 118.702995  0.000000 -1.000000 0.000000  0.968750 0.257813 1 7 1.000000
0  -175.376007 -40.033215 104.121994  0.000000 -1.000000 0.000000  0.968750 0.492188 1 7 1.000000
Mdl_0_Mtl_Comb4.001
0  -160.592010 -40.033218 118.702995  0.000000 -1.000000 -0.000001  0.031250 0.257813 1 7 1.000000
0  -175.376007 -40.033215 104.121994  0.000000 -1.000000 -0.000001  0.968750 0.492188 1 7 1.000000
0  -160.592010 -40.033215 104.121994  0.000000 -1.000000 -0.000001  0.031250 0.492188 1 7 1.000000
Mdl_0_Mtl_Comb4.001
0  160.592010 -40.033230 184.123016  0.000000 -1.000000 0.000000  0.031250 0.257813 1 7 1.000000
0  175.376007 -40.033230 184.123016  0.000000 -1.000000 0.000000  0.968750 0.257813 1 7 1.000000
0  175.376007 -40.033230 198.704010  0.000000 -1.000000 0.000000  0.968750 0.492188 1 7 1.000000
Mdl_0_Mtl_Comb4.001
0  160.592010 -40.033230 184.123016  0.000000 -1.000000 0.000000  0.031250 0.257813 1 7 1.000000
0  175.376007 -40.033230 198.704010  0.000000 -1.000000 0.000000  0.968750 0.492188 1 7 1.000000
0  160.592010 -40.033230 198.704010  0.000000 -1.000000 0.000000  0.031250 0.492188 1 7 1.000000
Mdl_0_Mtl_Comb4.001
0  -160.592010 -40.033230 184.123016  0.000000 -1.000000 0.000000  0.031250 0.257813 1 7 1.000000
0  -160.592010 -40.033230 198.704010  0.000000 -1.000000 0.000000  0.031250 0.492188 1 7 1.000000
0  -175.376007 -40.033230 198.704010  0.000000 -1.000000 0.000000  0.968750 0.492188 1 7 1.000000
Mdl_0_Mtl_Comb4.001
0  -160.592010 -40.033230 184.123016  0.000000 -1.000000 0.000000  0.031250 0.257813 1 7 1.000000
0  -175.376007 -40.033230 198.704010  0.000000 -1.000000 0.000000  0.968750 0.492188 1 7 1.000000
0  -175.376007 -40.033230 184.123016  0.000000 -1.000000 0.000000  0.968750 0.257813 1 7 1.000000
Mdl_0_Mtl_Comb4.001
0  -20.161400 -40.033230 184.123016  0.000000 -1.000000 0.000000  0.000000 0.757813 1 7 1.000000
0  -160.592010 -40.033230 198.704010  0.000000 -1.000000 0.000000  -8.000000 0.992188 1 7 1.000000
0  -160.592010 -40.033230 184.123016  0.000000 -1.000000 0.000000  -8.000000 0.757813 1 7 1.000000
Mdl_0_Mtl_Comb4.001
0  -20.161400 -40.033230 184.123016  0.000000 -1.000000 0.000000  0.000000 0.757813 1 7 1.000000
0  -20.161400 -40.033230 198.704010  0.000000 -1.000000 0.000000  0.000000 0.992188 1 7 1.000000
0  -160.592010 -40.033230 198.704010  0.000000 -1.000000 0.000000  -8.000000 0.992188 1 7 1.000000
Mdl_0_Mtl_Comb4.001
0  -160.592010 -40.033230 184.123016  0.000000 -1.000000 -0.000000  0.000000 0.757813 1 7 1.000000
0  -175.376007 -40.033218 118.702995  0.000000 -1.000000 -0.000000  -4.000000 0.992188 1 7 1.000000
0  -160.592010 -40.033218 118.702995  0.000000 -1.000000 -0.000000  -4.000000 0.757813 1 7 1.000000
Mdl_0_Mtl_Comb4.001
0  -160.592010 -40.033230 184.123016  0.000000 -1.000000 -0.000000  0.000000 0.757813 1 7 1.000000
0  -175.376007 -40.033230 184.123016  0.000000 -1.000000 -0.000000  0.000000 0.992188 1 7 1.000000
0  -175.376007 -40.033218 118.702995  0.000000 -1.000000 -0.000000  -4.000000 0.992188 1 7 1.000000
Mdl_0_Mtl_Comb4.001
0  160.592010 -40.033218 118.702995  0.000000 -1.000000 -0.000000  -4.000000 0.757813 1 7 1.000000
0  175.376007 -40.033230 184.123016  0.000000 -1.000000 -0.000000  0.000000 0.992188 1 7 1.000000
0  160.592010 -40.033230 184.123016  0.000000 -1.000000 -0.000000  0.000000 0.757813 1 7 1.000000
Mdl_0_Mtl_Comb4.001
0  160.592010 -40.033218 118.702995  0.000000 -1.000000 -0.000000  -4.000000 0.757813 1 7 1.000000
0  175.376007 -40.033218 118.702995  0.000000 -1.000000 -0.000000  -4.000000 0.992188 1 7 1.000000
0  175.376007 -40.033230 184.123016  0.000000 -1.000000 -0.000000  0.000000 0.992188 1 7 1.000000
Mdl_0_Mtl_Comb4.001
0  160.592010 -40.033215 104.121994  0.000000 -1.000000 -0.000000  0.000000 0.992188 1 7 1.000000
0  -160.592010 -40.033218 118.702995  0.000000 -1.000000 -0.000000  -17.000000 0.757813 1 7 1.000000
0  -160.592010 -40.033215 104.121994  0.000000 -1.000000 -0.000000  -17.000000 0.992188 1 7 1.000000
Mdl_0_Mtl_Comb4.001
0  160.592010 -40.033215 104.121994  0.000000 -1.000000 0.000000  0.000000 0.992188 1 7 1.000000
0  160.592010 -40.033218 118.702995  0.000000 -1.000000 0.000000  0.000000 0.757813 1 7 1.000000
0  -160.592010 -40.033218 118.702995  0.000000 -1.000000 0.000000  -17.000000 0.757813 1 7 1.000000
Mdl_0_Mtl_Comb4.001
0  20.161400 -40.033230 184.123016  0.000000 -1.000000 0.000000  0.000000 0.757813 1 7 1.000000
0  160.592010 -40.033230 198.704010  0.000000 -1.000000 0.000000  -8.000000 0.992188 1 7 1.000000
0  20.161400 -40.033230 198.704010  0.000000 -1.000000 0.000000  0.000000 0.992188 1 7 1.000000
Mdl_0_Mtl_Comb4.001
0  20.161400 -40.033230 184.123016  0.000000 -1.000000 0.000000  0.000000 0.757813 1 7 1.000000
0  160.592010 -40.033230 184.123016  0.000000 -1.000000 0.000000  -8.000000 0.757813 1 7 1.000000
0  160.592010 -40.033230 198.704010  0.000000 -1.000000 0.000000  -8.000000 0.992188 1 7 1.000000
Mdl_0_Mtl_Comb4.001
0  160.592010 -40.033218 118.702995  0.000000 0.000000 1.000000  0.000000 0.757813 1 7 1.000000
0  -160.592010 -39.346916 118.702995  0.000000 0.000000 1.000000  0.000000 0.757813 1 7 1.000000
0  -160.592010 -40.033218 118.702995  0.000000 0.000000 1.000000  0.000000 0.757813 1 7 1.000000
Mdl_0_Mtl_Comb4.001
0  160.592010 -40.033218 118.702995  0.000000 0.000000 1.000000  0.000000 0.757813 1 7 1.000000
0  160.592010 -39.346916 118.702995  0.000000 0.000000 1.000000  0.000000 0.757813 1 7 1.000000
0  -160.592010 -39.346916 118.702995  0.000000 0.000000 1.000000  0.000000 0.757813 1 7 1.000000
Mdl_0_Mtl_Comb4.001
0  -160.592010 -40.033218 118.702995  1.000000 0.000000 0.000000  0.000000 0.757813 1 7 1.000000
0  -160.592010 -39.346928 184.123016  1.000000 0.000000 0.000000  0.000000 0.757813 1 7 1.000000
0  -160.592010 -40.033230 184.123016  1.000000 0.000000 0.000000  0.000000 0.757813 1 7 1.000000
Mdl_0_Mtl_Comb4.001
0  -160.592010 -40.033218 118.702995  1.000000 0.000000 0.000000  0.000000 0.757813 1 7 1.000000
0  -160.592010 -39.346916 118.702995  1.000000 0.000000 0.000000  0.000000 0.757813 1 7 1.000000
0  -160.592010 -39.346928 184.123016  1.000000 0.000000 0.000000  0.000000 0.757813 1 7 1.000000
Mdl_0_Mtl_Comb4.001
0  160.592010 -40.033230 184.123016  -1.000000 0.000000 0.000000  0.000000 0.757813 1 7 1.000000
0  160.592010 -39.346916 118.702995  -1.000000 0.000000 0.000000  0.000000 0.757813 1 7 1.000000
0  160.592010 -40.033218 118.702995  -1.000000 0.000000 0.000000  0.000000 0.757813 1 7 1.000000
Mdl_0_Mtl_Comb4.001
0  160.592010 -40.033230 184.123016  -1.000000 0.000000 0.000000  0.000000 0.757813 1 7 1.000000
0  160.592010 -39.346928 184.123016  -1.000000 0.000000 0.000000  0.000000 0.757813 1 7 1.000000
0  160.592010 -39.346916 118.702995  -1.000000 0.000000 0.000000  0.000000 0.757813 1 7 1.000000
Mdl_0_Mtl_Comb3.001
0  162.000000 -39.347816 117.712997  0.000000 -1.000000 -0.000000  1.000000 0.000000 1 6 1.000000
0  -162.000000 -39.347828 185.113007  0.000000 -1.000000 -0.000000  0.000000 0.824195 1 6 1.000000
0  -162.000000 -39.347816 117.712997  0.000000 -1.000000 -0.000000  0.000000 0.000000 1 6 1.000000
Mdl_0_Mtl_Comb3.001
0  162.000000 -39.347816 117.712997  0.000000 -1.000000 -0.000000  1.000000 0.000000 1 6 1.000000
0  162.000000 -39.347828 185.113007  0.000000 -1.000000 -0.000000  1.000000 0.824195 1 6 1.000000
0  -162.000000 -39.347828 185.113007  0.000000 -1.000000 -0.000000  0.000000 0.824195 1 6 1.000000
end
