<?xml version="1.0" encoding="utf-8"?>
<COLLADA xmlns="http://www.collada.org/2005/11/COLLADASchema" version="1.4.1">
  <asset>
    <created>2017-11-05T12:59:43Z</created>
    <modified>2017-11-05T12:59:43Z</modified>
  </asset>
  <library_images>
    <image id="Image">
      <init_from>intro_door_waku1.png</init_from>
    </image>
  </library_images>
  <library_materials>
    <material id="VisualMaterial" name="Mdl_0_Mtl_Comb2">
      <instance_effect url="#Effect"/>
      <extra>
        <technique profile="FCOLLADA">
          <user_properties>Mdl_0_Mtl_Comb2</user_properties>
        </technique>
      </extra>
    </material>
  </library_materials>
  <library_effects>
    <effect id="Effect" name="intro_door_waku1_png">
      <profile_COMMON>
        <newparam sid="Image-surface">
          <surface type="2D">
            <init_from>Image</init_from>
            <format>A8R8G8B8</format>
          </surface>
        </newparam>
        <newparam sid="Image-sampler">
          <sampler2D>
            <source>Image-surface</source>
            <wrap_s>WRAP</wrap_s>
            <wrap_t>WRAP</wrap_t>
            <minfilter>NONE</minfilter>
            <magfilter>NONE</magfilter>
            <mipfilter>NONE</mipfilter>
          </sampler2D>
        </newparam>
        <technique sid="common">
          <phong>
            <emission>
              <color>0 0 0 1</color>
            </emission>
            <ambient>
              <color>0 0 0 1</color>
            </ambient>
            <diffuse>
              <texture texture="Image-sampler" texcoord=""/>
            </diffuse>
            <specular>
              <color>1 1 1 1</color>
            </specular>
            <shininess>
              <float>0</float>
            </shininess>
            <transparent opaque="A_ONE">
              <color>0 0 0 1</color>
            </transparent>
            <transparency>
              <float>1</float>
            </transparency>
            <index_of_refraction>
              <float>1.55</float>
            </index_of_refraction>
          </phong>
          <extra>
            <technique profile="FCOLLADA">
              <spec_level>
                <float>0</float>
              </spec_level>
            </technique>
          </extra>
        </technique>
      </profile_COMMON>
      <extra>
        <technique profile="FCOLLADA">
          <user_properties>intro_door_waku1.png</user_properties>
        </technique>
      </extra>
    </effect>
  </library_effects>
  <library_geometries>
    <geometry id="Geometry" name="doorframe_0_0">
      <mesh>
        <source id="GeometrySource" name="doorframe_0_0Pos">
          <float_array id="GeometrySource-array" count="363">-72 25.2779 -180 -72 0.00003 -180 -54 0.00003 -180 -110.181 0.00003 -180 -54 25.2779 -180 -110.181 25.2779 -180 -72 46.7181 -180 -110.181 46.7181 -180 -54 46.7181 -180 -110.181 188.112 -180 -72 188.112 -180 -54 199.001 -180 -72 208.289 -180 -54 219.723 -180 -31.2574 210.831 -180 -31.2574 231.553 -180 0 236.486 -180 0 215.764 -180 -110.181 208.289 -180 -72 243.65 -180 -110.181 243.65 -180 -31.2574 267.443 -180 -54 256.777 -180 31.2574 231.553 -180 31.2574 210.831 -180 0 272.366 -180 54 219.723 -180 54 199.001 -180 31.2574 267.443 -180 72 188.112 -180 72 46.7181 -180 54 46.7181 -180 54 256.777 -180 110.181 188.112 -180 72 208.289 -180 110.181 208.289 -180 72 25.2779 -180 54 25.2779 -180 110.181 46.7181 -180 72 243.65 -180 110.181 243.65 -180 72 0.00003 -180 54 0.00003 -180 110.181 25.2779 -180 110.181 0.00003 -180 -31.2574 210.831 -216 -54 199.001 -180 -54 199.001 -216 -31.2574 210.831 -180 0 215.764 -180 0 215.764 -216 31.2574 210.831 -180 31.2574 210.831 -216 54 199.001 -180 54 199.001 -216 110.181 208.289 -216 110.181 188.112 -180 110.181 188.112 -216 110.181 208.289 -180 110.181 243.65 -180 110.181 243.65 -216 110.181 46.7181 -216 110.181 46.7181 -180 110.181 25.2779 -216 110.181 25.2779 -180 110.181 0.00003 -180 110.181 0.00003 -216 -110.181 208.289 -180 -110.181 208.289 -216 -110.181 188.112 -216 -110.181 243.65 -216 -110.181 188.112 -180 -110.181 243.65 -180 -110.181 46.7181 -216 -110.181 46.7181 -180 -110.181 25.2779 -180 -110.181 25.2779 -216 -110.181 0.00003 -180 -110.181 0.00003 -216 -54 25.2779 -180 -54 0.00003 -180 -54 0.00003 -216 -54 25.2779 -216 -54 46.7181 -180 -54 46.7181 -216 -54 199.001 -180 -54 199.001 -216 54 25.2779 -216 54 0.00003 -216 54 0.00003 -180 54 25.2779 -180 54 46.7181 -216 54 46.7181 -180 54 199.001 -216 54 199.001 -180 -31.2574 267.443 -180 -54 256.777 -216 -54 256.777 -180 -31.2574 267.443 -216 0 272.366 -180 0 272.366 -216 31.2574 267.443 -180 31.2574 267.443 -216 54 256.777 -180 54 256.777 -216 -54 256.777 -180 -72 243.65 -216 -72 243.65 -180 -54 256.777 -216 72 243.65 -180 54 256.777 -216 54 256.777 -180 72 243.65 -216 72 243.65 -180 110.181 243.65 -216 72 243.65 -216 110.181 243.65 -180 -72 243.65 -216 -110.181 243.65 -180 -72 243.65 -180 -110.181 243.65 -216</float_array>
          <technique_common>
            <accessor source="#GeometrySource-array" count="121" stride="3">
              <param name="X" type="float"/>
              <param name="Y" type="float"/>
              <param name="Z" type="float"/>
            </accessor>
          </technique_common>
        </source>
        <source id="GeometrySource1" name="doorframe_0_0Nrm">
          <float_array id="GeometrySource1-array" count="363">0 0 1 0 0 1 0 0 1 0 0 1 0 0 1 0 0 1 0 0 1 0 0 1 0 0 1 0 0 1 0 0 1 0 0 1 0 0 1 0 0 1 0 0 1 0 0 1 0 0 1 0 0 1 0 0 1 0 0 1 0 0 1 0 0 1 0 0 1 0 0 1 0 0 1 0 0 1 0 0 1 0 0 1 0 0 1 0 0 1 0 0 1 0 0 1 0 0 1 0 0 1 0 0 1 0 0 1 0 0 1 0 0 1 0 0 1 0 0 1 0 0 1 0 0 1 0 0 1 0 0 1 0 0 1 0.312757 -0.949833 0 0.461475 -0.887153 0 0.461475 -0.887153 0 0.312757 -0.949833 0 0 -1 0 0 -1 0 -0.312757 -0.949833 0 -0.312757 -0.949833 0 -0.461475 -0.887153 0 -0.461475 -0.887153 0 1 0 0 1 0 0 1 0 0 1 0 0 1 0 0 1 0 0 1 0 0 1 0 0 1 0 0 1 0 0 1 0 0 1 0 0 -1 0 0 -1 0 0 -1 0 0 -1 0 0 -1 0 0 -1 0 0 -1 0 0 -1 0 0 -1 0 0 -1 0 0 -1 0 0 -1 0 0 1 0 0 1 0 0 1 0 0 1 0 0 1 0 0 1 0 0 1 0 0 1 0 0 -1 0 0 -1 0 0 -1 0 0 -1 0 0 -1 0 0 -1 0 0 -1 0 0 -1 0 0 -0.293002 0.956112 0 -0.424604 0.905379 0 -0.424604 0.905379 0 -0.293002 0.956112 0 0 1 0 0 1 0 0.293002 0.956112 0 0.293002 0.956112 0 0.424604 0.905379 0 0.424604 0.905379 0 -0.589236 0.807961 0 -0.589236 0.807961 0 -0.589236 0.807961 0 -0.589236 0.807961 0 0.589236 0.807961 0 0.589236 0.807961 0 0.589236 0.807961 0 0.589236 0.807961 0 0 1 0 0 1 0 0 1 0 0 1 0 0 1 0 0 1 0 0 1 0 0 1 0</float_array>
          <technique_common>
            <accessor source="#GeometrySource1-array" count="121" stride="3">
              <param name="X" type="float"/>
              <param name="Y" type="float"/>
              <param name="Z" type="float"/>
            </accessor>
          </technique_common>
        </source>
        <source id="GeometrySource2" name="doorframe_0_0UV">
          <float_array id="GeometrySource2-array" count="242">0.484375 0.15625 0.484375 0 0.640625 0 0.265625 0 0.640625 0.15625 0.265625 0.15625 0.484375 0.296875 0.265625 0.296875 0.640625 0.296875 0.265625 0.59375 0.484375 0.59375 0.640625 0.59375 0.484375 0.75 0.640625 0.75 0.8125 0.59375 0.8125 0.75 0.984375 0.75 0.984375 0.59375 0.265625 0.75 0.484375 1 0.265625 1 0.8125 1 0.640625 1 0.8125 0.75 0.8125 0.59375 0.984375 1 0.640625 0.75 0.640625 0.59375 0.8125 1 0.484375 0.59375 0.484375 0.296875 0.640625 0.296875 0.640625 1 0.265625 0.59375 0.484375 0.75 0.265625 0.75 0.484375 0.15625 0.640625 0.15625 0.265625 0.296875 0.484375 1 0.265625 1 0.484375 0 0.640625 0 0.265625 0.15625 0.265625 0 0.765625 0.484375 0.765625 0.484375 0.765625 0.484375 0.765625 0.484375 0.765625 0.484375 0.765625 0.484375 0.765625 0.484375 0.765625 0.484375 0.765625 0.484375 0.765625 0.484375 0.265625 0.75 0.265625 0.59375 0.265625 0.59375 0.265625 0.75 0.265625 1 0.265625 1 0.265625 0.296875 0.265625 0.296875 0.265625 0.15625 0.265625 0.15625 0.265625 0 0.265625 0 0.265625 0.75 0.265625 0.75 0.265625 0.59375 0.265625 1 0.265625 0.59375 0.265625 1 0.265625 0.296875 0.265625 0.296875 0.265625 0.15625 0.265625 0.15625 0.265625 0 0.265625 0 0.765625 0.484375 0.765625 0.484375 0.765625 0.484375 0.765625 0.484375 0.765625 0.484375 0.765625 0.484375 0.765625 0.484375 0.765625 0.484375 0.765625 0.484375 0.765625 0.484375 0.765625 0.484375 0.765625 0.484375 0.765625 0.484375 0.765625 0.484375 0.765625 0.484375 0.765625 0.484375 0.171875 0 0.125 0.0625 0.125 0 0.171875 0.0625 0.234375 0 0.234375 0.0625 0.171875 0 0.171875 0.0625 0.125 0 0.125 0.0625 0.125 0 0.015625 0.0625 0.015625 0 0.125 0.0625 0.015625 0 0.125 0.0625 0.125 0 0.015625 0.0625 0.046875 0.015625 0.234375 0.046875 0.046875 0.046875 0.234375 0.015625 0.046875 0.046875 0.234375 0.015625 0.046875 0.015625 0.234375 0.046875</float_array>
          <technique_common>
            <accessor source="#GeometrySource2-array" count="121" stride="2">
              <param name="S" type="float"/>
              <param name="T" type="float"/>
            </accessor>
          </technique_common>
        </source>
        <source id="GeometrySource3" name="doorframe_0_0Clr">
          <float_array id="GeometrySource3-array" count="484">1 1 1 1 1 1 1 1 1 1 1 1 1 1 1 1 1 1 1 1 1 1 1 1 1 1 1 1 1 1 1 1 1 1 1 1 1 1 1 1 1 1 1 1 1 1 1 1 1 1 1 1 1 1 1 1 1 1 1 1 1 1 1 1 1 1 1 1 1 1 1 1 1 1 1 1 1 1 1 1 1 1 1 1 1 1 1 1 1 1 1 1 1 1 1 1 1 1 1 1 1 1 1 1 1 1 1 1 1 1 1 1 1 1 1 1 1 1 1 1 1 1 1 1 1 1 1 1 1 1 1 1 1 1 1 1 1 1 1 1 1 1 1 1 1 1 1 1 1 1 1 1 1 1 1 1 1 1 1 1 1 1 1 1 1 1 1 1 1 1 1 1 1 1 1 1 1 1 1 1 1 1 1 1 1 1 1 1 1 1 1 1 1 1 1 1 1 1 1 1 1 1 1 1 1 1 1 1 1 1 1 1 1 1 1 1 1 1 1 1 1 1 1 1 0.780392 0.780392 0.780392 1 1 1 1 1 0.780392 0.780392 0.780392 1 0.780392 0.780392 0.780392 1 1 1 1 1 1 1 1 1 0.780392 0.780392 0.780392 1 1 1 1 1 0.780392 0.780392 0.780392 1 0.780392 0.780392 0.780392 1 1 1 1 1 0.780392 0.780392 0.780392 1 1 1 1 1 1 1 1 1 1 1 1 1 0.780392 0.780392 0.780392 1 0.780392 0.780392 0.780392 1 1 1 1 1 0.780392 0.780392 0.780392 1 0.780392 0.780392 0.780392 1 1 1 1 1 0.780392 0.780392 0.780392 1 1 1 1 1 1 1 1 1 1 1 1 1 1 1 1 1 1 1 1 1 1 1 1 1 1 1 1 1 1 1 1 1 1 1 1 1 1 1 1 1 1 1 1 1 1 1 1 1 1 1 1 1 1 1 1 1 1 1 1 1 1 1 1 1 1 1 1 1 0.780392 0.780392 0.780392 1 1 1 1 1 0.780392 0.780392 0.780392 1 1 1 1 1 0.780392 0.780392 0.780392 1 1 1 1 1 0.780392 0.780392 0.780392 1 1 1 1 1 0.780392 0.780392 0.780392 1 1 1 1 1 0.780392 0.780392 0.780392 1 1 1 1 1 0.780392 0.780392 0.780392 1 1 1 1 1 0.780392 0.780392 0.780392 1 1 1 1 1 0.780392 0.780392 0.780392 1 1 1 1 1 0.780392 0.780392 0.780392 1 1 1 1 1 1 1 1 1 0.780392 0.780392 0.780392 1 1 1 1 1 0.780392 0.780392 0.780392 1 0.780392 0.780392 0.780392 1 1 1 1 1</float_array>
          <technique_common>
            <accessor source="#GeometrySource3-array" count="121" stride="4">
              <param name="R" type="float"/>
              <param name="G" type="float"/>
              <param name="B" type="float"/>
              <param name="A" type="float"/>
            </accessor>
          </technique_common>
        </source>
        <vertices id="Geometry-vertices">
          <input semantic="POSITION" source="#GeometrySource"/>
          <input semantic="NORMAL" source="#GeometrySource1"/>
          <input semantic="TEXCOORD" source="#GeometrySource2"/>
          <input semantic="COLOR" source="#GeometrySource3"/>
        </vertices>
        <triangles material="VisualMaterial0" count="112">
          <input semantic="VERTEX" source="#Geometry-vertices" offset="0"/>
          <p>0 1 2 0 3 1 0 2 4 0 5 3 0 4 6 0 7 5 0 6 7 4 8 6 7 6 9 8 10 6 6 10 9 8 11 10 11 12 10 10 12 9 11 13 12 11 14 13 14 15 13 14 16 15 14 17 16 12 18 9 12 13 19 12 20 18 12 19 20 15 16 21 22 19 13 15 22 13 15 21 22 17 23 16 17 24 23 21 16 25 16 23 25 24 26 23 24 27 26 23 26 28 25 23 28 27 29 26 27 30 29 27 31 30 28 26 32 29 30 33 26 34 32 29 34 26 29 33 35 29 35 34 31 36 30 31 37 36 33 30 38 39 32 34 35 39 34 35 40 39 37 41 36 37 42 41 30 43 38 30 36 43 41 44 36 36 44 43 45 46 47 45 48 46 45 49 48 45 50 49 50 51 49 50 52 51 52 53 51 52 54 53 55 56 57 55 58 56 55 59 58 55 60 59 57 56 61 56 62 61 62 63 61 62 64 63 64 65 63 65 66 63 67 68 69 67 70 68 67 69 71 67 72 70 69 73 71 73 74 71 73 75 74 73 76 75 76 77 75 76 78 77 79 80 81 79 81 82 79 82 83 82 84 83 84 85 83 84 86 85 87 88 89 87 89 90 87 90 91 90 92 91 92 93 91 92 94 93 95 96 97 95 98 96 95 99 98 99 100 98 99 101 100 101 102 100 101 103 102 103 104 102 105 106 107 105 108 106 109 110 111 109 112 110 113 114 115 113 116 114 117 118 119 117 120 118</p>
        </triangles>
      </mesh>
    </geometry>
    <geometry id="Geometry1" name="white_1_0">
      <mesh>
        <source id="GeometrySource4" name="white_1_0Pos">
          <float_array id="GeometrySource4-array" count="12">54 0 -180 -54 216 -188.45 -54 0 -180 54 216 -188.45</float_array>
          <technique_common>
            <accessor source="#GeometrySource4-array" count="4" stride="3">
              <param name="X" type="float"/>
              <param name="Y" type="float"/>
              <param name="Z" type="float"/>
            </accessor>
          </technique_common>
        </source>
        <source id="GeometrySource5" name="white_1_0Nrm">
          <float_array id="GeometrySource5-array" count="12">0 0.03909 0.999236 0 0.03909 0.999236 0 0.03909 0.999236 0 0.03909 0.999236</float_array>
          <technique_common>
            <accessor source="#GeometrySource5-array" count="4" stride="3">
              <param name="X" type="float"/>
              <param name="Y" type="float"/>
              <param name="Z" type="float"/>
            </accessor>
          </technique_common>
        </source>
        <source id="GeometrySource6" name="white_1_0UV">
          <float_array id="GeometrySource6-array" count="8">0.876935 0.308464 0.783185 0.419475 0.783185 0.308464 0.876935 0.419475</float_array>
          <technique_common>
            <accessor source="#GeometrySource6-array" count="4" stride="2">
              <param name="S" type="float"/>
              <param name="T" type="float"/>
            </accessor>
          </technique_common>
        </source>
        <source id="GeometrySource7" name="white_1_0Clr">
          <float_array id="GeometrySource7-array" count="16">0.780392 0.780392 0.780392 1 0.780392 0.780392 0.780392 1 0.780392 0.780392 0.780392 1 0.780392 0.780392 0.780392 1</float_array>
          <technique_common>
            <accessor source="#GeometrySource7-array" count="4" stride="4">
              <param name="R" type="float"/>
              <param name="G" type="float"/>
              <param name="B" type="float"/>
              <param name="A" type="float"/>
            </accessor>
          </technique_common>
        </source>
        <vertices id="Geometry1-vertices">
          <input semantic="POSITION" source="#GeometrySource4"/>
          <input semantic="NORMAL" source="#GeometrySource5"/>
          <input semantic="TEXCOORD" source="#GeometrySource6"/>
          <input semantic="COLOR" source="#GeometrySource7"/>
        </vertices>
        <triangles material="VisualMaterial0" count="2">
          <input semantic="VERTEX" source="#Geometry1-vertices" offset="0"/>
          <p>0 1 2 0 3 1</p>
        </triangles>
      </mesh>
    </geometry>
  </library_geometries>
  <library_controllers>
    <controller id="Controller">
      <skin source="#Geometry">
        <bind_shape_matrix>1 0 0 0 0 1 0 0 0 0 1 0 0 0 0 1</bind_shape_matrix>
        <source id="Controller-joints">
          <Name_array id="Controller-joints-array" count="7">doorframe scale2 white scale move DOOR_TOP intro_door</Name_array>
          <technique_common>
            <accessor source="#Controller-joints-array" count="7" stride="1">
              <param name="JOINT" type="Name"/>
            </accessor>
          </technique_common>
        </source>
        <source id="Controller-bind_poses">
          <float_array id="Controller-bind_poses-array" count="112">1 0 0 0 0 1 0 0 0 0 1 198 0 0 0 1 1 0 0 0 0 1 0 0 0 0 1 198 0 0 0 1 1 0 0 0 0 1 0 -108 0 0 1 188.45 0 0 0 1 1 0 0 0 0 1 0 0 0 0 1 198 0 0 0 1 1 0 0 0 0 1 0 0 0 0 1 198 0 0 0 1 1 0 0 0 0 1 0 0 0 0 1 0 0 0 0 1 1 0 0 0 0 1 0 0 0 0 1 0 0 0 0 1</float_array>
          <technique_common>
            <accessor source="#Controller-bind_poses-array" count="7" stride="16">
              <param name="TRANSFORM" type="float4x4"/>
            </accessor>
          </technique_common>
        </source>
        <source id="Controller-weights">
          <float_array id="Controller-weights-array" count="1">1</float_array>
          <technique_common>
            <accessor source="#Controller-weights-array" count="1" stride="1">
              <param name="WEIGHT" type="float"/>
            </accessor>
          </technique_common>
        </source>
        <joints>
          <input semantic="JOINT" source="#Controller-joints"/>
          <input semantic="INV_BIND_MATRIX" source="#Controller-bind_poses"/>
        </joints>
        <vertex_weights count="121">
          <input semantic="JOINT" source="#Controller-joints" offset="0"/>
          <input semantic="WEIGHT" source="#Controller-weights" offset="1"/>
          <vcount>1 1 1 1 1 1 1 1 1 1 1 1 1 1 1 1 1 1 1 1 1 1 1 1 1 1 1 1 1 1 1 1 1 1 1 1 1 1 1 1 1 1 1 1 1 1 1 1 1 1 1 1 1 1 1 1 1 1 1 1 1 1 1 1 1 1 1 1 1 1 1 1 1 1 1 1 1 1 1 1 1 1 1 1 1 1 1 1 1 1 1 1 1 1 1 1 1 1 1 1 1 1 1 1 1 1 1 1 1 1 1 1 1 1 1 1 1 1 1 1 1 </vcount>
          <v>0 0 0 0 0 0 0 0 0 0 0 0 0 0 0 0 0 0 0 0 0 0 0 0 0 0 0 0 0 0 0 0 0 0 0 0 0 0 0 0 0 0 0 0 0 0 0 0 0 0 0 0 0 0 0 0 0 0 0 0 0 0 0 0 0 0 0 0 0 0 0 0 0 0 0 0 0 0 0 0 0 0 0 0 0 0 0 0 0 0 0 0 0 0 0 0 0 0 0 0 0 0 0 0 0 0 0 0 0 0 0 0 0 0 0 0 0 0 0 0 0 0 0 0 0 0 0 0 0 0 0 0 0 0 0 0 0 0 0 0 0 0 0 0 0 0 0 0 0 0 0 0 0 0 0 0 0 0 0 0 0 0 0 0 0 0 0 0 0 0 0 0 0 0 0 0 0 0 0 0 0 0 0 0 0 0 0 0 0 0 0 0 0 0 0 0 0 0 0 0 0 0 0 0 0 0 0 0 0 0 0 0 0 0 0 0 0 0 0 0 0 0 0 0 0 0 0 0 0 0 0 0 0 0 0 0 0 0 0 0 0 0</v>
        </vertex_weights>
      </skin>
      <extra>
        <technique profile="FCOLLADA">
          <user_properties>SkinController</user_properties>
        </technique>
      </extra>
    </controller>
    <controller id="Controller1">
      <skin source="#Geometry1">
        <bind_shape_matrix>1 0 0 0 0 1 0 0 0 0 1 0 0 0 0 1</bind_shape_matrix>
        <source id="Controller1-joints">
          <Name_array id="Controller1-joints-array" count="7">doorframe scale2 white scale move DOOR_TOP intro_door</Name_array>
          <technique_common>
            <accessor source="#Controller1-joints-array" count="7" stride="1">
              <param name="JOINT" type="Name"/>
            </accessor>
          </technique_common>
        </source>
        <source id="Controller1-bind_poses">
          <float_array id="Controller1-bind_poses-array" count="112">1 0 0 0 0 1 0 0 0 0 1 198 0 0 0 1 1 0 0 0 0 1 0 0 0 0 1 198 0 0 0 1 1 0 0 0 0 1 0 -108 0 0 1 188.45 0 0 0 1 1 0 0 0 0 1 0 0 0 0 1 198 0 0 0 1 1 0 0 0 0 1 0 0 0 0 1 198 0 0 0 1 1 0 0 0 0 1 0 0 0 0 1 0 0 0 0 1 1 0 0 0 0 1 0 0 0 0 1 0 0 0 0 1</float_array>
          <technique_common>
            <accessor source="#Controller1-bind_poses-array" count="7" stride="16">
              <param name="TRANSFORM" type="float4x4"/>
            </accessor>
          </technique_common>
        </source>
        <source id="Controller1-weights">
          <float_array id="Controller1-weights-array" count="1">1</float_array>
          <technique_common>
            <accessor source="#Controller1-weights-array" count="1" stride="1">
              <param name="WEIGHT" type="float"/>
            </accessor>
          </technique_common>
        </source>
        <joints>
          <input semantic="JOINT" source="#Controller1-joints"/>
          <input semantic="INV_BIND_MATRIX" source="#Controller1-bind_poses"/>
        </joints>
        <vertex_weights count="4">
          <input semantic="JOINT" source="#Controller1-joints" offset="0"/>
          <input semantic="WEIGHT" source="#Controller1-weights" offset="1"/>
          <vcount>1 1 1 1 </vcount>
          <v>2 0 2 0 2 0 2 0</v>
        </vertex_weights>
      </skin>
      <extra>
        <technique profile="FCOLLADA">
          <user_properties>SkinController</user_properties>
        </technique>
      </extra>
    </controller>
  </library_controllers>
  <library_visual_scenes>
    <visual_scene id="VisualSceneNode" name="rdmscene">
      <node id="VisualSceneNode1" name="intro_door" sid="intro_door" type="JOINT">
        <matrix>1 0 0 0 0 1 0 0 0 0 1 0 0 0 0 1</matrix>
        <node id="VisualSceneNode2" name="DOOR_TOP" sid="DOOR_TOP" type="JOINT">
          <matrix>1 0 0 0 0 1 0 0 0 0 1 0 0 0 0 1</matrix>
          <node id="VisualSceneNode3" name="move" sid="move" type="JOINT">
            <matrix>1 0 0 0 0 1 0 0 0 0 1 -198 0 0 0 1</matrix>
            <node id="VisualSceneNode4" name="scale" sid="scale" type="JOINT">
              <matrix>1 0 0 0 0 1 0 0 0 0 1 0 0 0 0 1</matrix>
              <node id="VisualSceneNode5" name="scale2" sid="scale2" type="JOINT">
                <matrix>1 0 0 0 0 1 0 0 0 0 1 0 0 0 0 1</matrix>
                <node id="VisualSceneNode6" name="doorframe" sid="doorframe" type="JOINT">
                  <matrix>1 0 0 0 0 1 0 0 0 0 1 0 0 0 0 1</matrix>
                </node>
              </node>
              <node id="VisualSceneNode7" name="white" sid="white" type="JOINT">
                <matrix>1 0 0 0 0 1 0 108 0 0 1 9.54996 0 0 0 1</matrix>
              </node>
            </node>
          </node>
        </node>
      </node>
      <node id="VisualSceneNode8" name="doorframe_0_0" type="NODE">
        <matrix>1 0 0 0 0 1 0 0 0 0 1 0 0 0 0 1</matrix>
        <instance_controller url="#Controller">
          <skeleton>#VisualSceneNode1</skeleton>
          <bind_material>
            <technique_common>
              <instance_material symbol="VisualMaterial0" target="#VisualMaterial"/>
            </technique_common>
          </bind_material>
        </instance_controller>
      </node>
      <node id="VisualSceneNode9" name="white_1_0" type="NODE">
        <matrix>1 0 0 0 0 1 0 0 0 0 1 0 0 0 0 1</matrix>
        <instance_controller url="#Controller1">
          <skeleton>#VisualSceneNode1</skeleton>
          <bind_material>
            <technique_common>
              <instance_material symbol="VisualMaterial0" target="#VisualMaterial"/>
            </technique_common>
          </bind_material>
        </instance_controller>
      </node>
    </visual_scene>
  </library_visual_scenes>
  <scene>
    <instance_visual_scene url="#VisualSceneNode"/>
  </scene>
</COLLADA>
