Library\Bee\artifacts\movedfrom\UnityEngine.UI.ref.dll_18079379552747940837.movedfrom
Library\Bee\artifacts\movedfrom\Unity.Burst.Cecil.dll_881077742865164931.movedfrom
Library\Bee\artifacts\movedfrom\Unity.Burst.Cecil.Mdb.dll_1847447657121937024.movedfrom
Library\Bee\artifacts\movedfrom\Unity.Burst.Cecil.Pdb.dll_3527985688347047939.movedfrom
Library\Bee\artifacts\movedfrom\Unity.Burst.Cecil.Rocks.dll_7731214164804789891.movedfrom
Library\Bee\artifacts\movedfrom\Unity.Burst.Unsafe.dll_4551371293590776352.movedfrom
Library\Bee\artifacts\movedfrom\Unity.Collections.LowLevel.ILSupport.dll_12049340224769601669.movedfrom
Library\Bee\artifacts\movedfrom\UnityEngine.AccessibilityModule.dll_12558867128706827190.movedfrom
Library\Bee\artifacts\movedfrom\UnityEngine.AIModule.dll_17845725274079280868.movedfrom
Library\Bee\artifacts\movedfrom\UnityEngine.AndroidJNIModule.dll_12056969373910234786.movedfrom
Library\Bee\artifacts\movedfrom\UnityEngine.AnimationModule.dll_2083427161050088668.movedfrom
Library\Bee\artifacts\movedfrom\UnityEngine.ARModule.dll_12761940862969191853.movedfrom
Library\Bee\artifacts\movedfrom\UnityEngine.AssetBundleModule.dll_4567219509474496394.movedfrom
Library\Bee\artifacts\movedfrom\UnityEngine.AudioModule.dll_7177928609531514574.movedfrom
Library\Bee\artifacts\movedfrom\UnityEngine.ClothModule.dll_14593207628467940786.movedfrom
Library\Bee\artifacts\movedfrom\UnityEngine.ClusterInputModule.dll_2153949785495923724.movedfrom
Library\Bee\artifacts\movedfrom\UnityEngine.ClusterRendererModule.dll_1486782310736735669.movedfrom
Library\Bee\artifacts\movedfrom\UnityEngine.CoreModule.dll_6820903786190147003.movedfrom
Library\Bee\artifacts\movedfrom\UnityEngine.CrashReportingModule.dll_16039466137092883507.movedfrom
Library\Bee\artifacts\movedfrom\UnityEngine.DirectorModule.dll_3875867168274346648.movedfrom
Library\Bee\artifacts\movedfrom\UnityEngine.dll_11628408827576782570.movedfrom
Library\Bee\artifacts\movedfrom\UnityEngine.DSPGraphModule.dll_4259061717095957433.movedfrom
Library\Bee\artifacts\movedfrom\UnityEngine.GameCenterModule.dll_15105143375565678483.movedfrom
Library\Bee\artifacts\movedfrom\UnityEngine.GIModule.dll_10368704315532748542.movedfrom
Library\Bee\artifacts\movedfrom\UnityEngine.GridModule.dll_4330725376655336370.movedfrom
Library\Bee\artifacts\movedfrom\UnityEngine.HotReloadModule.dll_11399331922627633246.movedfrom
Library\Bee\artifacts\movedfrom\UnityEngine.ImageConversionModule.dll_9265059276721808809.movedfrom
Library\Bee\artifacts\movedfrom\UnityEngine.IMGUIModule.dll_11240069262203609775.movedfrom
Library\Bee\artifacts\movedfrom\UnityEngine.InputLegacyModule.dll_15035022236579251579.movedfrom
Library\Bee\artifacts\movedfrom\UnityEngine.InputModule.dll_14560955334386873202.movedfrom
Library\Bee\artifacts\movedfrom\UnityEngine.JSONSerializeModule.dll_1036276897880859712.movedfrom
Library\Bee\artifacts\movedfrom\UnityEngine.LocalizationModule.dll_6643135170155077381.movedfrom
Library\Bee\artifacts\movedfrom\UnityEngine.ParticleSystemModule.dll_3578649510725128129.movedfrom
Library\Bee\artifacts\movedfrom\UnityEngine.PerformanceReportingModule.dll_5865388554217659770.movedfrom
Library\Bee\artifacts\movedfrom\UnityEngine.Physics2DModule.dll_7606511495861992561.movedfrom
Library\Bee\artifacts\movedfrom\UnityEngine.PhysicsModule.dll_40837512680898399.movedfrom
Library\Bee\artifacts\movedfrom\UnityEngine.ProfilerModule.dll_7498513025204287909.movedfrom
Library\Bee\artifacts\movedfrom\UnityEngine.RuntimeInitializeOnLoadManagerInitializerModule.dll_5990596440925884218.movedfrom
Library\Bee\artifacts\movedfrom\UnityEngine.ScreenCaptureModule.dll_2902928255534108834.movedfrom
Library\Bee\artifacts\movedfrom\UnityEngine.SharedInternalsModule.dll_334771777171284217.movedfrom
Library\Bee\artifacts\movedfrom\UnityEngine.SpriteMaskModule.dll_13460329575030422797.movedfrom
Library\Bee\artifacts\movedfrom\UnityEngine.SpriteShapeModule.dll_6396012300781242260.movedfrom
Library\Bee\artifacts\movedfrom\UnityEngine.StreamingModule.dll_15095713313617755162.movedfrom
Library\Bee\artifacts\movedfrom\UnityEngine.SubstanceModule.dll_12549794454298769960.movedfrom
Library\Bee\artifacts\movedfrom\UnityEngine.SubsystemsModule.dll_2700498210570855712.movedfrom
Library\Bee\artifacts\movedfrom\UnityEngine.TerrainModule.dll_1934173921999407181.movedfrom
Library\Bee\artifacts\movedfrom\UnityEngine.TerrainPhysicsModule.dll_3613175082499213902.movedfrom
Library\Bee\artifacts\movedfrom\UnityEngine.TextCoreModule.dll_14881208811852784296.movedfrom
Library\Bee\artifacts\movedfrom\UnityEngine.TextRenderingModule.dll_5875147924971032727.movedfrom
Library\Bee\artifacts\movedfrom\UnityEngine.TilemapModule.dll_13390319278269802838.movedfrom
Library\Bee\artifacts\movedfrom\UnityEngine.TLSModule.dll_18167914953434194035.movedfrom
Library\Bee\artifacts\movedfrom\UnityEngine.UIElementsModule.dll_3006287134636351767.movedfrom
Library\Bee\artifacts\movedfrom\UnityEngine.UIElementsNativeModule.dll_5221622773156326414.movedfrom
Library\Bee\artifacts\movedfrom\UnityEngine.UIModule.dll_17517980843870241936.movedfrom
Library\Bee\artifacts\movedfrom\UnityEngine.UmbraModule.dll_16028816998668696129.movedfrom
Library\Bee\artifacts\movedfrom\UnityEngine.UNETModule.dll_17388116429207372596.movedfrom
Library\Bee\artifacts\movedfrom\UnityEngine.UnityAnalyticsModule.dll_5857313458676883901.movedfrom
Library\Bee\artifacts\movedfrom\UnityEngine.UnityConnectModule.dll_10063131619923040753.movedfrom
Library\Bee\artifacts\movedfrom\UnityEngine.UnityCurlModule.dll_5766422990038136521.movedfrom
Library\Bee\artifacts\movedfrom\UnityEngine.UnityTestProtocolModule.dll_15884832996899745719.movedfrom
Library\Bee\artifacts\movedfrom\UnityEngine.UnityWebRequestAssetBundleModule.dll_12514263683349645902.movedfrom
Library\Bee\artifacts\movedfrom\UnityEngine.UnityWebRequestAudioModule.dll_14511266154065160210.movedfrom
Library\Bee\artifacts\movedfrom\UnityEngine.UnityWebRequestModule.dll_10534801323573215272.movedfrom
Library\Bee\artifacts\movedfrom\UnityEngine.UnityWebRequestTextureModule.dll_5445114994342368295.movedfrom
Library\Bee\artifacts\movedfrom\UnityEngine.UnityWebRequestWWWModule.dll_8284993437806823011.movedfrom
Library\Bee\artifacts\movedfrom\UnityEngine.VehiclesModule.dll_12505601330175361587.movedfrom
Library\Bee\artifacts\movedfrom\UnityEngine.VFXModule.dll_9007197963220503008.movedfrom
Library\Bee\artifacts\movedfrom\UnityEngine.VideoModule.dll_9846738457790999155.movedfrom
Library\Bee\artifacts\movedfrom\UnityEngine.VirtualTexturingModule.dll_7855301043435941017.movedfrom
Library\Bee\artifacts\movedfrom\UnityEngine.VRModule.dll_5039111581765880328.movedfrom
Library\Bee\artifacts\movedfrom\UnityEngine.WindModule.dll_15345895898130517028.movedfrom
Library\Bee\artifacts\movedfrom\UnityEngine.XRModule.dll_8695685953486886758.movedfrom