version 1
nodes
0 "blender_implicit" -1
1 "intro_portraits" -1
2 "move" 1
3 "painting3" 2
4 "flash_2" 3
5 "glow_3" 3
6 "painting_1" 2
7 "flash" 6
8 "glow_1" 6
9 "painting_2" 2
10 "flash_1" 9
11 "glow_2" 9
12 "painting_boy_1" 2
13 "flash_3" 12
14 "glow_6" 12
15 "painting_boy_2" 2
16 "flash_4" 15
17 "glow_7" 15
18 "painting_boy_3" 2
19 "flash_5" 18
20 "glow_8" 18
21 "shadow_1" 2
22 "shadow_2" 2
23 "shadow_3" 2
end
skeleton
time 0
0  0 0 0  0 0 0
1  0.000000 0.000000 0.000000  1.570796 -0.000000 0.000000
2  0.000000 0.000000 0.000000  0.000000 -0.000000 0.000000
3  46.306499 -10.443900 3.347840  0.000000 -0.000000 0.000000
4  -0.115799 0.034400 0.806390  0.000000 -0.000000 0.000000
5  -19.553099 25.649401 0.000000  0.000000 -0.000000 0.000000
6  -46.317799 -10.443900 3.347840  0.000000 -0.000000 0.000000
7  0.012501 0.034400 0.806390  0.000000 -0.000000 0.000000
8  0.238499 0.851541 -0.267980  0.000000 -0.000000 0.000000
9  0.000000 -1.229380 3.347840  -0.000000 -0.000000 0.000000
10  -0.098552 -0.046250 0.806390  0.000000 -0.000000 0.000000
11  -19.904499 25.649380 0.000020  0.000000 -0.000000 0.000000
12  -46.317799 -10.443900 3.347840  0.000000 -0.000000 0.000000
13  0.012501 0.034400 0.806390  0.000000 -0.000000 0.000000
14  0.238499 0.851541 -0.267980  0.000000 -0.000000 0.000000
15  0.000000 -1.229380 3.347840  -0.000000 -0.000000 0.000000
16  -0.098552 -0.046250 0.806390  0.000000 -0.000000 0.000000
17  -19.904499 25.649380 0.000020  0.000000 -0.000000 0.000000
18  46.306499 -10.443900 3.347840  0.000000 -0.000000 0.000000
19  -0.115799 0.034400 0.806390  0.000000 -0.000000 0.000000
20  -19.553099 25.649401 0.000000  0.000000 -0.000000 0.000000
21  -45.812500 -11.767400 2.430160  0.000000 -0.000000 0.000000
22  0.000000 -2.984680 2.430160  0.000000 -0.000000 0.000000
23  45.409901 -10.503400 2.430160  0.000000 -0.000000 0.000000
end
triangles
Mdl_0_Mtl_Comb5
0  -26.007900 -4.154234 -36.093399  0.000000 -1.000000 -0.000000  1.000000 0.119970 1 13 1.000000
0  -66.864296 -4.154243 16.002800  0.000000 -1.000000 -0.000000  0.663264 1.000000 1 13 1.000000
0  -66.864296 -4.154234 -36.093399  0.000000 -1.000000 -0.000000  0.663264 0.119970 1 13 1.000000
Mdl_0_Mtl_Comb5
0  -26.007900 -4.154234 -36.093399  0.000000 -1.000000 -0.000000  1.000000 0.119970 1 13 1.000000
0  -26.007900 -4.154243 16.002800  0.000000 -1.000000 -0.000000  1.000000 1.000000 1 13 1.000000
0  -66.864296 -4.154243 16.002800  0.000000 -1.000000 -0.000000  0.663264 1.000000 1 13 1.000000
end
