version 1
nodes
0 "blender_implicit" -1
1 "intro_portraits" -1
2 "move" 1
3 "painting3" 2
4 "flash_2" 3
5 "glow_3" 3
6 "painting_1" 2
7 "flash" 6
8 "glow_1" 6
9 "painting_2" 2
10 "flash_1" 9
11 "glow_2" 9
12 "painting_boy_1" 2
13 "flash_3" 12
14 "glow_6" 12
15 "painting_boy_2" 2
16 "flash_4" 15
17 "glow_7" 15
18 "painting_boy_3" 2
19 "flash_5" 18
20 "glow_8" 18
21 "shadow_1" 2
22 "shadow_2" 2
23 "shadow_3" 2
end
skeleton
time 0
0  0 0 0  0 0 0
1  0.000000 0.000000 0.000000  1.570796 -0.000000 0.000000
2  0.000000 0.000000 0.000000  0.000000 -0.000000 0.000000
3  46.306499 -10.443900 3.347840  0.000000 -0.000000 0.000000
4  -0.115799 0.034400 0.806390  0.000000 -0.000000 0.000000
5  -19.553099 25.649401 0.000000  0.000000 -0.000000 0.000000
6  -46.317799 -10.443900 3.347840  0.000000 -0.000000 0.000000
7  0.012501 0.034400 0.806390  0.000000 -0.000000 0.000000
8  0.238499 0.851541 -0.267980  0.000000 -0.000000 0.000000
9  0.000000 -1.229380 3.347840  -0.000000 -0.000000 0.000000
10  -0.098552 -0.046250 0.806390  0.000000 -0.000000 0.000000
11  -19.904499 25.649380 0.000020  0.000000 -0.000000 0.000000
12  -46.317799 -10.443900 3.347840  0.000000 -0.000000 0.000000
13  0.012501 0.034400 0.806390  0.000000 -0.000000 0.000000
14  0.238499 0.851541 -0.267980  0.000000 -0.000000 0.000000
15  0.000000 -1.229380 3.347840  -0.000000 -0.000000 0.000000
16  -0.098552 -0.046250 0.806390  0.000000 -0.000000 0.000000
17  -19.904499 25.649380 0.000020  0.000000 -0.000000 0.000000
18  46.306499 -10.443900 3.347840  0.000000 -0.000000 0.000000
19  -0.115799 0.034400 0.806390  0.000000 -0.000000 0.000000
20  -19.553099 25.649401 0.000000  0.000000 -0.000000 0.000000
21  -45.812500 -11.767400 2.430160  0.000000 -0.000000 0.000000
22  0.000000 -2.984680 2.430160  0.000000 -0.000000 0.000000
23  45.409901 -10.503400 2.430160  0.000000 -0.000000 0.000000
end
triangles
Mdl_0_Mtl_Comb6
0  19.904400 -7.799325 32.415699  -0.067965 -0.871670 -0.485275  0.818305 0.985019 1 17 1.000000
0  19.904400 -3.347844 24.420000  -0.042116 -0.872921 -0.485977  0.818305 0.019975 1 17 1.000000
0  25.296499 -7.799325 30.744097  -0.149083 -0.863948 -0.480972  1.000000 0.985019 1 17 1.000000
Mdl_0_Mtl_Comb6
0  19.904400 -7.799325 32.415699  -0.067965 -0.871670 -0.485275  0.818305 0.985019 1 17 1.000000
0  -19.904499 -3.347844 24.420000  0.042879 -0.872890 -0.485977  0.181695 0.019975 1 17 1.000000
0  19.904400 -3.347844 24.420000  -0.042116 -0.872921 -0.485977  0.818305 0.019975 1 17 1.000000
Mdl_0_Mtl_Comb6
0  19.904400 -7.799325 32.415699  -0.067965 -0.871670 -0.485275  0.818305 0.985019 1 17 1.000000
0  -19.904499 -7.799325 32.415699  0.070406 -0.871548 -0.485214  0.181695 0.985019 1 17 1.000000
0  -19.904499 -3.347844 24.420000  0.042879 -0.872890 -0.485977  0.181695 0.019975 1 17 1.000000
Mdl_0_Mtl_Comb6
0  -19.904499 -7.799325 32.415699  0.070406 -0.871548 -0.485214  0.181695 0.985019 1 17 1.000000
0  -25.082300 -7.799325 30.744097  0.155126 -0.863124 -0.480514  0.000000 0.985019 1 17 1.000000
0  -19.904499 -3.347844 24.420000  0.042879 -0.872890 -0.485977  0.181695 0.019975 1 17 1.000000
Mdl_0_Mtl_Comb6
0  27.779600 -7.799324 24.419998  -0.490310 -0.867428 -0.084323  0.141830 0.984655 1 17 1.000000
0  25.296499 -7.799325 30.744097  -0.483139 -0.854732 -0.189673  0.037046 0.984655 1 17 1.000000
0  19.904400 -3.347844 24.420000  -0.491134 -0.868892 -0.061647  0.141830 0.017947 1 17 1.000000
Mdl_0_Mtl_Comb6
0  27.779600 -7.799324 24.419998  -0.490310 -0.867428 -0.084323  0.141830 0.984655 1 17 1.000000
0  19.904400 -3.347844 24.420000  -0.491134 -0.868892 -0.061647  0.141830 0.017947 1 17 1.000000
0  19.904400 -3.347836 -26.878899  -0.491073 -0.868801 0.063204  0.932263 0.017947 1 17 1.000000
Mdl_0_Mtl_Comb6
0  27.779600 -7.799324 24.419998  -0.490310 -0.867428 -0.084323  0.141830 0.984655 1 17 1.000000
0  19.904400 -3.347836 -26.878899  -0.491073 -0.868801 0.063204  0.932263 0.017947 1 17 1.000000
0  27.779600 -7.799315 -26.878901  -0.490158 -0.867183 0.087710  0.932263 0.984655 1 17 1.000000
Mdl_0_Mtl_Comb6
0  19.904400 -3.347836 -26.878899  -0.491073 -0.868801 0.063204  0.932263 0.017947 1 17 1.000000
0  25.296499 -7.799314 -32.912201  -0.482284 -0.853206 0.198492  1.037050 0.984655 1 17 1.000000
0  27.779600 -7.799315 -26.878901  -0.490158 -0.867183 0.087710  0.932263 0.984655 1 17 1.000000
Mdl_0_Mtl_Comb6
0  -19.904499 -3.347844 24.420000  0.512131 -0.856838 -0.059389  0.858170 0.017947 1 17 1.000000
0  -25.082300 -7.799325 30.744097  0.504562 -0.844142 -0.181066  0.962953 0.984655 1 17 1.000000
0  -27.351900 -7.799324 24.419998  0.511338 -0.855495 -0.081515  0.858170 0.984655 1 17 1.000000
Mdl_0_Mtl_Comb6
0  -19.904499 -3.347844 24.420000  0.512131 -0.856838 -0.059389  0.858170 0.017947 1 17 1.000000
0  -27.351900 -7.799324 24.419998  0.511338 -0.855495 -0.081515  0.858170 0.984655 1 17 1.000000
0  -27.351900 -7.799315 -26.878901  0.511185 -0.855251 0.084841  0.067736 0.984655 1 17 1.000000
Mdl_0_Mtl_Comb6
0  -19.904499 -3.347844 24.420000  0.512131 -0.856838 -0.059389  0.858170 0.017947 1 17 1.000000
0  -27.351900 -7.799315 -26.878901  0.511185 -0.855251 0.084841  0.067736 0.984655 1 17 1.000000
0  -19.904499 -3.347836 -26.878899  0.512101 -0.856746 0.060915  0.067736 0.017947 1 17 1.000000
Mdl_0_Mtl_Comb6
0  -27.351900 -7.799315 -26.878901  0.511185 -0.855251 0.084841  0.067736 0.984655 1 17 1.000000
0  -25.082300 -7.799314 -32.912201  0.503739 -0.842799 0.189489  -0.037046 0.984655 1 17 1.000000
0  -19.904499 -3.347836 -26.878899  0.512101 -0.856746 0.060915  0.067736 0.017947 1 17 1.000000
Mdl_0_Mtl_Comb6
0  -19.904499 -7.799314 -37.082500  0.117466 -0.910215 0.397076  0.181695 0.985019 1 17 1.000000
0  -19.904499 -3.347836 -26.878899  0.089602 -0.912870 0.398236  0.181695 0.019975 1 17 1.000000
0  -25.082300 -7.799314 -32.912201  0.306528 -0.872433 0.380596  0.000000 0.985019 1 17 1.000000
Mdl_0_Mtl_Comb6
0  -19.904499 -7.799314 -37.082500  0.117466 -0.910215 0.397076  0.181695 0.985019 1 17 1.000000
0  19.904400 -3.347836 -26.878899  -0.087985 -0.912992 0.398297  0.818305 0.019975 1 17 1.000000
0  -19.904499 -3.347836 -26.878899  0.089602 -0.912870 0.398236  0.181695 0.019975 1 17 1.000000
Mdl_0_Mtl_Comb6
0  -19.904499 -7.799314 -37.082500  0.117466 -0.910215 0.397076  0.181695 0.985019 1 17 1.000000
0  19.904400 -7.799314 -37.082500  -0.114383 -0.910550 0.397229  0.818305 0.985019 1 17 1.000000
0  19.904400 -3.347836 -26.878899  -0.087985 -0.912992 0.398297  0.818305 0.019975 1 17 1.000000
Mdl_0_Mtl_Comb6
0  19.904400 -7.799314 -37.082500  -0.114383 -0.910550 0.397229  0.818305 0.985019 1 17 1.000000
0  25.296499 -7.799314 -32.912201  -0.295450 -0.875637 0.382000  1.000000 0.985019 1 17 1.000000
0  19.904400 -3.347836 -26.878899  -0.087985 -0.912992 0.398297  0.818305 0.019975 1 17 1.000000
end
