%YAML 1.1
%TAG !u! tag:unity3d.com,2011:
--- !u!114 &11400000
MonoBehaviour:
  m_ObjectHideFlags: 0
  m_CorrespondingSourceObject: {fileID: 0}
  m_PrefabInstance: {fileID: 0}
  m_PrefabAsset: {fileID: 0}
  m_GameObject: {fileID: 0}
  m_Enabled: 1
  m_EditorHideFlags: 0
  m_Script: {fileID: 11500000, guid: d41752cee08f91742890500bc75250ec, type: 3}
  m_Name: Character1
  m_EditorClassIdentifier: 
  characterName: Charmander
  characterPreviewPrefab: {fileID: 919132149155446097, guid: b25e8769a14d45d4e8989d0690e83359, type: 3}
  gameplayCharacterPrefab: {fileID: 239596403965839869, guid: e491cb5b70ecdb148b3a4d978618e552, type: 3}
