Library\Bee\artifacts\movedfrom\Unity.Collections.ref.dll_16072136215144769257.movedfrom
Library\Bee\artifacts\movedfrom\UnityEditor.UI.ref.dll_5337946118054863897.movedfrom
Library\Bee\artifacts\movedfrom\UnityEngine.UI.ref.dll_466694382556810372.movedfrom
Library\Bee\artifacts\movedfrom\Unity.Burst.Cecil.dll_881077742865164931.movedfrom
Library\Bee\artifacts\movedfrom\Unity.Burst.Cecil.Mdb.dll_1847447657121937024.movedfrom
Library\Bee\artifacts\movedfrom\Unity.Burst.Cecil.Pdb.dll_3527985688347047939.movedfrom
Library\Bee\artifacts\movedfrom\Unity.Burst.Cecil.Rocks.dll_7731214164804789891.movedfrom
Library\Bee\artifacts\movedfrom\Unity.Burst.Unsafe.dll_4551371293590776352.movedfrom
Library\Bee\artifacts\movedfrom\Unity.Plastic.Antlr3.Runtime.dll_16349779103534063869.movedfrom
Library\Bee\artifacts\movedfrom\Unity.Plastic.Newtonsoft.Json.dll_18218661723039173096.movedfrom
Library\Bee\artifacts\movedfrom\Unity.Collections.LowLevel.ILSupport.dll_12049340224769601669.movedfrom
Library\Bee\artifacts\movedfrom\UnityEditor.Graphs.dll_218296532645241168.movedfrom
Library\Bee\artifacts\movedfrom\UnityEditor.CoreModule.dll_3882549645503427870.movedfrom
Library\Bee\artifacts\movedfrom\UnityEditor.DeviceSimulatorModule.dll_772594198803182851.movedfrom
Library\Bee\artifacts\movedfrom\UnityEditor.dll_8727329237535320599.movedfrom
Library\Bee\artifacts\movedfrom\UnityEditor.GraphViewModule.dll_16732457369186544200.movedfrom
Library\Bee\artifacts\movedfrom\UnityEditor.PackageManagerUIModule.dll_1409053105030678778.movedfrom
Library\Bee\artifacts\movedfrom\UnityEditor.QuickSearchModule.dll_12846208453361445610.movedfrom
Library\Bee\artifacts\movedfrom\UnityEditor.SceneTemplateModule.dll_777655801963530923.movedfrom
Library\Bee\artifacts\movedfrom\UnityEditor.UIBuilderModule.dll_4377022129190970236.movedfrom
Library\Bee\artifacts\movedfrom\UnityEditor.UIElementsModule.dll_14643539252213021594.movedfrom
Library\Bee\artifacts\movedfrom\UnityEditor.UIElementsSamplesModule.dll_1571352337849715.movedfrom
Library\Bee\artifacts\movedfrom\UnityEditor.UIServiceModule.dll_8480383456196096918.movedfrom
Library\Bee\artifacts\movedfrom\UnityEditor.UnityConnectModule.dll_15059534965695722196.movedfrom
Library\Bee\artifacts\movedfrom\UnityEngine.AccessibilityModule.dll_4427097171309163080.movedfrom
Library\Bee\artifacts\movedfrom\UnityEngine.AIModule.dll_4838011375569750962.movedfrom
Library\Bee\artifacts\movedfrom\UnityEngine.AndroidJNIModule.dll_5296574219768097392.movedfrom
Library\Bee\artifacts\movedfrom\UnityEngine.AnimationModule.dll_13167150354096717550.movedfrom
Library\Bee\artifacts\movedfrom\UnityEngine.ARModule.dll_18200971038169213563.movedfrom
Library\Bee\artifacts\movedfrom\UnityEngine.AssetBundleModule.dll_17739706935795605468.movedfrom
Library\Bee\artifacts\movedfrom\UnityEngine.AudioModule.dll_1037840868608504928.movedfrom
Library\Bee\artifacts\movedfrom\UnityEngine.ClothModule.dll_8453119887544931140.movedfrom
Library\Bee\artifacts\movedfrom\UnityEngine.ClusterInputModule.dll_5808144167203112346.movedfrom
Library\Bee\artifacts\movedfrom\UnityEngine.ClusterRendererModule.dll_1181509657448678023.movedfrom
Library\Bee\artifacts\movedfrom\UnityEngine.CoreModule.dll_6413804988045353033.movedfrom
Library\Bee\artifacts\movedfrom\UnityEngine.CrashReportingModule.dll_5921954840372935553.movedfrom
Library\Bee\artifacts\movedfrom\UnityEngine.DirectorModule.dll_13233989680109451430.movedfrom
Library\Bee\artifacts\movedfrom\UnityEngine.dll_12376448730723776252.movedfrom
Library\Bee\artifacts\movedfrom\UnityEngine.DSPGraphModule.dll_13617184228931062215.movedfrom
Library\Bee\artifacts\movedfrom\UnityEngine.GameCenterModule.dll_8344748221423541089.movedfrom
Library\Bee\artifacts\movedfrom\UnityEngine.GIModule.dll_15807734490732770252.movedfrom
Library\Bee\artifacts\movedfrom\UnityEngine.GridModule.dll_3923626578510542400.movedfrom
Library\Bee\artifacts\movedfrom\UnityEngine.HotReloadModule.dll_4036311041964710512.movedfrom
Library\Bee\artifacts\movedfrom\UnityEngine.ImageConversionModule.dll_8959786623433751163.movedfrom
Library\Bee\artifacts\movedfrom\UnityEngine.IMGUIModule.dll_5099981521280600129.movedfrom
Library\Bee\artifacts\movedfrom\UnityEngine.InputLegacyModule.dll_9760765589190809037.movedfrom
Library\Bee\artifacts\movedfrom\UnityEngine.InputModule.dll_8420867593463863556.movedfrom
Library\Bee\artifacts\movedfrom\UnityEngine.JSONSerializeModule.dll_11351251014192747218.movedfrom
Library\Bee\artifacts\movedfrom\UnityEngine.LocalizationModule.dll_10297329551862266003.movedfrom
Library\Bee\artifacts\movedfrom\UnityEngine.ParticleSystemModule.dll_11907882287714731791.movedfrom
Library\Bee\artifacts\movedfrom\UnityEngine.PerformanceReportingModule.dll_15259749874956664328.movedfrom
Library\Bee\artifacts\movedfrom\UnityEngine.Physics2DModule.dll_243490615199069827.movedfrom
Library\Bee\artifacts\movedfrom\UnityEngine.PhysicsModule.dll_17814914784760884017.movedfrom
Library\Bee\artifacts\movedfrom\UnityEngine.ProfilerModule.dll_16856635537039392691.movedfrom
Library\Bee\artifacts\movedfrom\UnityEngine.RuntimeInitializeOnLoadManagerInitializerModule.dll_13728446388431220044.movedfrom
Library\Bee\artifacts\movedfrom\UnityEngine.ScreenCaptureModule.dll_13217902371845996340.movedfrom
Library\Bee\artifacts\movedfrom\UnityEngine.SharedInternalsModule.dll_29499123883226571.movedfrom
Library\Bee\artifacts\movedfrom\UnityEngine.SpriteMaskModule.dll_6699934420888285403.movedfrom
Library\Bee\artifacts\movedfrom\UnityEngine.SpriteShapeModule.dll_1121755653392799718.movedfrom
Library\Bee\artifacts\movedfrom\UnityEngine.StreamingModule.dll_7732692432954832428.movedfrom
Library\Bee\artifacts\movedfrom\UnityEngine.SubstanceModule.dll_5186773573635847226.movedfrom
Library\Bee\artifacts\movedfrom\UnityEngine.SubsystemsModule.dll_14386847130138269934.movedfrom
Library\Bee\artifacts\movedfrom\UnityEngine.TerrainModule.dll_1261507120369841183.movedfrom
Library\Bee\artifacts\movedfrom\UnityEngine.TerrainPhysicsModule.dll_11942407859488817564.movedfrom
Library\Bee\artifacts\movedfrom\UnityEngine.TextCoreModule.dll_5792587249978337462.movedfrom
Library\Bee\artifacts\movedfrom\UnityEngine.TextRenderingModule.dll_16190122041282920233.movedfrom
Library\Bee\artifacts\movedfrom\UnityEngine.TilemapModule.dll_12717652476640236840.movedfrom
Library\Bee\artifacts\movedfrom\UnityEngine.TLSModule.dll_3821853693411428293.movedfrom
Library\Bee\artifacts\movedfrom\UnityEngine.UIElementsModule.dll_14692636054203765989.movedfrom
Library\Bee\artifacts\movedfrom\UnityEngine.UIElementsNativeModule.dll_6775572089966180636.movedfrom
Library\Bee\artifacts\movedfrom\UnityEngine.UIModule.dll_4510266945360712030.movedfrom
Library\Bee\artifacts\movedfrom\UnityEngine.UmbraModule.dll_9888729257745686483.movedfrom
Library\Bee\artifacts\movedfrom\UnityEngine.UNETModule.dll_16981017631062578626.movedfrom
Library\Bee\artifacts\movedfrom\UnityEngine.UnityAnalyticsModule.dll_14186546235666487563.movedfrom
Library\Bee\artifacts\movedfrom\UnityEngine.UnityConnectModule.dll_13717326001630229375.movedfrom
Library\Bee\artifacts\movedfrom\UnityEngine.UnityCurlModule.dll_16850146183084765403.movedfrom
Library\Bee\artifacts\movedfrom\UnityEngine.UnityTestProtocolModule.dll_13531147635408597705.movedfrom
Library\Bee\artifacts\movedfrom\UnityEngine.UnityWebRequestAssetBundleModule.dll_785464661869972508.movedfrom
Library\Bee\artifacts\movedfrom\UnityEngine.UnityWebRequestAudioModule.dll_5458883401094613152.movedfrom
Library\Bee\artifacts\movedfrom\UnityEngine.UnityWebRequestModule.dll_10229528670285157626.movedfrom
Library\Bee\artifacts\movedfrom\UnityEngine.UnityWebRequestTextureModule.dll_18217142753199731317.movedfrom
Library\Bee\artifacts\movedfrom\UnityEngine.UnityWebRequestWWWModule.dll_1197787949880369457.movedfrom
Library\Bee\artifacts\movedfrom\UnityEngine.VehiclesModule.dll_3416979768300914753.movedfrom
Library\Bee\artifacts\movedfrom\UnityEngine.VFXModule.dll_13107880776907288882.movedfrom
Library\Bee\artifacts\movedfrom\UnityEngine.VideoModule.dll_3706650716867989509.movedfrom
Library\Bee\artifacts\movedfrom\UnityEngine.VirtualTexturingModule.dll_9409250360245795239.movedfrom
Library\Bee\artifacts\movedfrom\UnityEngine.VRModule.dll_10478141756965902038.movedfrom
Library\Bee\artifacts\movedfrom\UnityEngine.WindModule.dll_14938797099985723058.movedfrom
Library\Bee\artifacts\movedfrom\UnityEngine.XRModule.dll_14134716128686908468.movedfrom
Library\Bee\artifacts\movedfrom\UnityEditor.Android.Extensions.dll_2829453951621495302.movedfrom
Library\Bee\artifacts\movedfrom\UnityEditor.WebGL.Extensions.dll_16545373254931687026.movedfrom
Library\Bee\artifacts\movedfrom\UnityEditor.WindowsStandalone.Extensions.dll_2433801479836204130.movedfrom