Library\Bee\artifacts\mvdfrm\Unity.PlasticSCM.Editor.ref.dll_257AEB342BE77856.mvfrm
Library\Bee\artifacts\mvdfrm\Unity.Services.Core.Editor.ref.dll_CCD0CF61C5D7A10A.mvfrm
Library\Bee\artifacts\mvdfrm\UnityEditor.TestRunner.ref.dll_193EC4CE382CBFB3.mvfrm
Library\Bee\artifacts\mvdfrm\UnityEditor.UI.ref.dll_4C98D3F7040CD4F5.mvfrm
Library\Bee\artifacts\mvdfrm\UnityEngine.TestRunner.ref.dll_E55D0F7C63F01D9E.mvfrm
Library\Bee\artifacts\mvdfrm\UnityEngine.UI.ref.dll_08FEAA520A2EFD60.mvfrm
Library\Bee\artifacts\mvdfrm\Unity.Burst.Cecil.dll_6210FD91492E03BA.mvfrm
Library\Bee\artifacts\mvdfrm\Unity.Burst.Cecil.Mdb.dll_4E4AA4D1BA3F6577.mvfrm
Library\Bee\artifacts\mvdfrm\Unity.Burst.Cecil.Pdb.dll_659D1D4138F466FA.mvfrm
Library\Bee\artifacts\mvdfrm\Unity.Burst.Cecil.Rocks.dll_9249062918A4EA5A.mvfrm
Library\Bee\artifacts\mvdfrm\Unity.Burst.Unsafe.dll_2B77BAFEEF945EB9.mvfrm
Library\Bee\artifacts\mvdfrm\Unity.Plastic.Antlr3.Runtime.dll_FECCD113D2E33F93.mvfrm
Library\Bee\artifacts\mvdfrm\Unity.Plastic.Newtonsoft.Json.dll_62CA3C9B02CE7EF2.mvfrm
Library\Bee\artifacts\mvdfrm\Unity.Collections.LowLevel.ILSupport.dll_3A06FA3805B3DA9B.mvfrm
Library\Bee\artifacts\mvdfrm\UnityEditor.Graphs.dll_94C262D2372C4915.mvfrm
Library\Bee\artifacts\mvdfrm\UnityEditor.CoreModule.dll_513C4EB7501361E3.mvfrm
Library\Bee\artifacts\mvdfrm\UnityEditor.DeviceSimulatorModule.dll_2DBAE6C606E4A64E.mvfrm
Library\Bee\artifacts\mvdfrm\UnityEditor.DiagnosticsModule.dll_AD88684ED485951C.mvfrm
Library\Bee\artifacts\mvdfrm\UnityEditor.dll_FCC6986FE7FB8242.mvfrm
Library\Bee\artifacts\mvdfrm\UnityEditor.GraphViewModule.dll_A892C19E8C472D73.mvfrm
Library\Bee\artifacts\mvdfrm\UnityEditor.PackageManagerUIModule.dll_C2295FFF6328C17F.mvfrm
Library\Bee\artifacts\mvdfrm\UnityEditor.QuickSearchModule.dll_3897E95C2D5C9175.mvfrm
Library\Bee\artifacts\mvdfrm\UnityEditor.SceneTemplateModule.dll_13584547FCBEC096.mvfrm
Library\Bee\artifacts\mvdfrm\UnityEditor.TextCoreFontEngineModule.dll_E4D311AA816C1801.mvfrm
Library\Bee\artifacts\mvdfrm\UnityEditor.TextCoreTextEngineModule.dll_2CBB481C10EFD11F.mvfrm
Library\Bee\artifacts\mvdfrm\UnityEditor.UIBuilderModule.dll_FD1B6EBAFEFFA6A7.mvfrm
Library\Bee\artifacts\mvdfrm\UnityEditor.UIElementsModule.dll_D2A411D5A406943F.mvfrm
Library\Bee\artifacts\mvdfrm\UnityEditor.UIElementsSamplesModule.dll_13E0F3D91644B61E.mvfrm
Library\Bee\artifacts\mvdfrm\UnityEditor.UIServiceModule.dll_360D801DE836F6C1.mvfrm
Library\Bee\artifacts\mvdfrm\UnityEditor.UnityConnectModule.dll_FE74B8FA52DE0219.mvfrm
Library\Bee\artifacts\mvdfrm\UnityEngine.AccessibilityModule.dll_45FDB0DEFD34E833.mvfrm
Library\Bee\artifacts\mvdfrm\UnityEngine.AIModule.dll_EFD6AA4A549D51D7.mvfrm
Library\Bee\artifacts\mvdfrm\UnityEngine.AndroidJNIModule.dll_50ECFAA8ED260315.mvfrm
Library\Bee\artifacts\mvdfrm\UnityEngine.AnimationModule.dll_77183DC766A40219.mvfrm
Library\Bee\artifacts\mvdfrm\UnityEngine.ARModule.dll_A9496F4DB1BAB0A0.mvfrm
Library\Bee\artifacts\mvdfrm\UnityEngine.AssetBundleModule.dll_7C811C4D8FC34667.mvfrm
Library\Bee\artifacts\mvdfrm\UnityEngine.AudioModule.dll_88FA8F84A80DB4CB.mvfrm
Library\Bee\artifacts\mvdfrm\UnityEngine.ClothModule.dll_EFE2EC7F822A93AF.mvfrm
Library\Bee\artifacts\mvdfrm\UnityEngine.ClusterInputModule.dll_7E112E100465D4DF.mvfrm
Library\Bee\artifacts\mvdfrm\UnityEngine.ClusterRendererModule.dll_3367A937769FB3D2.mvfrm
Library\Bee\artifacts\mvdfrm\UnityEngine.CoreModule.dll_745D2209F818CD0E.mvfrm
Library\Bee\artifacts\mvdfrm\UnityEngine.CrashReportingModule.dll_615B5A78E3731566.mvfrm
Library\Bee\artifacts\mvdfrm\UnityEngine.DirectorModule.dll_C18C5D551E42EEAB.mvfrm
Library\Bee\artifacts\mvdfrm\UnityEngine.dll_2F6ADF48466F0F27.mvfrm
Library\Bee\artifacts\mvdfrm\UnityEngine.DSPGraphModule.dll_C6DDBEBE90A3BFCC.mvfrm
Library\Bee\artifacts\mvdfrm\UnityEngine.GameCenterModule.dll_7B3A44C3B366F406.mvfrm
Library\Bee\artifacts\mvdfrm\UnityEngine.GIModule.dll_8812F357F04C39F1.mvfrm
Library\Bee\artifacts\mvdfrm\UnityEngine.GridModule.dll_51CE3DF8106D6305.mvfrm
Library\Bee\artifacts\mvdfrm\UnityEngine.HotReloadModule.dll_F860FBCD41D71D9B.mvfrm
Library\Bee\artifacts\mvdfrm\UnityEngine.ImageConversionModule.dll_9F59A6E7F8C46BC6.mvfrm
Library\Bee\artifacts\mvdfrm\UnityEngine.IMGUIModule.dll_C15A2EEB6E3F48AC.mvfrm
Library\Bee\artifacts\mvdfrm\UnityEngine.InputLegacyModule.dll_0DC6376C27B4FC58.mvfrm
Library\Bee\artifacts\mvdfrm\UnityEngine.InputModule.dll_EF7057351E45D96F.mvfrm
Library\Bee\artifacts\mvdfrm\UnityEngine.JSONSerializeModule.dll_A6153A1AFC7048BD.mvfrm
Library\Bee\artifacts\mvdfrm\UnityEngine.LocalizationModule.dll_BC5DF8629BE1C7D8.mvfrm
Library\Bee\artifacts\mvdfrm\UnityEngine.NVIDIAModule.dll_0A7DE5FB4A184F3A.mvfrm
Library\Bee\artifacts\mvdfrm\UnityEngine.ParticleSystemModule.dll_B46DA3C55184A0F4.mvfrm
Library\Bee\artifacts\mvdfrm\UnityEngine.PerformanceReportingModule.dll_6EF39B35AF44EFCD.mvfrm
Library\Bee\artifacts\mvdfrm\UnityEngine.Physics2DModule.dll_C3BE2DB807A0F9AE.mvfrm
Library\Bee\artifacts\mvdfrm\UnityEngine.PhysicsModule.dll_D6E6D41CD8A7B6FC.mvfrm
Library\Bee\artifacts\mvdfrm\UnityEngine.ProfilerModule.dll_F3D2968BB79C75B8.mvfrm
Library\Bee\artifacts\mvdfrm\UnityEngine.RuntimeInitializeOnLoadManagerInitializerModule.dll_6452B3D56A76C677.mvfrm
Library\Bee\artifacts\mvdfrm\UnityEngine.ScreenCaptureModule.dll_BFFCE7A010DC751F.mvfrm
Library\Bee\artifacts\mvdfrm\UnityEngine.SharedInternalsModule.dll_236AE5BD6FF26716.mvfrm
Library\Bee\artifacts\mvdfrm\UnityEngine.SpriteMaskModule.dll_6466B753D4D68980.mvfrm
Library\Bee\artifacts\mvdfrm\UnityEngine.SpriteShapeModule.dll_95E249A845657E71.mvfrm
Library\Bee\artifacts\mvdfrm\UnityEngine.StreamingModule.dll_2BAD2B17B62BB957.mvfrm
Library\Bee\artifacts\mvdfrm\UnityEngine.SubstanceModule.dll_08583F61017EB765.mvfrm
Library\Bee\artifacts\mvdfrm\UnityEngine.SubsystemsModule.dll_CF141DB5A31E7193.mvfrm
Library\Bee\artifacts\mvdfrm\UnityEngine.TerrainModule.dll_F12D4F8BAE65FFEA.mvfrm
Library\Bee\artifacts\mvdfrm\UnityEngine.TerrainPhysicsModule.dll_B4E84C986AC79B81.mvfrm
Library\Bee\artifacts\mvdfrm\UnityEngine.TextCoreFontEngineModule.dll_63328CFD9469D6CC.mvfrm
Library\Bee\artifacts\mvdfrm\UnityEngine.TextCoreTextEngineModule.dll_AB1AC36F23ED8FEA.mvfrm
Library\Bee\artifacts\mvdfrm\UnityEngine.TextRenderingModule.dll_E93C59AAC813F514.mvfrm
Library\Bee\artifacts\mvdfrm\UnityEngine.TilemapModule.dll_9029B70CC622E0F3.mvfrm
Library\Bee\artifacts\mvdfrm\UnityEngine.TLSModule.dll_7CACF7AAAC51E8D0.mvfrm
Library\Bee\artifacts\mvdfrm\UnityEngine.UIElementsModule.dll_D3527F1DA64AAD8A.mvfrm
Library\Bee\artifacts\mvdfrm\UnityEngine.UIElementsNativeModule.dll_0CA31494D4A131A1.mvfrm
Library\Bee\artifacts\mvdfrm\UnityEngine.UIModule.dll_EB4A4877B0E45783.mvfrm
Library\Bee\artifacts\mvdfrm\UnityEngine.UmbraModule.dll_03CF3B9D3534603E.mvfrm
Library\Bee\artifacts\mvdfrm\UnityEngine.UNETModule.dll_070369F34527C287.mvfrm
Library\Bee\artifacts\mvdfrm\UnityEngine.UnityAnalyticsModule.dll_D40D148EFDABF2F0.mvfrm
Library\Bee\artifacts\mvdfrm\UnityEngine.UnityConnectModule.dll_EBD43D094D6602C4.mvfrm
Library\Bee\artifacts\mvdfrm\UnityEngine.UnityCurlModule.dll_AA34DEF8D6B7F406.mvfrm
Library\Bee\artifacts\mvdfrm\UnityEngine.UnityTestProtocolModule.dll_CFA3A9CB70400B74.mvfrm
Library\Bee\artifacts\mvdfrm\UnityEngine.UnityWebRequestAssetBundleModule.dll_CA5A6E8843CAC9C1.mvfrm
Library\Bee\artifacts\mvdfrm\UnityEngine.UnityWebRequestAudioModule.dll_E6EFEF1435AFBA65.mvfrm
Library\Bee\artifacts\mvdfrm\UnityEngine.UnityWebRequestModule.dll_B0F8AE9203B90645.mvfrm
Library\Bee\artifacts\mvdfrm\UnityEngine.UnityWebRequestTextureModule.dll_12DCA1EA8A9ABEDA.mvfrm
Library\Bee\artifacts\mvdfrm\UnityEngine.UnityWebRequestWWWModule.dll_75DD08CB13AD4C56.mvfrm
Library\Bee\artifacts\mvdfrm\UnityEngine.VehiclesModule.dll_394F56D4986CBE46.mvfrm
Library\Bee\artifacts\mvdfrm\UnityEngine.VFXModule.dll_FD8B901982BF523D.mvfrm
Library\Bee\artifacts\mvdfrm\UnityEngine.VideoModule.dll_AE0413EF6A9FD070.mvfrm
Library\Bee\artifacts\mvdfrm\UnityEngine.VirtualTexturingModule.dll_312FC903AD4FB22C.mvfrm
Library\Bee\artifacts\mvdfrm\UnityEngine.VRModule.dll_3E1C6EFD529EDCFB.mvfrm
Library\Bee\artifacts\mvdfrm\UnityEngine.WindModule.dll_EAABFD32894F4B77.mvfrm
Library\Bee\artifacts\mvdfrm\UnityEngine.XRModule.dll_70DB3201DBD92A59.mvfrm
Library\Bee\artifacts\mvdfrm\UnityEditor.WindowsStandalone.Extensions.dll_CE47E43BBA6878ED.mvfrm